<?xml version='1.0' encoding='UTF-8'?>
<gpx version="1.1" creator="JOSM GPX export" xmlns="http://www.topografix.com/GPX/1/1"
    xmlns:xsi="http://www.w3.org/2001/XMLSchema-instance"
    xsi:schemaLocation="http://www.topografix.com/GPX/1/1 http://www.topografix.com/GPX/1/1/gpx.xsd">
  <metadata>
    <desc>MC/12/01 Causse de Sauveterre</desc>
    <author>
      <name>Grégory DAVID</name>
      <email id="gregory.david" domain="groolot.net"/>
    </author>
    <copyright author="Grégory DAVID">
      <year>2021</year>
      <license>https://creativecommons.org/licenses/by-sa/3.0</license>
    </copyright>
    <bounds minlat="44.2033056" minlon="3.1995152" maxlat="44.2531549" maxlon="3.2226364"/>
  </metadata>
  <trk>
    <trkseg>
      <trkpt lat="44.2214323" lon="3.2225348">
        <ele>411.3</ele>
        <time>2021-03-22T06:37:20Z</time>
        <hdop>7.5</hdop>
      </trkpt>
      <trkpt lat="44.2214084" lon="3.2225236">
        <ele>402.7</ele>
        <time>2021-03-22T06:38:44Z</time>
        <hdop>8.6</hdop>
      </trkpt>
      <trkpt lat="44.2213806" lon="3.2225061">
        <ele>395</ele>
        <time>2021-03-22T06:39:16Z</time>
        <hdop>6.4</hdop>
      </trkpt>
      <trkpt lat="44.2214476" lon="3.2223293">
        <ele>398.7</ele>
        <time>2021-03-22T06:39:46Z</time>
        <hdop>3.2</hdop>
      </trkpt>
      <trkpt lat="44.2214585" lon="3.2220719">
        <ele>406</ele>
        <time>2021-03-22T06:40:17Z</time>
        <hdop>9.6</hdop>
      </trkpt>
      <trkpt lat="44.2211836" lon="3.2221914">
        <ele>409.1</ele>
        <time>2021-03-22T06:40:47Z</time>
        <hdop>3.2</hdop>
      </trkpt>
      <trkpt lat="44.2211075" lon="3.2219798">
        <ele>410.4</ele>
        <time>2021-03-22T06:41:18Z</time>
        <hdop>6.4</hdop>
      </trkpt>
      <trkpt lat="44.221291" lon="3.221693">
        <ele>415.4</ele>
        <time>2021-03-22T06:41:49Z</time>
        <hdop>4.3</hdop>
      </trkpt>
      <trkpt lat="44.2214991" lon="3.2213924">
        <ele>428.2</ele>
        <time>2021-03-22T06:42:19Z</time>
        <hdop>4.3</hdop>
      </trkpt>
      <trkpt lat="44.2215286" lon="3.2210799">
        <ele>426.4</ele>
        <time>2021-03-22T06:42:50Z</time>
        <hdop>4.3</hdop>
      </trkpt>
      <trkpt lat="44.221632" lon="3.2206451">
        <ele>426.4</ele>
        <time>2021-03-22T06:43:21Z</time>
        <hdop>6.4</hdop>
      </trkpt>
      <trkpt lat="44.2216816" lon="3.2201207">
        <ele>431.9</ele>
        <time>2021-03-22T06:43:52Z</time>
        <hdop>8.6</hdop>
      </trkpt>
      <trkpt lat="44.2217786" lon="3.2195709">
        <ele>443.4</ele>
        <time>2021-03-22T06:44:23Z</time>
        <hdop>6.4</hdop>
      </trkpt>
      <trkpt lat="44.2218533" lon="3.2190612">
        <ele>447.7</ele>
        <time>2021-03-22T06:44:53Z</time>
        <hdop>7.5</hdop>
      </trkpt>
      <trkpt lat="44.2221805" lon="3.218854">
        <ele>457.8</ele>
        <time>2021-03-22T06:45:24Z</time>
        <hdop>3.2</hdop>
      </trkpt>
      <trkpt lat="44.2223047" lon="3.2191326">
        <ele>457</ele>
        <time>2021-03-22T06:45:55Z</time>
        <hdop>3.2</hdop>
      </trkpt>
      <trkpt lat="44.2225272" lon="3.2192593">
        <ele>460.3</ele>
        <time>2021-03-22T06:46:25Z</time>
        <hdop>5.4</hdop>
      </trkpt>
      <trkpt lat="44.222627" lon="3.2195594">
        <ele>469.1</ele>
        <time>2021-03-22T06:46:55Z</time>
        <hdop>4.3</hdop>
      </trkpt>
      <trkpt lat="44.2226775" lon="3.2196285">
        <ele>470.8</ele>
        <time>2021-03-22T06:47:26Z</time>
        <hdop>5.4</hdop>
      </trkpt>
      <trkpt lat="44.2226871" lon="3.2197647">
        <ele>475.8</ele>
        <time>2021-03-22T06:47:57Z</time>
        <hdop>4.3</hdop>
      </trkpt>
      <trkpt lat="44.2229005" lon="3.2200564">
        <ele>467.9</ele>
        <time>2021-03-22T06:48:27Z</time>
        <hdop>4.3</hdop>
      </trkpt>
      <trkpt lat="44.2232849" lon="3.2201355">
        <ele>478.6</ele>
        <time>2021-03-22T06:48:58Z</time>
        <hdop>4.3</hdop>
      </trkpt>
      <trkpt lat="44.2235392" lon="3.2200227">
        <ele>492.5</ele>
        <time>2021-03-22T06:49:28Z</time>
        <hdop>4.3</hdop>
      </trkpt>
      <trkpt lat="44.223672" lon="3.2199186">
        <ele>493.4</ele>
        <time>2021-03-22T06:49:59Z</time>
        <hdop>3.2</hdop>
      </trkpt>
      <trkpt lat="44.2235176" lon="3.2198889">
        <ele>492.9</ele>
        <time>2021-03-22T06:50:29Z</time>
        <hdop>3.2</hdop>
      </trkpt>
      <trkpt lat="44.2232737" lon="3.2197404">
        <ele>502.8</ele>
        <time>2021-03-22T06:50:59Z</time>
        <hdop>3.2</hdop>
      </trkpt>
      <trkpt lat="44.2233184" lon="3.2195554">
        <ele>506.2</ele>
        <time>2021-03-22T06:51:30Z</time>
        <hdop>3.2</hdop>
      </trkpt>
      <trkpt lat="44.2233644" lon="3.2193731">
        <ele>512.8</ele>
        <time>2021-03-22T06:52:00Z</time>
        <hdop>4.3</hdop>
      </trkpt>
      <trkpt lat="44.2233644" lon="3.219291">
        <ele>513.7</ele>
        <time>2021-03-22T06:52:37Z</time>
        <hdop>3.2</hdop>
      </trkpt>
      <trkpt lat="44.2233472" lon="3.2192693">
        <ele>515.5</ele>
        <time>2021-03-22T06:53:08Z</time>
        <hdop>3.2</hdop>
      </trkpt>
      <trkpt lat="44.2233683" lon="3.2189172">
        <ele>518.4</ele>
        <time>2021-03-22T06:53:38Z</time>
        <hdop>3.2</hdop>
      </trkpt>
      <trkpt lat="44.2234123" lon="3.2185722">
        <ele>524.8</ele>
        <time>2021-03-22T06:54:09Z</time>
        <hdop>4.3</hdop>
      </trkpt>
      <trkpt lat="44.2234215" lon="3.2182071">
        <ele>527.5</ele>
        <time>2021-03-22T06:54:39Z</time>
        <hdop>9.6</hdop>
      </trkpt>
      <trkpt lat="44.22346" lon="3.217856">
        <ele>535.7</ele>
        <time>2021-03-22T06:55:10Z</time>
        <hdop>3.2</hdop>
      </trkpt>
      <trkpt lat="44.2234438" lon="3.2175358">
        <ele>543.6</ele>
        <time>2021-03-22T06:55:41Z</time>
        <hdop>3.2</hdop>
      </trkpt>
      <trkpt lat="44.2233994" lon="3.21727">
        <ele>538</ele>
        <time>2021-03-22T06:56:11Z</time>
        <hdop>3.2</hdop>
      </trkpt>
      <trkpt lat="44.223423" lon="3.2172518">
        <ele>551.1</ele>
        <time>2021-03-22T06:58:33Z</time>
        <hdop>3.2</hdop>
      </trkpt>
      <trkpt lat="44.2235106" lon="3.2171273">
        <ele>551.4</ele>
        <time>2021-03-22T06:59:03Z</time>
        <hdop>3.2</hdop>
      </trkpt>
      <trkpt lat="44.2236726" lon="3.2173818">
        <ele>560.1</ele>
        <time>2021-03-22T06:59:34Z</time>
        <hdop>3.2</hdop>
      </trkpt>
      <trkpt lat="44.2236431" lon="3.2170759">
        <ele>566.8</ele>
        <time>2021-03-22T07:00:04Z</time>
        <hdop>3.2</hdop>
      </trkpt>
      <trkpt lat="44.2236141" lon="3.2168334">
        <ele>571.6</ele>
        <time>2021-03-22T07:00:35Z</time>
        <hdop>9.6</hdop>
      </trkpt>
      <trkpt lat="44.2237974" lon="3.2171103">
        <ele>574</ele>
        <time>2021-03-22T07:01:05Z</time>
        <hdop>3.2</hdop>
      </trkpt>
      <trkpt lat="44.2238071" lon="3.2167879">
        <ele>582</ele>
        <time>2021-03-22T07:01:36Z</time>
        <hdop>4.3</hdop>
      </trkpt>
      <trkpt lat="44.2237252" lon="3.2165351">
        <ele>585.3</ele>
        <time>2021-03-22T07:02:06Z</time>
        <hdop>3.2</hdop>
      </trkpt>
      <trkpt lat="44.2236163" lon="3.2162997">
        <ele>593</ele>
        <time>2021-03-22T07:02:36Z</time>
        <hdop>3.2</hdop>
      </trkpt>
      <trkpt lat="44.2233899" lon="3.2160879">
        <ele>598.7</ele>
        <time>2021-03-22T07:03:07Z</time>
        <hdop>3.2</hdop>
      </trkpt>
      <trkpt lat="44.2235769" lon="3.2159684">
        <ele>602.6</ele>
        <time>2021-03-22T07:03:37Z</time>
        <hdop>10.7</hdop>
      </trkpt>
      <trkpt lat="44.2237962" lon="3.2159413">
        <ele>606.1</ele>
        <time>2021-03-22T07:04:07Z</time>
        <hdop>9.6</hdop>
      </trkpt>
      <trkpt lat="44.2239529" lon="3.2162479">
        <ele>615.7</ele>
        <time>2021-03-22T07:04:38Z</time>
        <hdop>3.2</hdop>
      </trkpt>
      <trkpt lat="44.2241532" lon="3.2164437">
        <ele>620.1</ele>
        <time>2021-03-22T07:05:09Z</time>
        <hdop>4.3</hdop>
      </trkpt>
      <trkpt lat="44.2240867" lon="3.2162462">
        <ele>623.2</ele>
        <time>2021-03-22T07:05:41Z</time>
        <hdop>5.4</hdop>
      </trkpt>
      <trkpt lat="44.2240374" lon="3.2158486">
        <ele>625.6</ele>
        <time>2021-03-22T07:06:12Z</time>
        <hdop>3.2</hdop>
      </trkpt>
      <trkpt lat="44.2241351" lon="3.2159053">
        <ele>634.9</ele>
        <time>2021-03-22T07:06:43Z</time>
        <hdop>5.4</hdop>
      </trkpt>
      <trkpt lat="44.2243434" lon="3.2161063">
        <ele>641.8</ele>
        <time>2021-03-22T07:07:13Z</time>
        <hdop>4.3</hdop>
      </trkpt>
      <trkpt lat="44.2243737" lon="3.2162198">
        <ele>645.8</ele>
        <time>2021-03-22T07:07:44Z</time>
        <hdop>5.4</hdop>
      </trkpt>
      <trkpt lat="44.2244963" lon="3.2164336">
        <ele>648.3</ele>
        <time>2021-03-22T07:08:14Z</time>
        <hdop>9.6</hdop>
      </trkpt>
      <trkpt lat="44.224578" lon="3.2168068">
        <ele>654</ele>
        <time>2021-03-22T07:08:45Z</time>
        <hdop>9.6</hdop>
      </trkpt>
      <trkpt lat="44.2246686" lon="3.216883">
        <ele>659.8</ele>
        <time>2021-03-22T07:09:16Z</time>
        <hdop>10.7</hdop>
      </trkpt>
      <trkpt lat="44.2246848" lon="3.2164496">
        <ele>659.7</ele>
        <time>2021-03-22T07:09:47Z</time>
        <hdop>10.7</hdop>
      </trkpt>
      <trkpt lat="44.2245648" lon="3.2160145">
        <ele>658.4</ele>
        <time>2021-03-22T07:10:18Z</time>
        <hdop>10.7</hdop>
      </trkpt>
      <trkpt lat="44.2243918" lon="3.2155795">
        <ele>658.4</ele>
        <time>2021-03-22T07:10:49Z</time>
        <hdop>9.6</hdop>
      </trkpt>
      <trkpt lat="44.2242528" lon="3.2150452">
        <ele>662.9</ele>
        <time>2021-03-22T07:11:19Z</time>
        <hdop>9.6</hdop>
      </trkpt>
      <trkpt lat="44.2238733" lon="3.2150005">
        <ele>665.9</ele>
        <time>2021-03-22T07:11:50Z</time>
        <hdop>9.6</hdop>
      </trkpt>
      <trkpt lat="44.2236319" lon="3.214735">
        <ele>668.8</ele>
        <time>2021-03-22T07:12:20Z</time>
        <hdop>9.6</hdop>
      </trkpt>
      <trkpt lat="44.2233913" lon="3.2144634">
        <ele>674.7</ele>
        <time>2021-03-22T07:12:50Z</time>
        <hdop>9.6</hdop>
      </trkpt>
      <trkpt lat="44.2233541" lon="3.2140081">
        <ele>682.8</ele>
        <time>2021-03-22T07:13:21Z</time>
        <hdop>3.2</hdop>
      </trkpt>
      <trkpt lat="44.2232885" lon="3.213588">
        <ele>680.4</ele>
        <time>2021-03-22T07:13:52Z</time>
        <hdop>4.3</hdop>
      </trkpt>
      <trkpt lat="44.2229969" lon="3.2131217">
        <ele>684.8</ele>
        <time>2021-03-22T07:14:23Z</time>
        <hdop>3.2</hdop>
      </trkpt>
      <trkpt lat="44.2228499" lon="3.2127846">
        <ele>683.8</ele>
        <time>2021-03-22T07:17:37Z</time>
        <hdop>4.3</hdop>
      </trkpt>
      <trkpt lat="44.2226385" lon="3.2129535">
        <ele>682.8</ele>
        <time>2021-03-22T07:18:08Z</time>
        <hdop>3.2</hdop>
      </trkpt>
      <trkpt lat="44.2224098" lon="3.213069">
        <ele>690.4</ele>
        <time>2021-03-22T07:18:39Z</time>
        <hdop>3.2</hdop>
      </trkpt>
      <trkpt lat="44.2220849" lon="3.2130286">
        <ele>691.7</ele>
        <time>2021-03-22T07:19:10Z</time>
        <hdop>9.6</hdop>
      </trkpt>
      <trkpt lat="44.2217591" lon="3.2130781">
        <ele>698.4</ele>
        <time>2021-03-22T07:19:40Z</time>
        <hdop>9.6</hdop>
      </trkpt>
      <trkpt lat="44.2214991" lon="3.2131963">
        <ele>698.3</ele>
        <time>2021-03-22T07:20:10Z</time>
        <hdop>9.6</hdop>
      </trkpt>
      <trkpt lat="44.2211343" lon="3.2136542">
        <ele>698.7</ele>
        <time>2021-03-22T07:20:41Z</time>
        <hdop>9.6</hdop>
      </trkpt>
      <trkpt lat="44.220774" lon="3.2139736">
        <ele>693.4</ele>
        <time>2021-03-22T07:21:12Z</time>
        <hdop>9.6</hdop>
      </trkpt>
      <trkpt lat="44.220405" lon="3.2143945">
        <ele>694.3</ele>
        <time>2021-03-22T07:21:42Z</time>
        <hdop>9.6</hdop>
      </trkpt>
      <trkpt lat="44.2200663" lon="3.2148709">
        <ele>688.6</ele>
        <time>2021-03-22T07:22:13Z</time>
        <hdop>10.7</hdop>
      </trkpt>
      <trkpt lat="44.219858" lon="3.2153795">
        <ele>687.6</ele>
        <time>2021-03-22T07:22:43Z</time>
        <hdop>9.6</hdop>
      </trkpt>
      <trkpt lat="44.2195823" lon="3.2155992">
        <ele>696.1</ele>
        <time>2021-03-22T07:23:13Z</time>
        <hdop>10.7</hdop>
      </trkpt>
      <trkpt lat="44.2191772" lon="3.2153774">
        <ele>690.9</ele>
        <time>2021-03-22T07:23:44Z</time>
        <hdop>11.8</hdop>
      </trkpt>
      <trkpt lat="44.2188464" lon="3.2154121">
        <ele>681.6</ele>
        <time>2021-03-22T07:24:14Z</time>
        <hdop>10.7</hdop>
      </trkpt>
      <trkpt lat="44.2184269" lon="3.2154111">
        <ele>677</ele>
        <time>2021-03-22T07:24:45Z</time>
        <hdop>11.8</hdop>
      </trkpt>
      <trkpt lat="44.2180576" lon="3.2157546">
        <ele>677.7</ele>
        <time>2021-03-22T07:25:15Z</time>
        <hdop>10.7</hdop>
      </trkpt>
      <trkpt lat="44.217816" lon="3.2158847">
        <ele>683.2</ele>
        <time>2021-03-22T07:27:00Z</time>
        <hdop>9.6</hdop>
      </trkpt>
      <trkpt lat="44.217659" lon="3.2163894">
        <ele>672.9</ele>
        <time>2021-03-22T07:27:30Z</time>
        <hdop>10.7</hdop>
      </trkpt>
      <trkpt lat="44.217144" lon="3.2164619">
        <ele>673.3</ele>
        <time>2021-03-22T07:28:00Z</time>
        <hdop>10.7</hdop>
      </trkpt>
      <trkpt lat="44.2168547" lon="3.2169058">
        <ele>665.4</ele>
        <time>2021-03-22T07:28:31Z</time>
        <hdop>10.7</hdop>
      </trkpt>
      <trkpt lat="44.216822" lon="3.2170467">
        <ele>670.5</ele>
        <time>2021-03-22T07:29:04Z</time>
        <hdop>11.8</hdop>
      </trkpt>
      <trkpt lat="44.2167671" lon="3.2171551">
        <ele>662</ele>
        <time>2021-03-22T07:29:35Z</time>
        <hdop>9.6</hdop>
      </trkpt>
      <trkpt lat="44.2167029" lon="3.21775">
        <ele>665</ele>
        <time>2021-03-22T07:30:05Z</time>
        <hdop>9.6</hdop>
      </trkpt>
      <trkpt lat="44.2164971" lon="3.2182363">
        <ele>665.1</ele>
        <time>2021-03-22T07:30:36Z</time>
        <hdop>3.2</hdop>
      </trkpt>
      <trkpt lat="44.216175" lon="3.2187375">
        <ele>663.2</ele>
        <time>2021-03-22T07:31:06Z</time>
        <hdop>3.2</hdop>
      </trkpt>
      <trkpt lat="44.2158967" lon="3.2192525">
        <ele>667</ele>
        <time>2021-03-22T07:31:37Z</time>
        <hdop>3.2</hdop>
      </trkpt>
      <trkpt lat="44.215611" lon="3.219201">
        <ele>670.3</ele>
        <time>2021-03-22T07:32:07Z</time>
        <hdop>5.4</hdop>
      </trkpt>
      <trkpt lat="44.215376" lon="3.2190159">
        <ele>672</ele>
        <time>2021-03-22T07:32:38Z</time>
        <hdop>5.4</hdop>
      </trkpt>
      <trkpt lat="44.2149486" lon="3.218732">
        <ele>658.6</ele>
        <time>2021-03-22T07:33:09Z</time>
        <hdop>4.3</hdop>
      </trkpt>
      <trkpt lat="44.2144952" lon="3.2188125">
        <ele>654.7</ele>
        <time>2021-03-22T07:33:40Z</time>
        <hdop>3.2</hdop>
      </trkpt>
      <trkpt lat="44.2142342" lon="3.2186481">
        <ele>648.9</ele>
        <time>2021-03-22T07:34:11Z</time>
        <hdop>6.4</hdop>
      </trkpt>
      <trkpt lat="44.214114" lon="3.2179567">
        <ele>645.5</ele>
        <time>2021-03-22T07:34:42Z</time>
        <hdop>6.4</hdop>
      </trkpt>
      <trkpt lat="44.2137113" lon="3.2176681">
        <ele>646.1</ele>
        <time>2021-03-22T07:35:12Z</time>
        <hdop>4.3</hdop>
      </trkpt>
      <trkpt lat="44.2133003" lon="3.2174871">
        <ele>652.6</ele>
        <time>2021-03-22T07:35:43Z</time>
        <hdop>9.6</hdop>
      </trkpt>
      <trkpt lat="44.2129502" lon="3.2178034">
        <ele>652.1</ele>
        <time>2021-03-22T07:36:13Z</time>
        <hdop>3.2</hdop>
      </trkpt>
      <trkpt lat="44.2125183" lon="3.2180818">
        <ele>650.1</ele>
        <time>2021-03-22T07:36:44Z</time>
        <hdop>4.3</hdop>
      </trkpt>
      <trkpt lat="44.2121476" lon="3.2177712">
        <ele>646.1</ele>
        <time>2021-03-22T07:37:14Z</time>
        <hdop>5.4</hdop>
      </trkpt>
      <trkpt lat="44.2117457" lon="3.2177363">
        <ele>644.4</ele>
        <time>2021-03-22T07:37:44Z</time>
        <hdop>3.2</hdop>
      </trkpt>
      <trkpt lat="44.2113424" lon="3.2177204">
        <ele>639.3</ele>
        <time>2021-03-22T07:38:15Z</time>
        <hdop>5.4</hdop>
      </trkpt>
      <trkpt lat="44.2110402" lon="3.217598">
        <ele>630.5</ele>
        <time>2021-03-22T07:38:45Z</time>
        <hdop>4.3</hdop>
      </trkpt>
      <trkpt lat="44.2107762" lon="3.217292">
        <ele>626.9</ele>
        <time>2021-03-22T07:39:15Z</time>
        <hdop>4.3</hdop>
      </trkpt>
      <trkpt lat="44.2106886" lon="3.2172148">
        <ele>629.7</ele>
        <time>2021-03-22T07:39:50Z</time>
        <hdop>3.2</hdop>
      </trkpt>
      <trkpt lat="44.2106487" lon="3.2171496">
        <ele>620.5</ele>
        <time>2021-03-22T07:47:29Z</time>
        <hdop>4.3</hdop>
      </trkpt>
      <trkpt lat="44.2104696" lon="3.2167056">
        <ele>626.6</ele>
        <time>2021-03-22T07:48:00Z</time>
        <hdop>5.4</hdop>
      </trkpt>
      <trkpt lat="44.2103165" lon="3.2164872">
        <ele>622.1</ele>
        <time>2021-03-22T07:49:03Z</time>
        <hdop>6.4</hdop>
      </trkpt>
      <trkpt lat="44.2105709" lon="3.2162106">
        <ele>620.8</ele>
        <time>2021-03-22T07:49:33Z</time>
        <hdop>13.9</hdop>
      </trkpt>
      <trkpt lat="44.2108091" lon="3.2157807">
        <ele>622.4</ele>
        <time>2021-03-22T07:50:04Z</time>
        <hdop>6.4</hdop>
      </trkpt>
      <trkpt lat="44.210998" lon="3.2156214">
        <ele>630.2</ele>
        <time>2021-03-22T07:50:34Z</time>
        <hdop>5.4</hdop>
      </trkpt>
      <trkpt lat="44.2112054" lon="3.2152586">
        <ele>638.4</ele>
        <time>2021-03-22T07:51:34Z</time>
        <hdop>6.4</hdop>
      </trkpt>
      <trkpt lat="44.2114821" lon="3.2149048">
        <ele>645.6</ele>
        <time>2021-03-22T07:52:05Z</time>
        <hdop>9.6</hdop>
      </trkpt>
      <trkpt lat="44.2115812" lon="3.2151892">
        <ele>651.4</ele>
        <time>2021-03-22T07:52:36Z</time>
        <hdop>11.8</hdop>
      </trkpt>
      <trkpt lat="44.2114837" lon="3.2155226">
        <ele>662.6</ele>
        <time>2021-03-22T07:53:07Z</time>
        <hdop>7.5</hdop>
      </trkpt>
      <trkpt lat="44.2114993" lon="3.2156371">
        <ele>663.5</ele>
        <time>2021-03-22T07:53:38Z</time>
        <hdop>4.3</hdop>
      </trkpt>
      <trkpt lat="44.2117986" lon="3.2155061">
        <ele>672.3</ele>
        <time>2021-03-22T07:54:09Z</time>
        <hdop>3.2</hdop>
      </trkpt>
      <trkpt lat="44.2118829" lon="3.2152366">
        <ele>682.6</ele>
        <time>2021-03-22T07:54:40Z</time>
        <hdop>10.7</hdop>
      </trkpt>
      <trkpt lat="44.212046" lon="3.2154781">
        <ele>688.7</ele>
        <time>2021-03-22T07:55:11Z</time>
        <hdop>9.6</hdop>
      </trkpt>
      <trkpt lat="44.2121169" lon="3.2151409">
        <ele>696.2</ele>
        <time>2021-03-22T07:55:41Z</time>
        <hdop>9.6</hdop>
      </trkpt>
      <trkpt lat="44.2122584" lon="3.2153651">
        <ele>712</ele>
        <time>2021-03-22T07:56:11Z</time>
        <hdop>9.6</hdop>
      </trkpt>
      <trkpt lat="44.212383" lon="3.2150982">
        <ele>706.3</ele>
        <time>2021-03-22T07:56:42Z</time>
        <hdop>10.7</hdop>
      </trkpt>
      <trkpt lat="44.2123932" lon="3.2149739">
        <ele>712.9</ele>
        <time>2021-03-22T07:57:12Z</time>
        <hdop>9.6</hdop>
      </trkpt>
      <trkpt lat="44.2125242" lon="3.2151314">
        <ele>722.1</ele>
        <time>2021-03-22T07:57:42Z</time>
        <hdop>10.7</hdop>
      </trkpt>
      <trkpt lat="44.2126986" lon="3.2153421">
        <ele>725.9</ele>
        <time>2021-03-22T07:58:12Z</time>
        <hdop>9.6</hdop>
      </trkpt>
      <trkpt lat="44.2126954" lon="3.2156416">
        <ele>739</ele>
        <time>2021-03-22T07:58:43Z</time>
        <hdop>9.6</hdop>
      </trkpt>
      <trkpt lat="44.2128477" lon="3.2154301">
        <ele>744.4</ele>
        <time>2021-03-22T07:59:13Z</time>
        <hdop>9.6</hdop>
      </trkpt>
      <trkpt lat="44.2129403" lon="3.2152273">
        <ele>746.5</ele>
        <time>2021-03-22T07:59:44Z</time>
        <hdop>3.2</hdop>
      </trkpt>
      <trkpt lat="44.2130278" lon="3.2155637">
        <ele>749.2</ele>
        <time>2021-03-22T08:00:14Z</time>
        <hdop>4.3</hdop>
      </trkpt>
      <trkpt lat="44.2131032" lon="3.2156031">
        <ele>758.4</ele>
        <time>2021-03-22T08:00:45Z</time>
        <hdop>3.2</hdop>
      </trkpt>
      <trkpt lat="44.2132279" lon="3.2152691">
        <ele>761.2</ele>
        <time>2021-03-22T08:01:16Z</time>
        <hdop>3.2</hdop>
      </trkpt>
      <trkpt lat="44.2133849" lon="3.2153332">
        <ele>766</ele>
        <time>2021-03-22T08:01:46Z</time>
        <hdop>3.2</hdop>
      </trkpt>
      <trkpt lat="44.2136036" lon="3.2153467">
        <ele>769.3</ele>
        <time>2021-03-22T08:02:17Z</time>
        <hdop>3.2</hdop>
      </trkpt>
      <trkpt lat="44.2139098" lon="3.215419">
        <ele>772.4</ele>
        <time>2021-03-22T08:02:48Z</time>
        <hdop>3.2</hdop>
      </trkpt>
      <trkpt lat="44.214285" lon="3.2153476">
        <ele>773.2</ele>
        <time>2021-03-22T08:03:18Z</time>
        <hdop>4.3</hdop>
      </trkpt>
      <trkpt lat="44.2146004" lon="3.2153559">
        <ele>777.6</ele>
        <time>2021-03-22T08:03:49Z</time>
        <hdop>3.2</hdop>
      </trkpt>
      <trkpt lat="44.2148564" lon="3.2155329">
        <ele>788.7</ele>
        <time>2021-03-22T08:04:19Z</time>
        <hdop>3.2</hdop>
      </trkpt>
      <trkpt lat="44.2148409" lon="3.2153946">
        <ele>794.1</ele>
        <time>2021-03-22T08:04:50Z</time>
        <hdop>3.2</hdop>
      </trkpt>
      <trkpt lat="44.2150379" lon="3.2153749">
        <ele>800.4</ele>
        <time>2021-03-22T08:05:20Z</time>
        <hdop>3.2</hdop>
      </trkpt>
      <trkpt lat="44.2148866" lon="3.2152807">
        <ele>809</ele>
        <time>2021-03-22T08:05:51Z</time>
        <hdop>3.2</hdop>
      </trkpt>
      <trkpt lat="44.214623" lon="3.2149023">
        <ele>811.3</ele>
        <time>2021-03-22T08:06:21Z</time>
        <hdop>3.2</hdop>
      </trkpt>
      <trkpt lat="44.2144106" lon="3.2146741">
        <ele>816.8</ele>
        <time>2021-03-22T08:06:52Z</time>
        <hdop>9.6</hdop>
      </trkpt>
      <trkpt lat="44.2145026" lon="3.2144202">
        <ele>823</ele>
        <time>2021-03-22T08:07:23Z</time>
        <hdop>3.2</hdop>
      </trkpt>
      <trkpt lat="44.2145469" lon="3.214297">
        <ele>831.2</ele>
        <time>2021-03-22T08:07:53Z</time>
        <hdop>3.2</hdop>
      </trkpt>
      <trkpt lat="44.2146723" lon="3.2138856">
        <ele>826.9</ele>
        <time>2021-03-22T08:12:18Z</time>
        <hdop>3.2</hdop>
      </trkpt>
      <trkpt lat="44.2148517" lon="3.2132871">
        <ele>822.9</ele>
        <time>2021-03-22T08:12:49Z</time>
        <hdop>3.2</hdop>
      </trkpt>
      <trkpt lat="44.2150861" lon="3.2126798">
        <ele>824.3</ele>
        <time>2021-03-22T08:13:19Z</time>
        <hdop>3.2</hdop>
      </trkpt>
      <trkpt lat="44.2154238" lon="3.21216">
        <ele>833.3</ele>
        <time>2021-03-22T08:13:50Z</time>
        <hdop>3.2</hdop>
      </trkpt>
      <trkpt lat="44.2158446" lon="3.2119388">
        <ele>840.8</ele>
        <time>2021-03-22T08:14:20Z</time>
        <hdop>3.2</hdop>
      </trkpt>
      <trkpt lat="44.2162439" lon="3.2116828">
        <ele>846.3</ele>
        <time>2021-03-22T08:14:51Z</time>
        <hdop>3.2</hdop>
      </trkpt>
      <trkpt lat="44.2166482" lon="3.2115994">
        <ele>852.1</ele>
        <time>2021-03-22T08:15:21Z</time>
        <hdop>3.2</hdop>
      </trkpt>
      <trkpt lat="44.2170195" lon="3.2115051">
        <ele>857.7</ele>
        <time>2021-03-22T08:15:52Z</time>
        <hdop>3.2</hdop>
      </trkpt>
      <trkpt lat="44.2172894" lon="3.2113387">
        <ele>865</ele>
        <time>2021-03-22T08:16:22Z</time>
        <hdop>3.2</hdop>
      </trkpt>
      <trkpt lat="44.2176075" lon="3.2111746">
        <ele>867.6</ele>
        <time>2021-03-22T08:16:53Z</time>
        <hdop>3.2</hdop>
      </trkpt>
      <trkpt lat="44.2178951" lon="3.2109574">
        <ele>875.6</ele>
        <time>2021-03-22T08:17:24Z</time>
        <hdop>3.2</hdop>
      </trkpt>
      <trkpt lat="44.2181669" lon="3.2106299">
        <ele>881</ele>
        <time>2021-03-22T08:17:54Z</time>
        <hdop>3.2</hdop>
      </trkpt>
      <trkpt lat="44.218433" lon="3.2102402">
        <ele>883.6</ele>
        <time>2021-03-22T08:18:25Z</time>
        <hdop>3.2</hdop>
      </trkpt>
      <trkpt lat="44.2185945" lon="3.2097909">
        <ele>889.5</ele>
        <time>2021-03-22T08:18:55Z</time>
        <hdop>4.3</hdop>
      </trkpt>
      <trkpt lat="44.2187812" lon="3.2094685">
        <ele>895.3</ele>
        <time>2021-03-22T08:19:26Z</time>
        <hdop>3.2</hdop>
      </trkpt>
      <trkpt lat="44.218444" lon="3.2091743">
        <ele>898.4</ele>
        <time>2021-03-22T08:20:58Z</time>
        <hdop>3.2</hdop>
      </trkpt>
      <trkpt lat="44.2181832" lon="3.208728">
        <ele>895.5</ele>
        <time>2021-03-22T08:21:28Z</time>
        <hdop>3.2</hdop>
      </trkpt>
      <trkpt lat="44.2177394" lon="3.2084406">
        <ele>899.7</ele>
        <time>2021-03-22T08:21:59Z</time>
        <hdop>3.2</hdop>
      </trkpt>
      <trkpt lat="44.2172993" lon="3.2083697">
        <ele>903.4</ele>
        <time>2021-03-22T08:22:30Z</time>
        <hdop>3.2</hdop>
      </trkpt>
      <trkpt lat="44.2168882" lon="3.2080003">
        <ele>910.4</ele>
        <time>2021-03-22T08:23:00Z</time>
        <hdop>3.2</hdop>
      </trkpt>
      <trkpt lat="44.2164632" lon="3.2076142">
        <ele>916.7</ele>
        <time>2021-03-22T08:23:31Z</time>
        <hdop>3.2</hdop>
      </trkpt>
      <trkpt lat="44.216041" lon="3.2073041">
        <ele>913.8</ele>
        <time>2021-03-22T08:24:01Z</time>
        <hdop>3.2</hdop>
      </trkpt>
      <trkpt lat="44.2157157" lon="3.2068164">
        <ele>912.3</ele>
        <time>2021-03-22T08:24:32Z</time>
        <hdop>3.2</hdop>
      </trkpt>
      <trkpt lat="44.2151985" lon="3.2067302">
        <ele>911.8</ele>
        <time>2021-03-22T08:25:03Z</time>
        <hdop>3.2</hdop>
      </trkpt>
      <trkpt lat="44.2148051" lon="3.206382">
        <ele>913.5</ele>
        <time>2021-03-22T08:25:34Z</time>
        <hdop>3.2</hdop>
      </trkpt>
      <trkpt lat="44.2142795" lon="3.2062715">
        <ele>906.8</ele>
        <time>2021-03-22T08:26:04Z</time>
        <hdop>3.2</hdop>
      </trkpt>
      <trkpt lat="44.2138476" lon="3.2060108">
        <ele>908.5</ele>
        <time>2021-03-22T08:26:35Z</time>
        <hdop>3.2</hdop>
      </trkpt>
      <trkpt lat="44.2133786" lon="3.2057653">
        <ele>904.4</ele>
        <time>2021-03-22T08:27:05Z</time>
        <hdop>3.2</hdop>
      </trkpt>
      <trkpt lat="44.2128828" lon="3.2055178">
        <ele>914.9</ele>
        <time>2021-03-22T08:27:36Z</time>
        <hdop>3.2</hdop>
      </trkpt>
      <trkpt lat="44.2126135" lon="3.205193">
        <ele>912</ele>
        <time>2021-03-22T08:28:06Z</time>
        <hdop>3.2</hdop>
      </trkpt>
      <trkpt lat="44.2124389" lon="3.2047231">
        <ele>912.3</ele>
        <time>2021-03-22T08:28:37Z</time>
        <hdop>3.2</hdop>
      </trkpt>
      <trkpt lat="44.2122536" lon="3.2041664">
        <ele>918.5</ele>
        <time>2021-03-22T08:29:07Z</time>
        <hdop>3.2</hdop>
      </trkpt>
      <trkpt lat="44.2119113" lon="3.2038599">
        <ele>916</ele>
        <time>2021-03-22T08:29:37Z</time>
        <hdop>3.2</hdop>
      </trkpt>
      <trkpt lat="44.211523" lon="3.2040756">
        <ele>916.2</ele>
        <time>2021-03-22T08:30:07Z</time>
        <hdop>3.2</hdop>
      </trkpt>
      <trkpt lat="44.21117" lon="3.2044931">
        <ele>913.5</ele>
        <time>2021-03-22T08:30:38Z</time>
        <hdop>3.2</hdop>
      </trkpt>
      <trkpt lat="44.210736" lon="3.2046999">
        <ele>914</ele>
        <time>2021-03-22T08:31:08Z</time>
        <hdop>3.2</hdop>
      </trkpt>
      <trkpt lat="44.2103258" lon="3.2050262">
        <ele>914.8</ele>
        <time>2021-03-22T08:31:38Z</time>
        <hdop>3.2</hdop>
      </trkpt>
      <trkpt lat="44.2098935" lon="3.2049347">
        <ele>910.9</ele>
        <time>2021-03-22T08:32:09Z</time>
        <hdop>3.2</hdop>
      </trkpt>
      <trkpt lat="44.2094629" lon="3.2046623">
        <ele>912.9</ele>
        <time>2021-03-22T08:32:39Z</time>
        <hdop>3.2</hdop>
      </trkpt>
      <trkpt lat="44.2089839" lon="3.2048343">
        <ele>914</ele>
        <time>2021-03-22T08:33:10Z</time>
        <hdop>3.2</hdop>
      </trkpt>
      <trkpt lat="44.208514" lon="3.2047626">
        <ele>911.5</ele>
        <time>2021-03-22T08:33:40Z</time>
        <hdop>3.2</hdop>
      </trkpt>
      <trkpt lat="44.2081331" lon="3.2047339">
        <ele>909</ele>
        <time>2021-03-22T08:34:10Z</time>
        <hdop>3.2</hdop>
      </trkpt>
      <trkpt lat="44.2077139" lon="3.2049654">
        <ele>906.1</ele>
        <time>2021-03-22T08:34:40Z</time>
        <hdop>3.2</hdop>
      </trkpt>
      <trkpt lat="44.2072518" lon="3.2051733">
        <ele>903.4</ele>
        <time>2021-03-22T08:35:11Z</time>
        <hdop>3.2</hdop>
      </trkpt>
      <trkpt lat="44.2068284" lon="3.2053699">
        <ele>904.6</ele>
        <time>2021-03-22T08:35:41Z</time>
        <hdop>3.2</hdop>
      </trkpt>
      <trkpt lat="44.2064261" lon="3.2056799">
        <ele>902.3</ele>
        <time>2021-03-22T08:36:12Z</time>
        <hdop>3.2</hdop>
      </trkpt>
      <trkpt lat="44.2060287" lon="3.2059554">
        <ele>905.3</ele>
        <time>2021-03-22T08:36:42Z</time>
        <hdop>3.2</hdop>
      </trkpt>
      <trkpt lat="44.2056439" lon="3.2058832">
        <ele>897.8</ele>
        <time>2021-03-22T08:37:13Z</time>
        <hdop>3.2</hdop>
      </trkpt>
      <trkpt lat="44.2053012" lon="3.2060318">
        <ele>893.9</ele>
        <time>2021-03-22T08:37:43Z</time>
        <hdop>3.2</hdop>
      </trkpt>
      <trkpt lat="44.2049985" lon="3.2061777">
        <ele>886.8</ele>
        <time>2021-03-22T08:38:14Z</time>
        <hdop>3.2</hdop>
      </trkpt>
      <trkpt lat="44.2048684" lon="3.2063122">
        <ele>882.7</ele>
        <time>2021-03-22T08:38:45Z</time>
        <hdop>3.2</hdop>
      </trkpt>
      <trkpt lat="44.2046084" lon="3.2065743">
        <ele>877.8</ele>
        <time>2021-03-22T08:39:16Z</time>
        <hdop>3.2</hdop>
      </trkpt>
      <trkpt lat="44.2043927" lon="3.2065208">
        <ele>873.1</ele>
        <time>2021-03-22T08:39:46Z</time>
        <hdop>3.2</hdop>
      </trkpt>
      <trkpt lat="44.2041433" lon="3.2066044">
        <ele>866</ele>
        <time>2021-03-22T08:40:17Z</time>
        <hdop>3.2</hdop>
      </trkpt>
      <trkpt lat="44.2039683" lon="3.2067329">
        <ele>861.1</ele>
        <time>2021-03-22T08:40:48Z</time>
        <hdop>3.2</hdop>
      </trkpt>
      <trkpt lat="44.2036644" lon="3.2067057">
        <ele>860</ele>
        <time>2021-03-22T08:41:18Z</time>
        <hdop>3.2</hdop>
      </trkpt>
      <trkpt lat="44.2033874" lon="3.206763">
        <ele>852</ele>
        <time>2021-03-22T08:50:11Z</time>
        <hdop>3.2</hdop>
      </trkpt>
      <trkpt lat="44.2033332" lon="3.2068479">
        <ele>857.8</ele>
        <time>2021-03-22T08:51:18Z</time>
        <hdop>3.2</hdop>
      </trkpt>
      <trkpt lat="44.2033056" lon="3.2068304">
        <ele>853.1</ele>
        <time>2021-03-22T08:52:30Z</time>
        <hdop>3.2</hdop>
      </trkpt>
      <trkpt lat="44.2033316" lon="3.2067644">
        <ele>853.8</ele>
        <time>2021-03-22T08:53:38Z</time>
        <hdop>3.2</hdop>
      </trkpt>
      <trkpt lat="44.2033786" lon="3.2066961">
        <ele>855.8</ele>
        <time>2021-03-22T08:54:09Z</time>
        <hdop>3.2</hdop>
      </trkpt>
      <trkpt lat="44.2034226" lon="3.2066962">
        <ele>860.3</ele>
        <time>2021-03-22T09:05:43Z</time>
        <hdop>3.2</hdop>
      </trkpt>
      <trkpt lat="44.2036095" lon="3.2067186">
        <ele>860.2</ele>
        <time>2021-03-22T09:06:13Z</time>
        <hdop>3.2</hdop>
      </trkpt>
      <trkpt lat="44.2038501" lon="3.2067584">
        <ele>862</ele>
        <time>2021-03-22T09:06:43Z</time>
        <hdop>3.2</hdop>
      </trkpt>
      <trkpt lat="44.204069" lon="3.2066594">
        <ele>861</ele>
        <time>2021-03-22T09:07:17Z</time>
        <hdop>3.2</hdop>
      </trkpt>
      <trkpt lat="44.2041798" lon="3.2065877">
        <ele>860</ele>
        <time>2021-03-22T09:07:47Z</time>
        <hdop>3.2</hdop>
      </trkpt>
      <trkpt lat="44.2043621" lon="3.2065846">
        <ele>861.9</ele>
        <time>2021-03-22T09:08:17Z</time>
        <hdop>3.2</hdop>
      </trkpt>
      <trkpt lat="44.2045229" lon="3.2065611">
        <ele>873.4</ele>
        <time>2021-03-22T09:08:47Z</time>
        <hdop>3.2</hdop>
      </trkpt>
      <trkpt lat="44.204707" lon="3.2065062">
        <ele>872.2</ele>
        <time>2021-03-22T09:09:18Z</time>
        <hdop>3.2</hdop>
      </trkpt>
      <trkpt lat="44.2048999" lon="3.2063095">
        <ele>880.9</ele>
        <time>2021-03-22T09:09:48Z</time>
        <hdop>3.2</hdop>
      </trkpt>
      <trkpt lat="44.2051449" lon="3.2061256">
        <ele>884.3</ele>
        <time>2021-03-22T09:10:19Z</time>
        <hdop>3.2</hdop>
      </trkpt>
      <trkpt lat="44.2053854" lon="3.205996">
        <ele>891.2</ele>
        <time>2021-03-22T09:10:50Z</time>
        <hdop>3.2</hdop>
      </trkpt>
      <trkpt lat="44.2056239" lon="3.2059137">
        <ele>895.5</ele>
        <time>2021-03-22T09:11:20Z</time>
        <hdop>3.2</hdop>
      </trkpt>
      <trkpt lat="44.2059421" lon="3.2059884">
        <ele>896.6</ele>
        <time>2021-03-22T09:11:51Z</time>
        <hdop>3.2</hdop>
      </trkpt>
      <trkpt lat="44.2063448" lon="3.2057872">
        <ele>902.5</ele>
        <time>2021-03-22T09:12:22Z</time>
        <hdop>3.2</hdop>
      </trkpt>
      <trkpt lat="44.2067578" lon="3.2054193">
        <ele>906.1</ele>
        <time>2021-03-22T09:12:52Z</time>
        <hdop>3.2</hdop>
      </trkpt>
      <trkpt lat="44.2072238" lon="3.2051932">
        <ele>903</ele>
        <time>2021-03-22T09:13:23Z</time>
        <hdop>3.2</hdop>
      </trkpt>
      <trkpt lat="44.2076595" lon="3.2049769">
        <ele>902.3</ele>
        <time>2021-03-22T09:13:53Z</time>
        <hdop>3.2</hdop>
      </trkpt>
      <trkpt lat="44.208126" lon="3.2048091">
        <ele>905.9</ele>
        <time>2021-03-22T09:14:24Z</time>
        <hdop>3.2</hdop>
      </trkpt>
      <trkpt lat="44.2085862" lon="3.2048393">
        <ele>911.6</ele>
        <time>2021-03-22T09:14:54Z</time>
        <hdop>3.2</hdop>
      </trkpt>
      <trkpt lat="44.2090501" lon="3.2048068">
        <ele>907.5</ele>
        <time>2021-03-22T09:15:25Z</time>
        <hdop>3.2</hdop>
      </trkpt>
      <trkpt lat="44.209541" lon="3.2047277">
        <ele>910.6</ele>
        <time>2021-03-22T09:15:55Z</time>
        <hdop>3.2</hdop>
      </trkpt>
      <trkpt lat="44.2100228" lon="3.2050344">
        <ele>915.7</ele>
        <time>2021-03-22T09:16:26Z</time>
        <hdop>3.2</hdop>
      </trkpt>
      <trkpt lat="44.2104896" lon="3.204932">
        <ele>913.5</ele>
        <time>2021-03-22T09:16:56Z</time>
        <hdop>3.2</hdop>
      </trkpt>
      <trkpt lat="44.210924" lon="3.2047377">
        <ele>909.3</ele>
        <time>2021-03-22T09:17:27Z</time>
        <hdop>3.2</hdop>
      </trkpt>
      <trkpt lat="44.2113644" lon="3.2042843">
        <ele>912.7</ele>
        <time>2021-03-22T09:17:58Z</time>
        <hdop>3.2</hdop>
      </trkpt>
      <trkpt lat="44.2117745" lon="3.2039399">
        <ele>914.3</ele>
        <time>2021-03-22T09:18:29Z</time>
        <hdop>3.2</hdop>
      </trkpt>
      <trkpt lat="44.2122024" lon="3.2041095">
        <ele>920.9</ele>
        <time>2021-03-22T09:19:00Z</time>
        <hdop>3.2</hdop>
      </trkpt>
      <trkpt lat="44.2124679" lon="3.2046913">
        <ele>922</ele>
        <time>2021-03-22T09:19:31Z</time>
        <hdop>3.2</hdop>
      </trkpt>
      <trkpt lat="44.2126878" lon="3.2052186">
        <ele>919.6</ele>
        <time>2021-03-22T09:20:02Z</time>
        <hdop>3.2</hdop>
      </trkpt>
      <trkpt lat="44.2131988" lon="3.2049456">
        <ele>916.5</ele>
        <time>2021-03-22T09:20:33Z</time>
        <hdop>3.2</hdop>
      </trkpt>
      <trkpt lat="44.2135982" lon="3.2046444">
        <ele>913.9</ele>
        <time>2021-03-22T09:21:04Z</time>
        <hdop>3.2</hdop>
      </trkpt>
      <trkpt lat="44.2140782" lon="3.2043053">
        <ele>922.1</ele>
        <time>2021-03-22T09:21:34Z</time>
        <hdop>4.3</hdop>
      </trkpt>
      <trkpt lat="44.2144631" lon="3.2039012">
        <ele>926.1</ele>
        <time>2021-03-22T09:22:04Z</time>
        <hdop>3.2</hdop>
      </trkpt>
      <trkpt lat="44.214935" lon="3.2036182">
        <ele>918.6</ele>
        <time>2021-03-22T09:22:34Z</time>
        <hdop>3.2</hdop>
      </trkpt>
      <trkpt lat="44.2154652" lon="3.203561">
        <ele>912.3</ele>
        <time>2021-03-22T09:23:04Z</time>
        <hdop>4.3</hdop>
      </trkpt>
      <trkpt lat="44.2159405" lon="3.2033314">
        <ele>913.8</ele>
        <time>2021-03-22T09:23:35Z</time>
        <hdop>3.2</hdop>
      </trkpt>
      <trkpt lat="44.2164433" lon="3.2032466">
        <ele>912.2</ele>
        <time>2021-03-22T09:24:05Z</time>
        <hdop>3.2</hdop>
      </trkpt>
      <trkpt lat="44.2169292" lon="3.2035295">
        <ele>907.3</ele>
        <time>2021-03-22T09:24:35Z</time>
        <hdop>9.6</hdop>
      </trkpt>
      <trkpt lat="44.2173792" lon="3.2037747">
        <ele>910</ele>
        <time>2021-03-22T09:25:06Z</time>
        <hdop>9.6</hdop>
      </trkpt>
      <trkpt lat="44.2179016" lon="3.2038993">
        <ele>911.3</ele>
        <time>2021-03-22T09:25:36Z</time>
        <hdop>9.6</hdop>
      </trkpt>
      <trkpt lat="44.2184001" lon="3.2038969">
        <ele>914</ele>
        <time>2021-03-22T09:26:06Z</time>
        <hdop>3.2</hdop>
      </trkpt>
      <trkpt lat="44.2189141" lon="3.2038253">
        <ele>907.7</ele>
        <time>2021-03-22T09:26:37Z</time>
        <hdop>3.2</hdop>
      </trkpt>
      <trkpt lat="44.2194329" lon="3.2038005">
        <ele>903.2</ele>
        <time>2021-03-22T09:27:08Z</time>
        <hdop>9.6</hdop>
      </trkpt>
      <trkpt lat="44.2199364" lon="3.2034265">
        <ele>904.5</ele>
        <time>2021-03-22T09:27:39Z</time>
        <hdop>3.2</hdop>
      </trkpt>
      <trkpt lat="44.2203511" lon="3.2030784">
        <ele>899</ele>
        <time>2021-03-22T09:28:10Z</time>
        <hdop>3.2</hdop>
      </trkpt>
      <trkpt lat="44.2208475" lon="3.2028638">
        <ele>900</ele>
        <time>2021-03-22T09:28:41Z</time>
        <hdop>3.2</hdop>
      </trkpt>
      <trkpt lat="44.2213488" lon="3.2025635">
        <ele>898.7</ele>
        <time>2021-03-22T09:29:12Z</time>
        <hdop>3.2</hdop>
      </trkpt>
      <trkpt lat="44.2217786" lon="3.2021374">
        <ele>901.7</ele>
        <time>2021-03-22T09:29:43Z</time>
        <hdop>3.2</hdop>
      </trkpt>
      <trkpt lat="44.2222839" lon="3.2022532">
        <ele>899.5</ele>
        <time>2021-03-22T09:30:13Z</time>
        <hdop>4.3</hdop>
      </trkpt>
      <trkpt lat="44.2228624" lon="3.2023069">
        <ele>901</ele>
        <time>2021-03-22T09:30:44Z</time>
        <hdop>5.4</hdop>
      </trkpt>
      <trkpt lat="44.2232996" lon="3.2025671">
        <ele>901.6</ele>
        <time>2021-03-22T09:31:15Z</time>
        <hdop>9.6</hdop>
      </trkpt>
      <trkpt lat="44.2237837" lon="3.2028313">
        <ele>890.6</ele>
        <time>2021-03-22T09:31:46Z</time>
        <hdop>9.6</hdop>
      </trkpt>
      <trkpt lat="44.2241479" lon="3.203105">
        <ele>891.7</ele>
        <time>2021-03-22T09:32:16Z</time>
        <hdop>3.2</hdop>
      </trkpt>
      <trkpt lat="44.2246052" lon="3.2033366">
        <ele>892.9</ele>
        <time>2021-03-22T09:32:47Z</time>
        <hdop>3.2</hdop>
      </trkpt>
      <trkpt lat="44.2250386" lon="3.2035465">
        <ele>895.1</ele>
        <time>2021-03-22T09:33:17Z</time>
        <hdop>4.3</hdop>
      </trkpt>
      <trkpt lat="44.225509" lon="3.2036934">
        <ele>897.9</ele>
        <time>2021-03-22T09:33:47Z</time>
        <hdop>3.2</hdop>
      </trkpt>
      <trkpt lat="44.2258861" lon="3.2036207">
        <ele>895.6</ele>
        <time>2021-03-22T09:34:18Z</time>
        <hdop>3.2</hdop>
      </trkpt>
      <trkpt lat="44.2262851" lon="3.2037622">
        <ele>887.1</ele>
        <time>2021-03-22T09:34:48Z</time>
        <hdop>4.3</hdop>
      </trkpt>
      <trkpt lat="44.2268547" lon="3.203983">
        <ele>896</ele>
        <time>2021-03-22T09:35:18Z</time>
        <hdop>3.2</hdop>
      </trkpt>
      <trkpt lat="44.2273476" lon="3.2042689">
        <ele>900.6</ele>
        <time>2021-03-22T09:35:49Z</time>
        <hdop>4.3</hdop>
      </trkpt>
      <trkpt lat="44.2277817" lon="3.2043828">
        <ele>904</ele>
        <time>2021-03-22T09:36:19Z</time>
        <hdop>4.3</hdop>
      </trkpt>
      <trkpt lat="44.2282088" lon="3.2041964">
        <ele>906.6</ele>
        <time>2021-03-22T09:36:50Z</time>
        <hdop>3.2</hdop>
      </trkpt>
      <trkpt lat="44.228593" lon="3.2039674">
        <ele>911</ele>
        <time>2021-03-22T09:37:21Z</time>
        <hdop>3.2</hdop>
      </trkpt>
      <trkpt lat="44.2290751" lon="3.203686">
        <ele>915.5</ele>
        <time>2021-03-22T09:37:52Z</time>
        <hdop>4.3</hdop>
      </trkpt>
      <trkpt lat="44.2295741" lon="3.2034497">
        <ele>922.7</ele>
        <time>2021-03-22T09:38:22Z</time>
        <hdop>6.4</hdop>
      </trkpt>
      <trkpt lat="44.2299826" lon="3.2032153">
        <ele>920</ele>
        <time>2021-03-22T09:38:53Z</time>
        <hdop>4.3</hdop>
      </trkpt>
      <trkpt lat="44.2303903" lon="3.2027457">
        <ele>924.5</ele>
        <time>2021-03-22T09:39:24Z</time>
        <hdop>4.3</hdop>
      </trkpt>
      <trkpt lat="44.2307383" lon="3.2022154">
        <ele>924.3</ele>
        <time>2021-03-22T09:39:55Z</time>
        <hdop>3.2</hdop>
      </trkpt>
      <trkpt lat="44.2309991" lon="3.2016314">
        <ele>916.5</ele>
        <time>2021-03-22T09:40:25Z</time>
        <hdop>3.2</hdop>
      </trkpt>
      <trkpt lat="44.2312927" lon="3.2012206">
        <ele>919.2</ele>
        <time>2021-03-22T09:40:56Z</time>
        <hdop>4.3</hdop>
      </trkpt>
      <trkpt lat="44.2316057" lon="3.2007177">
        <ele>925.9</ele>
        <time>2021-03-22T09:41:26Z</time>
        <hdop>3.2</hdop>
      </trkpt>
      <trkpt lat="44.2316386" lon="3.200135">
        <ele>926.2</ele>
        <time>2021-03-22T09:41:57Z</time>
        <hdop>3.2</hdop>
      </trkpt>
      <trkpt lat="44.2316756" lon="3.200005">
        <ele>928.9</ele>
        <time>2021-03-22T09:42:29Z</time>
        <hdop>3.2</hdop>
      </trkpt>
      <trkpt lat="44.2319901" lon="3.2001056">
        <ele>930.6</ele>
        <time>2021-03-22T09:42:59Z</time>
        <hdop>3.2</hdop>
      </trkpt>
      <trkpt lat="44.232507" lon="3.2000363">
        <ele>929.4</ele>
        <time>2021-03-22T09:43:30Z</time>
        <hdop>3.2</hdop>
      </trkpt>
      <trkpt lat="44.2330133" lon="3.1999406">
        <ele>932.5</ele>
        <time>2021-03-22T09:44:01Z</time>
        <hdop>3.2</hdop>
      </trkpt>
      <trkpt lat="44.2333868" lon="3.1996923">
        <ele>930.9</ele>
        <time>2021-03-22T09:44:31Z</time>
        <hdop>3.2</hdop>
      </trkpt>
      <trkpt lat="44.2338624" lon="3.1996267">
        <ele>933.8</ele>
        <time>2021-03-22T09:45:02Z</time>
        <hdop>3.2</hdop>
      </trkpt>
      <trkpt lat="44.2343506" lon="3.1996284">
        <ele>937.7</ele>
        <time>2021-03-22T09:45:33Z</time>
        <hdop>4.3</hdop>
      </trkpt>
      <trkpt lat="44.2348285" lon="3.1997247">
        <ele>934.8</ele>
        <time>2021-03-22T09:46:04Z</time>
        <hdop>4.3</hdop>
      </trkpt>
      <trkpt lat="44.2352855" lon="3.1995996">
        <ele>937.5</ele>
        <time>2021-03-22T09:46:34Z</time>
        <hdop>3.2</hdop>
      </trkpt>
      <trkpt lat="44.2356638" lon="3.1997419">
        <ele>935.2</ele>
        <time>2021-03-22T09:47:05Z</time>
        <hdop>3.2</hdop>
      </trkpt>
      <trkpt lat="44.2360282" lon="3.1995152">
        <ele>934.9</ele>
        <time>2021-03-22T09:47:35Z</time>
        <hdop>3.2</hdop>
      </trkpt>
      <trkpt lat="44.2365409" lon="3.1995949">
        <ele>938.3</ele>
        <time>2021-03-22T09:48:06Z</time>
        <hdop>5.4</hdop>
      </trkpt>
      <trkpt lat="44.2369156" lon="3.1995902">
        <ele>939</ele>
        <time>2021-03-22T09:48:37Z</time>
        <hdop>3.2</hdop>
      </trkpt>
      <trkpt lat="44.2372316" lon="3.199561">
        <ele>939.7</ele>
        <time>2021-03-22T09:49:07Z</time>
        <hdop>4.3</hdop>
      </trkpt>
      <trkpt lat="44.2376838" lon="3.1996145">
        <ele>945.9</ele>
        <time>2021-03-22T09:49:37Z</time>
        <hdop>5.4</hdop>
      </trkpt>
      <trkpt lat="44.2382362" lon="3.1998174">
        <ele>947.1</ele>
        <time>2021-03-22T09:50:07Z</time>
        <hdop>9.6</hdop>
      </trkpt>
      <trkpt lat="44.2386742" lon="3.2000541">
        <ele>939.4</ele>
        <time>2021-03-22T09:50:38Z</time>
        <hdop>5.4</hdop>
      </trkpt>
      <trkpt lat="44.2392516" lon="3.2004124">
        <ele>944.8</ele>
        <time>2021-03-22T09:51:09Z</time>
        <hdop>4.3</hdop>
      </trkpt>
      <trkpt lat="44.2395872" lon="3.2007567">
        <ele>936.5</ele>
        <time>2021-03-22T09:51:40Z</time>
        <hdop>9.6</hdop>
      </trkpt>
      <trkpt lat="44.2400708" lon="3.2011082">
        <ele>928</ele>
        <time>2021-03-22T09:52:11Z</time>
        <hdop>10.7</hdop>
      </trkpt>
      <trkpt lat="44.2404196" lon="3.2013878">
        <ele>932</ele>
        <time>2021-03-22T09:52:42Z</time>
        <hdop>10.7</hdop>
      </trkpt>
      <trkpt lat="44.240848" lon="3.2017302">
        <ele>927</ele>
        <time>2021-03-22T09:53:13Z</time>
        <hdop>10.7</hdop>
      </trkpt>
      <trkpt lat="44.2412953" lon="3.2018557">
        <ele>929.4</ele>
        <time>2021-03-22T09:53:44Z</time>
        <hdop>10.7</hdop>
      </trkpt>
      <trkpt lat="44.2417469" lon="3.201987">
        <ele>942</ele>
        <time>2021-03-22T09:54:15Z</time>
        <hdop>9.6</hdop>
      </trkpt>
      <trkpt lat="44.2421932" lon="3.2022039">
        <ele>938.7</ele>
        <time>2021-03-22T09:54:45Z</time>
        <hdop>9.6</hdop>
      </trkpt>
      <trkpt lat="44.242614" lon="3.20268">
        <ele>934</ele>
        <time>2021-03-22T09:55:16Z</time>
        <hdop>9.6</hdop>
      </trkpt>
      <trkpt lat="44.2429702" lon="3.203006">
        <ele>929.7</ele>
        <time>2021-03-22T09:55:47Z</time>
        <hdop>9.6</hdop>
      </trkpt>
      <trkpt lat="44.2434236" lon="3.2032302">
        <ele>931</ele>
        <time>2021-03-22T09:56:18Z</time>
        <hdop>9.6</hdop>
      </trkpt>
      <trkpt lat="44.2439018" lon="3.2034442">
        <ele>923.5</ele>
        <time>2021-03-22T09:56:48Z</time>
        <hdop>9.6</hdop>
      </trkpt>
      <trkpt lat="44.2442933" lon="3.2036177">
        <ele>919.5</ele>
        <time>2021-03-22T09:57:19Z</time>
        <hdop>9.6</hdop>
      </trkpt>
      <trkpt lat="44.2447654" lon="3.2036748">
        <ele>911.6</ele>
        <time>2021-03-22T09:57:49Z</time>
        <hdop>9.6</hdop>
      </trkpt>
      <trkpt lat="44.2452401" lon="3.2037379">
        <ele>904.6</ele>
        <time>2021-03-22T09:58:19Z</time>
        <hdop>9.6</hdop>
      </trkpt>
      <trkpt lat="44.2457315" lon="3.2037694">
        <ele>905.4</ele>
        <time>2021-03-22T09:58:49Z</time>
        <hdop>9.6</hdop>
      </trkpt>
      <trkpt lat="44.246193" lon="3.2039285">
        <ele>910.5</ele>
        <time>2021-03-22T09:59:20Z</time>
        <hdop>10.7</hdop>
      </trkpt>
      <trkpt lat="44.2467362" lon="3.2040157">
        <ele>902.6</ele>
        <time>2021-03-22T09:59:50Z</time>
        <hdop>10.7</hdop>
      </trkpt>
      <trkpt lat="44.2472463" lon="3.2041044">
        <ele>902.9</ele>
        <time>2021-03-22T10:00:21Z</time>
        <hdop>4.3</hdop>
      </trkpt>
      <trkpt lat="44.2477258" lon="3.2043633">
        <ele>898.6</ele>
        <time>2021-03-22T10:00:51Z</time>
        <hdop>3.2</hdop>
      </trkpt>
      <trkpt lat="44.2481282" lon="3.2046427">
        <ele>900.5</ele>
        <time>2021-03-22T10:01:21Z</time>
        <hdop>3.2</hdop>
      </trkpt>
      <trkpt lat="44.2485272" lon="3.2048214">
        <ele>901.3</ele>
        <time>2021-03-22T10:01:52Z</time>
        <hdop>4.3</hdop>
      </trkpt>
      <trkpt lat="44.2488822" lon="3.2051953">
        <ele>907.2</ele>
        <time>2021-03-22T10:02:23Z</time>
        <hdop>3.2</hdop>
      </trkpt>
      <trkpt lat="44.2492416" lon="3.2054702">
        <ele>910.3</ele>
        <time>2021-03-22T10:02:53Z</time>
        <hdop>4.3</hdop>
      </trkpt>
      <trkpt lat="44.2493574" lon="3.2059505">
        <ele>908.1</ele>
        <time>2021-03-22T10:03:24Z</time>
        <hdop>3.2</hdop>
      </trkpt>
      <trkpt lat="44.2496307" lon="3.2064098">
        <ele>905.4</ele>
        <time>2021-03-22T10:03:55Z</time>
        <hdop>3.2</hdop>
      </trkpt>
      <trkpt lat="44.2494651" lon="3.2068912">
        <ele>900.2</ele>
        <time>2021-03-22T10:04:26Z</time>
        <hdop>3.2</hdop>
      </trkpt>
      <trkpt lat="44.2496252" lon="3.2074067">
        <ele>912.1</ele>
        <time>2021-03-22T10:07:10Z</time>
        <hdop>4.3</hdop>
      </trkpt>
      <trkpt lat="44.2498682" lon="3.2075657">
        <ele>912.8</ele>
        <time>2021-03-22T10:07:41Z</time>
        <hdop>3.2</hdop>
      </trkpt>
      <trkpt lat="44.2501442" lon="3.2078633">
        <ele>907.5</ele>
        <time>2021-03-22T10:08:11Z</time>
        <hdop>4.3</hdop>
      </trkpt>
      <trkpt lat="44.2504077" lon="3.2083393">
        <ele>911.6</ele>
        <time>2021-03-22T10:08:41Z</time>
        <hdop>4.3</hdop>
      </trkpt>
      <trkpt lat="44.2506737" lon="3.2089114">
        <ele>917</ele>
        <time>2021-03-22T10:09:12Z</time>
        <hdop>4.3</hdop>
      </trkpt>
      <trkpt lat="44.2506175" lon="3.2093966">
        <ele>910.8</ele>
        <time>2021-03-22T10:09:43Z</time>
        <hdop>4.3</hdop>
      </trkpt>
      <trkpt lat="44.2507642" lon="3.2100826">
        <ele>917.1</ele>
        <time>2021-03-22T10:10:14Z</time>
        <hdop>3.2</hdop>
      </trkpt>
      <trkpt lat="44.2508152" lon="3.2106663">
        <ele>918.1</ele>
        <time>2021-03-22T10:10:44Z</time>
        <hdop>4.3</hdop>
      </trkpt>
      <trkpt lat="44.2505212" lon="3.2111075">
        <ele>910.7</ele>
        <time>2021-03-22T10:11:14Z</time>
        <hdop>10.7</hdop>
      </trkpt>
      <trkpt lat="44.2504719" lon="3.2117758">
        <ele>912.4</ele>
        <time>2021-03-22T10:11:45Z</time>
        <hdop>10.7</hdop>
      </trkpt>
      <trkpt lat="44.2507878" lon="3.2124393">
        <ele>925</ele>
        <time>2021-03-22T10:12:16Z</time>
        <hdop>9.6</hdop>
      </trkpt>
      <trkpt lat="44.2507326" lon="3.212892">
        <ele>917.8</ele>
        <time>2021-03-22T10:12:47Z</time>
        <hdop>3.2</hdop>
      </trkpt>
      <trkpt lat="44.2510883" lon="3.2132837">
        <ele>911.1</ele>
        <time>2021-03-22T10:13:17Z</time>
        <hdop>3.2</hdop>
      </trkpt>
      <trkpt lat="44.2511568" lon="3.2139468">
        <ele>915.7</ele>
        <time>2021-03-22T10:13:48Z</time>
        <hdop>6.4</hdop>
      </trkpt>
      <trkpt lat="44.2509288" lon="3.2146451">
        <ele>913.9</ele>
        <time>2021-03-22T10:14:19Z</time>
        <hdop>10.7</hdop>
      </trkpt>
      <trkpt lat="44.250882" lon="3.2153005">
        <ele>908.1</ele>
        <time>2021-03-22T10:14:49Z</time>
        <hdop>10.7</hdop>
      </trkpt>
      <trkpt lat="44.2506784" lon="3.2158855">
        <ele>902.3</ele>
        <time>2021-03-22T10:15:20Z</time>
        <hdop>10.7</hdop>
      </trkpt>
      <trkpt lat="44.2505134" lon="3.216545">
        <ele>902.6</ele>
        <time>2021-03-22T10:15:51Z</time>
        <hdop>9.6</hdop>
      </trkpt>
      <trkpt lat="44.2503335" lon="3.2171425">
        <ele>900.3</ele>
        <time>2021-03-22T10:16:22Z</time>
        <hdop>10.7</hdop>
      </trkpt>
      <trkpt lat="44.2507563" lon="3.21697">
        <ele>899</ele>
        <time>2021-03-22T10:16:52Z</time>
        <hdop>10.7</hdop>
      </trkpt>
      <trkpt lat="44.2513248" lon="3.2165903">
        <ele>897</ele>
        <time>2021-03-22T10:17:23Z</time>
        <hdop>10.7</hdop>
      </trkpt>
      <trkpt lat="44.2518411" lon="3.2164678">
        <ele>888.9</ele>
        <time>2021-03-22T10:17:53Z</time>
        <hdop>9.6</hdop>
      </trkpt>
      <trkpt lat="44.2522988" lon="3.2163317">
        <ele>880</ele>
        <time>2021-03-22T10:18:23Z</time>
        <hdop>9.6</hdop>
      </trkpt>
      <trkpt lat="44.2528319" lon="3.2162661">
        <ele>882.2</ele>
        <time>2021-03-22T10:18:54Z</time>
        <hdop>10.7</hdop>
      </trkpt>
      <trkpt lat="44.2531549" lon="3.2167808">
        <ele>880</ele>
        <time>2021-03-22T10:19:25Z</time>
        <hdop>3.2</hdop>
      </trkpt>
      <trkpt lat="44.2529032" lon="3.2170788">
        <ele>858.6</ele>
        <time>2021-03-22T10:19:56Z</time>
        <hdop>6.4</hdop>
      </trkpt>
      <trkpt lat="44.2523846" lon="3.217449">
        <ele>862.3</ele>
        <time>2021-03-22T10:20:26Z</time>
        <hdop>5.4</hdop>
      </trkpt>
      <trkpt lat="44.2520561" lon="3.2172413">
        <ele>863.5</ele>
        <time>2021-03-22T10:20:57Z</time>
        <hdop>5.4</hdop>
      </trkpt>
      <trkpt lat="44.2517294" lon="3.2176789">
        <ele>864</ele>
        <time>2021-03-22T10:21:28Z</time>
        <hdop>4.3</hdop>
      </trkpt>
      <trkpt lat="44.251685" lon="3.2181214">
        <ele>870.3</ele>
        <time>2021-03-22T10:22:01Z</time>
        <hdop>3.2</hdop>
      </trkpt>
      <trkpt lat="44.251952" lon="3.2180679">
        <ele>866.3</ele>
        <time>2021-03-22T10:22:31Z</time>
        <hdop>3.2</hdop>
      </trkpt>
      <trkpt lat="44.2518909" lon="3.2185649">
        <ele>862.3</ele>
        <time>2021-03-22T10:23:01Z</time>
        <hdop>3.2</hdop>
      </trkpt>
      <trkpt lat="44.2516326" lon="3.2188932">
        <ele>863.1</ele>
        <time>2021-03-22T10:23:32Z</time>
        <hdop>3.2</hdop>
      </trkpt>
      <trkpt lat="44.2513181" lon="3.219377">
        <ele>868.6</ele>
        <time>2021-03-22T10:24:03Z</time>
        <hdop>3.2</hdop>
      </trkpt>
      <trkpt lat="44.2509803" lon="3.2197918">
        <ele>871.3</ele>
        <time>2021-03-22T10:24:33Z</time>
        <hdop>3.2</hdop>
      </trkpt>
      <trkpt lat="44.2505626" lon="3.21969">
        <ele>875.7</ele>
        <time>2021-03-22T10:25:04Z</time>
        <hdop>3.2</hdop>
      </trkpt>
      <trkpt lat="44.2501937" lon="3.2199562">
        <ele>878.1</ele>
        <time>2021-03-22T10:25:34Z</time>
        <hdop>3.2</hdop>
      </trkpt>
      <trkpt lat="44.249829" lon="3.2200752">
        <ele>879.1</ele>
        <time>2021-03-22T10:26:05Z</time>
        <hdop>3.2</hdop>
      </trkpt>
      <trkpt lat="44.2494875" lon="3.2197998">
        <ele>874.4</ele>
        <time>2021-03-22T10:26:35Z</time>
        <hdop>3.2</hdop>
      </trkpt>
      <trkpt lat="44.2490291" lon="3.2199307">
        <ele>881.1</ele>
        <time>2021-03-22T10:27:06Z</time>
        <hdop>3.2</hdop>
      </trkpt>
      <trkpt lat="44.2486041" lon="3.2201296">
        <ele>881</ele>
        <time>2021-03-22T10:27:37Z</time>
        <hdop>4.3</hdop>
      </trkpt>
      <trkpt lat="44.2482934" lon="3.2202826">
        <ele>878.1</ele>
        <time>2021-03-22T10:28:07Z</time>
        <hdop>3.2</hdop>
      </trkpt>
      <trkpt lat="44.2482703" lon="3.2206901">
        <ele>871.6</ele>
        <time>2021-03-22T10:28:38Z</time>
        <hdop>3.2</hdop>
      </trkpt>
      <trkpt lat="44.2481705" lon="3.221255">
        <ele>875.4</ele>
        <time>2021-03-22T10:29:08Z</time>
        <hdop>4.3</hdop>
      </trkpt>
      <trkpt lat="44.2478213" lon="3.221687">
        <ele>871.9</ele>
        <time>2021-03-22T10:29:39Z</time>
        <hdop>3.2</hdop>
      </trkpt>
      <trkpt lat="44.2473856" lon="3.221876">
        <ele>871.6</ele>
        <time>2021-03-22T10:30:10Z</time>
        <hdop>3.2</hdop>
      </trkpt>
      <trkpt lat="44.2469568" lon="3.2221153">
        <ele>871.2</ele>
        <time>2021-03-22T10:30:41Z</time>
        <hdop>3.2</hdop>
      </trkpt>
      <trkpt lat="44.2465782" lon="3.222054">
        <ele>871.3</ele>
        <time>2021-03-22T10:31:11Z</time>
        <hdop>4.3</hdop>
      </trkpt>
      <trkpt lat="44.2465753" lon="3.2216513">
        <ele>865.8</ele>
        <time>2021-03-22T10:31:44Z</time>
        <hdop>3.2</hdop>
      </trkpt>
      <trkpt lat="44.2462972" lon="3.221627">
        <ele>866.5</ele>
        <time>2021-03-22T10:32:14Z</time>
        <hdop>4.3</hdop>
      </trkpt>
      <trkpt lat="44.2458628" lon="3.2217875">
        <ele>867.8</ele>
        <time>2021-03-22T10:32:45Z</time>
        <hdop>3.2</hdop>
      </trkpt>
      <trkpt lat="44.2454259" lon="3.2218491">
        <ele>872.2</ele>
        <time>2021-03-22T10:33:16Z</time>
        <hdop>4.3</hdop>
      </trkpt>
      <trkpt lat="44.2453672" lon="3.2215785">
        <ele>874.1</ele>
        <time>2021-03-22T10:33:47Z</time>
        <hdop>3.2</hdop>
      </trkpt>
      <trkpt lat="44.2453923" lon="3.2213464">
        <ele>880.8</ele>
        <time>2021-03-22T10:34:17Z</time>
        <hdop>3.2</hdop>
      </trkpt>
      <trkpt lat="44.2452205" lon="3.2212179">
        <ele>883</ele>
        <time>2021-03-22T10:34:48Z</time>
        <hdop>3.2</hdop>
      </trkpt>
      <trkpt lat="44.2448742" lon="3.2211152">
        <ele>889</ele>
        <time>2021-03-22T10:35:19Z</time>
        <hdop>3.2</hdop>
      </trkpt>
      <trkpt lat="44.244687" lon="3.2212631">
        <ele>887</ele>
        <time>2021-03-22T10:35:54Z</time>
        <hdop>3.2</hdop>
      </trkpt>
      <trkpt lat="44.2447" lon="3.2210861">
        <ele>888.8</ele>
        <time>2021-03-22T10:36:25Z</time>
        <hdop>3.2</hdop>
      </trkpt>
      <trkpt lat="44.2442654" lon="3.2209841">
        <ele>887.4</ele>
        <time>2021-03-22T10:36:55Z</time>
        <hdop>3.2</hdop>
      </trkpt>
      <trkpt lat="44.2438174" lon="3.220956">
        <ele>886.7</ele>
        <time>2021-03-22T10:37:25Z</time>
        <hdop>3.2</hdop>
      </trkpt>
      <trkpt lat="44.2434643" lon="3.2212913">
        <ele>881.1</ele>
        <time>2021-03-22T10:37:56Z</time>
        <hdop>3.2</hdop>
      </trkpt>
      <trkpt lat="44.2432468" lon="3.2215839">
        <ele>872.9</ele>
        <time>2021-03-22T10:38:59Z</time>
        <hdop>3.2</hdop>
      </trkpt>
      <trkpt lat="44.2432841" lon="3.2212311">
        <ele>868.1</ele>
        <time>2021-03-22T10:52:29Z</time>
        <hdop>3.2</hdop>
      </trkpt>
      <trkpt lat="44.2432742" lon="3.2209106">
        <ele>873.5</ele>
        <time>2021-03-22T10:52:59Z</time>
        <hdop>3.2</hdop>
      </trkpt>
      <trkpt lat="44.2432026" lon="3.2206384">
        <ele>881.9</ele>
        <time>2021-03-22T10:53:30Z</time>
        <hdop>3.2</hdop>
      </trkpt>
      <trkpt lat="44.242931" lon="3.2209825">
        <ele>874.1</ele>
        <time>2021-03-22T10:54:01Z</time>
        <hdop>3.2</hdop>
      </trkpt>
      <trkpt lat="44.2425276" lon="3.2211287">
        <ele>868.2</ele>
        <time>2021-03-22T10:54:32Z</time>
        <hdop>3.2</hdop>
      </trkpt>
      <trkpt lat="44.2422051" lon="3.2213662">
        <ele>876.4</ele>
        <time>2021-03-22T10:55:03Z</time>
        <hdop>3.2</hdop>
      </trkpt>
      <trkpt lat="44.2418006" lon="3.2217343">
        <ele>879.7</ele>
        <time>2021-03-22T10:55:34Z</time>
        <hdop>3.2</hdop>
      </trkpt>
      <trkpt lat="44.2414816" lon="3.2213906">
        <ele>879.7</ele>
        <time>2021-03-22T10:56:04Z</time>
        <hdop>3.2</hdop>
      </trkpt>
      <trkpt lat="44.2412059" lon="3.2213621">
        <ele>874.9</ele>
        <time>2021-03-22T10:56:35Z</time>
        <hdop>4.3</hdop>
      </trkpt>
      <trkpt lat="44.2410993" lon="3.2216865">
        <ele>875.9</ele>
        <time>2021-03-22T10:57:05Z</time>
        <hdop>3.2</hdop>
      </trkpt>
      <trkpt lat="44.2412046" lon="3.222262">
        <ele>877.7</ele>
        <time>2021-03-22T10:57:36Z</time>
        <hdop>3.2</hdop>
      </trkpt>
      <trkpt lat="44.2408352" lon="3.2225005">
        <ele>885.5</ele>
        <time>2021-03-22T10:58:06Z</time>
        <hdop>3.2</hdop>
      </trkpt>
      <trkpt lat="44.240413" lon="3.2226364">
        <ele>883.1</ele>
        <time>2021-03-22T10:58:37Z</time>
        <hdop>3.2</hdop>
      </trkpt>
      <trkpt lat="44.2400148" lon="3.2226196">
        <ele>872.9</ele>
        <time>2021-03-22T10:59:08Z</time>
        <hdop>3.2</hdop>
      </trkpt>
      <trkpt lat="44.2396339" lon="3.2221452">
        <ele>876.8</ele>
        <time>2021-03-22T10:59:39Z</time>
        <hdop>3.2</hdop>
      </trkpt>
      <trkpt lat="44.2392069" lon="3.2219656">
        <ele>879.6</ele>
        <time>2021-03-22T11:00:09Z</time>
        <hdop>3.2</hdop>
      </trkpt>
      <trkpt lat="44.2387745" lon="3.2220084">
        <ele>878</ele>
        <time>2021-03-22T11:00:40Z</time>
        <hdop>3.2</hdop>
      </trkpt>
      <trkpt lat="44.2384362" lon="3.222315">
        <ele>872.9</ele>
        <time>2021-03-22T11:01:10Z</time>
        <hdop>3.2</hdop>
      </trkpt>
      <trkpt lat="44.2379259" lon="3.2223921">
        <ele>873.6</ele>
        <time>2021-03-22T11:01:41Z</time>
        <hdop>3.2</hdop>
      </trkpt>
      <trkpt lat="44.2376674" lon="3.2220762">
        <ele>864.9</ele>
        <time>2021-03-22T11:02:12Z</time>
        <hdop>3.2</hdop>
      </trkpt>
      <trkpt lat="44.2375553" lon="3.2216334">
        <ele>862.1</ele>
        <time>2021-03-22T11:02:43Z</time>
        <hdop>3.2</hdop>
      </trkpt>
      <trkpt lat="44.2372929" lon="3.221305">
        <ele>867.5</ele>
        <time>2021-03-22T11:03:13Z</time>
        <hdop>3.2</hdop>
      </trkpt>
      <trkpt lat="44.2369635" lon="3.2213608">
        <ele>871.6</ele>
        <time>2021-03-22T11:03:44Z</time>
        <hdop>3.2</hdop>
      </trkpt>
      <trkpt lat="44.2365758" lon="3.221095">
        <ele>875.7</ele>
        <time>2021-03-22T11:04:15Z</time>
        <hdop>3.2</hdop>
      </trkpt>
      <trkpt lat="44.2362506" lon="3.2208314">
        <ele>874.1</ele>
        <time>2021-03-22T11:04:45Z</time>
        <hdop>3.2</hdop>
      </trkpt>
      <trkpt lat="44.2359153" lon="3.220756">
        <ele>870.4</ele>
        <time>2021-03-22T11:05:16Z</time>
        <hdop>3.2</hdop>
      </trkpt>
      <trkpt lat="44.2356497" lon="3.2208964">
        <ele>864.9</ele>
        <time>2021-03-22T11:05:47Z</time>
        <hdop>3.2</hdop>
      </trkpt>
      <trkpt lat="44.2356366" lon="3.220915">
        <ele>869.6</ele>
        <time>2021-03-22T11:06:19Z</time>
        <hdop>3.2</hdop>
      </trkpt>
      <trkpt lat="44.2355031" lon="3.2212402">
        <ele>862.4</ele>
        <time>2021-03-22T11:06:49Z</time>
        <hdop>3.2</hdop>
      </trkpt>
      <trkpt lat="44.2353767" lon="3.2216735">
        <ele>854.2</ele>
        <time>2021-03-22T11:07:20Z</time>
        <hdop>3.2</hdop>
      </trkpt>
      <trkpt lat="44.2352027" lon="3.2221424">
        <ele>846.6</ele>
        <time>2021-03-22T11:07:51Z</time>
        <hdop>3.2</hdop>
      </trkpt>
      <trkpt lat="44.2348256" lon="3.222178">
        <ele>845.6</ele>
        <time>2021-03-22T11:08:21Z</time>
        <hdop>3.2</hdop>
      </trkpt>
      <trkpt lat="44.2345036" lon="3.2224153">
        <ele>835.5</ele>
        <time>2021-03-22T11:08:52Z</time>
        <hdop>3.2</hdop>
      </trkpt>
      <trkpt lat="44.2341328" lon="3.2222012">
        <ele>833.3</ele>
        <time>2021-03-22T11:09:22Z</time>
        <hdop>3.2</hdop>
      </trkpt>
      <trkpt lat="44.2340626" lon="3.2218163">
        <ele>835.3</ele>
        <time>2021-03-22T11:09:52Z</time>
        <hdop>3.2</hdop>
      </trkpt>
      <trkpt lat="44.234124" lon="3.2214388">
        <ele>840.4</ele>
        <time>2021-03-22T11:10:22Z</time>
        <hdop>3.2</hdop>
      </trkpt>
      <trkpt lat="44.2341806" lon="3.2210528">
        <ele>850.9</ele>
        <time>2021-03-22T11:10:53Z</time>
        <hdop>3.2</hdop>
      </trkpt>
      <trkpt lat="44.2342911" lon="3.2207496">
        <ele>857.6</ele>
        <time>2021-03-22T11:11:24Z</time>
        <hdop>3.2</hdop>
      </trkpt>
      <trkpt lat="44.234341" lon="3.2204504">
        <ele>864.5</ele>
        <time>2021-03-22T11:11:55Z</time>
        <hdop>3.2</hdop>
      </trkpt>
      <trkpt lat="44.234401" lon="3.2202405">
        <ele>869.1</ele>
        <time>2021-03-22T11:12:25Z</time>
        <hdop>3.2</hdop>
      </trkpt>
      <trkpt lat="44.2339449" lon="3.2200181">
        <ele>875.2</ele>
        <time>2021-03-22T11:12:56Z</time>
        <hdop>3.2</hdop>
      </trkpt>
      <trkpt lat="44.2336606" lon="3.2196389">
        <ele>872.1</ele>
        <time>2021-03-22T11:13:26Z</time>
        <hdop>3.2</hdop>
      </trkpt>
      <trkpt lat="44.2332757" lon="3.219441">
        <ele>868.8</ele>
        <time>2021-03-22T11:15:39Z</time>
        <hdop>9.6</hdop>
      </trkpt>
      <trkpt lat="44.2329442" lon="3.219109">
        <ele>875.9</ele>
        <time>2021-03-22T11:16:09Z</time>
        <hdop>10.7</hdop>
      </trkpt>
      <trkpt lat="44.2328704" lon="3.2189433">
        <ele>879.4</ele>
        <time>2021-03-22T11:16:40Z</time>
        <hdop>3.2</hdop>
      </trkpt>
      <trkpt lat="44.2331139" lon="3.2193736">
        <ele>879.9</ele>
        <time>2021-03-22T11:17:10Z</time>
        <hdop>3.2</hdop>
      </trkpt>
      <trkpt lat="44.2335134" lon="3.2196338">
        <ele>878.4</ele>
        <time>2021-03-22T11:17:41Z</time>
        <hdop>4.3</hdop>
      </trkpt>
      <trkpt lat="44.233877" lon="3.2200268">
        <ele>875.4</ele>
        <time>2021-03-22T11:18:11Z</time>
        <hdop>3.2</hdop>
      </trkpt>
      <trkpt lat="44.2342725" lon="3.2203173">
        <ele>878.1</ele>
        <time>2021-03-22T11:18:41Z</time>
        <hdop>3.2</hdop>
      </trkpt>
      <trkpt lat="44.2341682" lon="3.2205298">
        <ele>866.2</ele>
        <time>2021-03-22T11:19:12Z</time>
        <hdop>3.2</hdop>
      </trkpt>
      <trkpt lat="44.2338333" lon="3.2207433">
        <ele>863.1</ele>
        <time>2021-03-22T11:19:42Z</time>
        <hdop>4.3</hdop>
      </trkpt>
      <trkpt lat="44.2333418" lon="3.220888">
        <ele>859.2</ele>
        <time>2021-03-22T11:20:13Z</time>
        <hdop>3.2</hdop>
      </trkpt>
      <trkpt lat="44.2329249" lon="3.2209056">
        <ele>847.5</ele>
        <time>2021-03-22T11:20:44Z</time>
        <hdop>3.2</hdop>
      </trkpt>
      <trkpt lat="44.2325449" lon="3.2209192">
        <ele>841.7</ele>
        <time>2021-03-22T11:21:15Z</time>
        <hdop>3.2</hdop>
      </trkpt>
      <trkpt lat="44.2321614" lon="3.2207769">
        <ele>834.8</ele>
        <time>2021-03-22T11:21:45Z</time>
        <hdop>3.2</hdop>
      </trkpt>
      <trkpt lat="44.2319509" lon="3.2205459">
        <ele>825.2</ele>
        <time>2021-03-22T11:22:16Z</time>
        <hdop>3.2</hdop>
      </trkpt>
      <trkpt lat="44.2316787" lon="3.2202972">
        <ele>818.5</ele>
        <time>2021-03-22T11:22:47Z</time>
        <hdop>3.2</hdop>
      </trkpt>
      <trkpt lat="44.2313632" lon="3.2201816">
        <ele>815.2</ele>
        <time>2021-03-22T11:23:17Z</time>
        <hdop>9.6</hdop>
      </trkpt>
      <trkpt lat="44.2310501" lon="3.2204295">
        <ele>811.8</ele>
        <time>2021-03-22T11:23:47Z</time>
        <hdop>9.6</hdop>
      </trkpt>
      <trkpt lat="44.2306975" lon="3.2208146">
        <ele>810.3</ele>
        <time>2021-03-22T11:24:18Z</time>
        <hdop>9.6</hdop>
      </trkpt>
      <trkpt lat="44.2307768" lon="3.2209107">
        <ele>809.2</ele>
        <time>2021-03-22T11:24:50Z</time>
        <hdop>3.2</hdop>
      </trkpt>
      <trkpt lat="44.2306426" lon="3.2211506">
        <ele>795.6</ele>
        <time>2021-03-22T11:25:20Z</time>
        <hdop>4.3</hdop>
      </trkpt>
      <trkpt lat="44.2304101" lon="3.2215543">
        <ele>781.1</ele>
        <time>2021-03-22T11:25:51Z</time>
        <hdop>3.2</hdop>
      </trkpt>
      <trkpt lat="44.2299314" lon="3.2216573">
        <ele>778.2</ele>
        <time>2021-03-22T11:26:22Z</time>
        <hdop>9.6</hdop>
      </trkpt>
      <trkpt lat="44.2294966" lon="3.2216794">
        <ele>771.4</ele>
        <time>2021-03-22T11:26:52Z</time>
        <hdop>9.6</hdop>
      </trkpt>
      <trkpt lat="44.2290875" lon="3.2215548">
        <ele>775.4</ele>
        <time>2021-03-22T11:27:23Z</time>
        <hdop>9.6</hdop>
      </trkpt>
      <trkpt lat="44.2287262" lon="3.2214927">
        <ele>770</ele>
        <time>2021-03-22T11:27:54Z</time>
        <hdop>9.6</hdop>
      </trkpt>
      <trkpt lat="44.2284072" lon="3.2214106">
        <ele>757.5</ele>
        <time>2021-03-22T11:28:24Z</time>
        <hdop>3.2</hdop>
      </trkpt>
      <trkpt lat="44.2280544" lon="3.2212616">
        <ele>743.1</ele>
        <time>2021-03-22T11:28:55Z</time>
        <hdop>3.2</hdop>
      </trkpt>
      <trkpt lat="44.2277836" lon="3.2208525">
        <ele>744</ele>
        <time>2021-03-22T11:29:26Z</time>
        <hdop>9.6</hdop>
      </trkpt>
      <trkpt lat="44.2275502" lon="3.2205385">
        <ele>736.8</ele>
        <time>2021-03-22T11:29:56Z</time>
        <hdop>9.6</hdop>
      </trkpt>
      <trkpt lat="44.2273022" lon="3.22005">
        <ele>722.9</ele>
        <time>2021-03-22T11:30:27Z</time>
        <hdop>10.7</hdop>
      </trkpt>
      <trkpt lat="44.2272229" lon="3.219718">
        <ele>722.5</ele>
        <time>2021-03-22T11:30:57Z</time>
        <hdop>9.6</hdop>
      </trkpt>
      <trkpt lat="44.2271262" lon="3.2197902">
        <ele>711</ele>
        <time>2021-03-22T11:31:28Z</time>
        <hdop>13.9</hdop>
      </trkpt>
      <trkpt lat="44.2270094" lon="3.2196098">
        <ele>712.8</ele>
        <time>2021-03-22T11:31:59Z</time>
        <hdop>15.0</hdop>
      </trkpt>
      <trkpt lat="44.2270508" lon="3.2192474">
        <ele>722.7</ele>
        <time>2021-03-22T11:38:47Z</time>
        <hdop>15.0</hdop>
      </trkpt>
      <trkpt lat="44.2270456" lon="3.2188462">
        <ele>708.6</ele>
        <time>2021-03-22T11:39:17Z</time>
        <hdop>10.7</hdop>
      </trkpt>
      <trkpt lat="44.2268028" lon="3.2187606">
        <ele>686</ele>
        <time>2021-03-22T11:39:48Z</time>
        <hdop>10.7</hdop>
      </trkpt>
      <trkpt lat="44.2264744" lon="3.2185715">
        <ele>685</ele>
        <time>2021-03-22T11:40:18Z</time>
        <hdop>12.9</hdop>
      </trkpt>
      <trkpt lat="44.2261632" lon="3.2184152">
        <ele>680.8</ele>
        <time>2021-03-22T11:40:49Z</time>
        <hdop>12.9</hdop>
      </trkpt>
      <trkpt lat="44.225843" lon="3.218087">
        <ele>665.8</ele>
        <time>2021-03-22T11:41:20Z</time>
        <hdop>10.7</hdop>
      </trkpt>
      <trkpt lat="44.2256008" lon="3.2177046">
        <ele>665.3</ele>
        <time>2021-03-22T11:41:51Z</time>
        <hdop>10.7</hdop>
      </trkpt>
      <trkpt lat="44.2253066" lon="3.2174645">
        <ele>665.6</ele>
        <time>2021-03-22T11:42:21Z</time>
        <hdop>13.9</hdop>
      </trkpt>
      <trkpt lat="44.2250099" lon="3.2171928">
        <ele>658.5</ele>
        <time>2021-03-22T11:42:52Z</time>
        <hdop>10.7</hdop>
      </trkpt>
      <trkpt lat="44.2247369" lon="3.2170753">
        <ele>665.5</ele>
        <time>2021-03-22T11:43:22Z</time>
        <hdop>10.7</hdop>
      </trkpt>
      <trkpt lat="44.2246045" lon="3.2168111">
        <ele>654.9</ele>
        <time>2021-03-22T11:43:53Z</time>
        <hdop>9.6</hdop>
      </trkpt>
      <trkpt lat="44.2244346" lon="3.2162872">
        <ele>648.9</ele>
        <time>2021-03-22T11:44:24Z</time>
        <hdop>10.7</hdop>
      </trkpt>
      <trkpt lat="44.2241992" lon="3.2160044">
        <ele>629.6</ele>
        <time>2021-03-22T11:44:55Z</time>
        <hdop>10.7</hdop>
      </trkpt>
      <trkpt lat="44.2239998" lon="3.2159441">
        <ele>623.5</ele>
        <time>2021-03-22T11:45:26Z</time>
        <hdop>3.2</hdop>
      </trkpt>
      <trkpt lat="44.2241512" lon="3.216488">
        <ele>624.9</ele>
        <time>2021-03-22T11:45:57Z</time>
        <hdop>3.2</hdop>
      </trkpt>
      <trkpt lat="44.2238169" lon="3.2160477">
        <ele>615</ele>
        <time>2021-03-22T11:46:28Z</time>
        <hdop>4.3</hdop>
      </trkpt>
      <trkpt lat="44.2234881" lon="3.2160171">
        <ele>603.4</ele>
        <time>2021-03-22T11:46:58Z</time>
        <hdop>10.7</hdop>
      </trkpt>
      <trkpt lat="44.2235031" lon="3.2162062">
        <ele>598.3</ele>
        <time>2021-03-22T11:47:29Z</time>
        <hdop>10.7</hdop>
      </trkpt>
      <trkpt lat="44.223715" lon="3.2165794">
        <ele>591.6</ele>
        <time>2021-03-22T11:47:59Z</time>
        <hdop>9.6</hdop>
      </trkpt>
      <trkpt lat="44.2237917" lon="3.2170561">
        <ele>586</ele>
        <time>2021-03-22T11:48:30Z</time>
        <hdop>9.6</hdop>
      </trkpt>
      <trkpt lat="44.2236145" lon="3.2169006">
        <ele>574.7</ele>
        <time>2021-03-22T11:49:00Z</time>
        <hdop>9.6</hdop>
      </trkpt>
      <trkpt lat="44.2236568" lon="3.2172202">
        <ele>568.2</ele>
        <time>2021-03-22T11:49:31Z</time>
        <hdop>9.6</hdop>
      </trkpt>
      <trkpt lat="44.2235206" lon="3.2172342">
        <ele>558.3</ele>
        <time>2021-03-22T11:50:01Z</time>
        <hdop>10.7</hdop>
      </trkpt>
      <trkpt lat="44.223439" lon="3.2174863">
        <ele>554.7</ele>
        <time>2021-03-22T11:50:32Z</time>
        <hdop>9.6</hdop>
      </trkpt>
      <trkpt lat="44.2234311" lon="3.217997">
        <ele>549.1</ele>
        <time>2021-03-22T11:51:02Z</time>
        <hdop>4.3</hdop>
      </trkpt>
      <trkpt lat="44.2233851" lon="3.2185816">
        <ele>539.3</ele>
        <time>2021-03-22T11:51:33Z</time>
        <hdop>3.2</hdop>
      </trkpt>
      <trkpt lat="44.2233477" lon="3.2191116">
        <ele>530.3</ele>
        <time>2021-03-22T11:52:04Z</time>
        <hdop>10.7</hdop>
      </trkpt>
      <trkpt lat="44.2234001" lon="3.2195784">
        <ele>513.3</ele>
        <time>2021-03-22T11:52:35Z</time>
        <hdop>4.3</hdop>
      </trkpt>
      <trkpt lat="44.2233333" lon="3.21974">
        <ele>503.2</ele>
        <time>2021-03-22T11:53:06Z</time>
        <hdop>3.2</hdop>
      </trkpt>
      <trkpt lat="44.2236341" lon="3.2201194">
        <ele>497.1</ele>
        <time>2021-03-22T11:53:36Z</time>
        <hdop>9.6</hdop>
      </trkpt>
      <trkpt lat="44.2233634" lon="3.2201452">
        <ele>483.2</ele>
        <time>2021-03-22T11:54:06Z</time>
        <hdop>9.6</hdop>
      </trkpt>
      <trkpt lat="44.2228632" lon="3.2201503">
        <ele>479.5</ele>
        <time>2021-03-22T11:54:37Z</time>
        <hdop>11.8</hdop>
      </trkpt>
      <trkpt lat="44.2226161" lon="3.2197301">
        <ele>478.8</ele>
        <time>2021-03-22T11:55:08Z</time>
        <hdop>10.7</hdop>
      </trkpt>
      <trkpt lat="44.2223843" lon="3.2191586">
        <ele>473.4</ele>
        <time>2021-03-22T11:55:38Z</time>
        <hdop>11.8</hdop>
      </trkpt>
      <trkpt lat="44.2220946" lon="3.2188688">
        <ele>469.3</ele>
        <time>2021-03-22T11:56:08Z</time>
        <hdop>9.6</hdop>
      </trkpt>
      <trkpt lat="44.2218045" lon="3.2191162">
        <ele>452.4</ele>
        <time>2021-03-22T11:56:39Z</time>
        <hdop>9.6</hdop>
      </trkpt>
      <trkpt lat="44.2216925" lon="3.2197342">
        <ele>449.1</ele>
        <time>2021-03-22T11:57:09Z</time>
        <hdop>9.6</hdop>
      </trkpt>
      <trkpt lat="44.2216253" lon="3.2203845">
        <ele>441.9</ele>
        <time>2021-03-22T11:57:39Z</time>
        <hdop>10.7</hdop>
      </trkpt>
      <trkpt lat="44.2215506" lon="3.2209485">
        <ele>438.2</ele>
        <time>2021-03-22T11:58:09Z</time>
        <hdop>4.3</hdop>
      </trkpt>
      <trkpt lat="44.2213995" lon="3.2214881">
        <ele>432.2</ele>
        <time>2021-03-22T11:58:40Z</time>
        <hdop>3.2</hdop>
      </trkpt>
      <trkpt lat="44.2211894" lon="3.2220004">
        <ele>427.3</ele>
        <time>2021-03-22T11:59:11Z</time>
        <hdop>4.3</hdop>
      </trkpt>
      <trkpt lat="44.2212912" lon="3.2223047">
        <ele>412.6</ele>
        <time>2021-03-22T11:59:42Z</time>
        <hdop>4.3</hdop>
      </trkpt>
      <trkpt lat="44.2214348" lon="3.222568">
        <ele>402.4</ele>
        <time>2021-03-22T12:00:12Z</time>
        <hdop>3.2</hdop>
      </trkpt>
    </trkseg>
  </trk>
</gpx>