<?xml version='1.0' encoding='UTF-8'?>
<gpx version="1.1" creator="JOSM GPX export" xmlns="http://www.topografix.com/GPX/1/1"
    xmlns:xsi="http://www.w3.org/2001/XMLSchema-instance"
    xsi:schemaLocation="http://www.topografix.com/GPX/1/1 http://www.topografix.com/GPX/1/1/gpx.xsd">
  <metadata>
    <desc>MC/48/07 - Gévaudan</desc>
    <author>
      <name>Grégory DAVID</name>
      <email id="gregory.david" domain="groolot.net"/>
    </author>
    <copyright author="Grégory DAVID">
      <year>2021</year>
      <license>https://creativecommons.org/licenses/by-sa/2.5</license>
    </copyright>
    <bounds minlat="44.5935464" minlon="3.2813359" maxlat="44.6218128" maxlon="3.3145913"/>
  </metadata>
  <trk>
    <trkseg>
      <trkpt lat="44.593646" lon="3.3009106">
        <ele>710.1</ele>
        <time>2021-03-08T06:52:51Z</time>
        <hdop>3.2</hdop>
      </trkpt>
      <trkpt lat="44.593706" lon="3.3010245">
        <ele>714.4</ele>
        <time>2021-03-08T06:53:21Z</time>
        <hdop>4.3</hdop>
      </trkpt>
      <trkpt lat="44.5938218" lon="3.3012486">
        <ele>715.2</ele>
        <time>2021-03-08T06:53:52Z</time>
        <hdop>9.6</hdop>
      </trkpt>
      <trkpt lat="44.5939474" lon="3.3015607">
        <ele>712.3</ele>
        <time>2021-03-08T06:54:23Z</time>
        <hdop>9.6</hdop>
      </trkpt>
      <trkpt lat="44.5938877" lon="3.3019694">
        <ele>707</ele>
        <time>2021-03-08T06:54:54Z</time>
        <hdop>9.6</hdop>
      </trkpt>
      <trkpt lat="44.5937685" lon="3.302366">
        <ele>701.8</ele>
        <time>2021-03-08T06:55:25Z</time>
        <hdop>9.6</hdop>
      </trkpt>
      <trkpt lat="44.5939381" lon="3.3029583">
        <ele>706.2</ele>
        <time>2021-03-08T06:55:55Z</time>
        <hdop>3.2</hdop>
      </trkpt>
      <trkpt lat="44.5938627" lon="3.3034288">
        <ele>720.3</ele>
        <time>2021-03-08T06:56:26Z</time>
        <hdop>3.2</hdop>
      </trkpt>
      <trkpt lat="44.5939711" lon="3.303353">
        <ele>718.7</ele>
        <time>2021-03-08T06:56:56Z</time>
        <hdop>3.2</hdop>
      </trkpt>
      <trkpt lat="44.5943202" lon="3.3034463">
        <ele>718.5</ele>
        <time>2021-03-08T06:57:26Z</time>
        <hdop>3.2</hdop>
      </trkpt>
      <trkpt lat="44.5946724" lon="3.3036286">
        <ele>727.8</ele>
        <time>2021-03-08T06:57:57Z</time>
        <hdop>3.2</hdop>
      </trkpt>
      <trkpt lat="44.5949302" lon="3.3038407">
        <ele>729.5</ele>
        <time>2021-03-08T06:58:28Z</time>
        <hdop>6.4</hdop>
      </trkpt>
      <trkpt lat="44.5951617" lon="3.3040042">
        <ele>728.7</ele>
        <time>2021-03-08T06:58:58Z</time>
        <hdop>4.3</hdop>
      </trkpt>
      <trkpt lat="44.5953246" lon="3.3041984">
        <ele>732.5</ele>
        <time>2021-03-08T06:59:28Z</time>
        <hdop>4.3</hdop>
      </trkpt>
      <trkpt lat="44.5955256" lon="3.3043431">
        <ele>734.4</ele>
        <time>2021-03-08T06:59:59Z</time>
        <hdop>4.3</hdop>
      </trkpt>
      <trkpt lat="44.5956812" lon="3.304706">
        <ele>743.4</ele>
        <time>2021-03-08T07:00:30Z</time>
        <hdop>4.3</hdop>
      </trkpt>
      <trkpt lat="44.5959136" lon="3.3050858">
        <ele>751.2</ele>
        <time>2021-03-08T07:01:01Z</time>
        <hdop>4.3</hdop>
      </trkpt>
      <trkpt lat="44.5961398" lon="3.3054794">
        <ele>750.4</ele>
        <time>2021-03-08T07:01:32Z</time>
        <hdop>5.4</hdop>
      </trkpt>
      <trkpt lat="44.5962674" lon="3.3059668">
        <ele>745</ele>
        <time>2021-03-08T07:02:03Z</time>
        <hdop>4.3</hdop>
      </trkpt>
      <trkpt lat="44.5964172" lon="3.3064554">
        <ele>748.2</ele>
        <time>2021-03-08T07:02:34Z</time>
        <hdop>4.3</hdop>
      </trkpt>
      <trkpt lat="44.5968648" lon="3.3066382">
        <ele>746.7</ele>
        <time>2021-03-08T07:03:05Z</time>
        <hdop>10.7</hdop>
      </trkpt>
      <trkpt lat="44.5971292" lon="3.3067354">
        <ele>747.4</ele>
        <time>2021-03-08T07:03:35Z</time>
        <hdop>9.6</hdop>
      </trkpt>
      <trkpt lat="44.5975195" lon="3.3069704">
        <ele>742.6</ele>
        <time>2021-03-08T07:04:06Z</time>
        <hdop>9.6</hdop>
      </trkpt>
      <trkpt lat="44.5976411" lon="3.3070677">
        <ele>749.8</ele>
        <time>2021-03-08T07:04:37Z</time>
        <hdop>9.6</hdop>
      </trkpt>
      <trkpt lat="44.5976265" lon="3.3073337">
        <ele>742.3</ele>
        <time>2021-03-08T07:05:07Z</time>
        <hdop>10.7</hdop>
      </trkpt>
      <trkpt lat="44.597733" lon="3.3077789">
        <ele>748.3</ele>
        <time>2021-03-08T07:05:38Z</time>
        <hdop>9.6</hdop>
      </trkpt>
      <trkpt lat="44.5977406" lon="3.3082605">
        <ele>749.2</ele>
        <time>2021-03-08T07:06:09Z</time>
        <hdop>9.6</hdop>
      </trkpt>
      <trkpt lat="44.5976735" lon="3.3086516">
        <ele>757.8</ele>
        <time>2021-03-08T07:06:39Z</time>
        <hdop>5.4</hdop>
      </trkpt>
      <trkpt lat="44.597549" lon="3.3089637">
        <ele>761.8</ele>
        <time>2021-03-08T07:07:10Z</time>
        <hdop>3.2</hdop>
      </trkpt>
      <trkpt lat="44.5974085" lon="3.3092954">
        <ele>775.7</ele>
        <time>2021-03-08T07:07:41Z</time>
        <hdop>3.2</hdop>
      </trkpt>
      <trkpt lat="44.5972574" lon="3.309634">
        <ele>772</ele>
        <time>2021-03-08T07:08:12Z</time>
        <hdop>4.3</hdop>
      </trkpt>
      <trkpt lat="44.5971483" lon="3.3099689">
        <ele>778.1</ele>
        <time>2021-03-08T07:08:43Z</time>
        <hdop>4.3</hdop>
      </trkpt>
      <trkpt lat="44.5971121" lon="3.3103317">
        <ele>780.7</ele>
        <time>2021-03-08T07:09:13Z</time>
        <hdop>4.3</hdop>
      </trkpt>
      <trkpt lat="44.5972438" lon="3.3108089">
        <ele>782.1</ele>
        <time>2021-03-08T07:09:43Z</time>
        <hdop>4.3</hdop>
      </trkpt>
      <trkpt lat="44.5974441" lon="3.3109139">
        <ele>781.1</ele>
        <time>2021-03-08T07:10:14Z</time>
        <hdop>4.3</hdop>
      </trkpt>
      <trkpt lat="44.5976195" lon="3.3112562">
        <ele>786</ele>
        <time>2021-03-08T07:10:45Z</time>
        <hdop>4.3</hdop>
      </trkpt>
      <trkpt lat="44.5978351" lon="3.3115785">
        <ele>791.6</ele>
        <time>2021-03-08T07:11:16Z</time>
        <hdop>4.3</hdop>
      </trkpt>
      <trkpt lat="44.5979824" lon="3.3119932">
        <ele>785</ele>
        <time>2021-03-08T07:11:46Z</time>
        <hdop>9.6</hdop>
      </trkpt>
      <trkpt lat="44.5982166" lon="3.3122903">
        <ele>802.2</ele>
        <time>2021-03-08T07:12:17Z</time>
        <hdop>10.7</hdop>
      </trkpt>
      <trkpt lat="44.5984103" lon="3.3125335">
        <ele>802.4</ele>
        <time>2021-03-08T07:12:47Z</time>
        <hdop>10.7</hdop>
      </trkpt>
      <trkpt lat="44.5983694" lon="3.312867">
        <ele>802.3</ele>
        <time>2021-03-08T07:13:18Z</time>
        <hdop>3.2</hdop>
      </trkpt>
      <trkpt lat="44.5984003" lon="3.3130095">
        <ele>814.1</ele>
        <time>2021-03-08T07:17:22Z</time>
        <hdop>3.2</hdop>
      </trkpt>
      <trkpt lat="44.5986066" lon="3.312765">
        <ele>816.1</ele>
        <time>2021-03-08T07:17:53Z</time>
        <hdop>3.2</hdop>
      </trkpt>
      <trkpt lat="44.5986657" lon="3.3126323">
        <ele>815.3</ele>
        <time>2021-03-08T07:18:23Z</time>
        <hdop>5.4</hdop>
      </trkpt>
      <trkpt lat="44.5985758" lon="3.3123003">
        <ele>826.6</ele>
        <time>2021-03-08T07:18:53Z</time>
        <hdop>3.2</hdop>
      </trkpt>
      <trkpt lat="44.598501" lon="3.3119251">
        <ele>827.8</ele>
        <time>2021-03-08T07:19:23Z</time>
        <hdop>9.6</hdop>
      </trkpt>
      <trkpt lat="44.5984032" lon="3.311515">
        <ele>829.4</ele>
        <time>2021-03-08T07:19:53Z</time>
        <hdop>9.6</hdop>
      </trkpt>
      <trkpt lat="44.5986355" lon="3.3117918">
        <ele>839.3</ele>
        <time>2021-03-08T07:20:23Z</time>
        <hdop>11.8</hdop>
      </trkpt>
      <trkpt lat="44.5988325" lon="3.3121022">
        <ele>841.3</ele>
        <time>2021-03-08T07:20:53Z</time>
        <hdop>10.7</hdop>
      </trkpt>
      <trkpt lat="44.5989509" lon="3.3125687">
        <ele>839.4</ele>
        <time>2021-03-08T07:21:24Z</time>
        <hdop>4.3</hdop>
      </trkpt>
      <trkpt lat="44.5989999" lon="3.3129838">
        <ele>842.4</ele>
        <time>2021-03-08T07:21:54Z</time>
        <hdop>7.5</hdop>
      </trkpt>
      <trkpt lat="44.5993205" lon="3.3133217">
        <ele>858</ele>
        <time>2021-03-08T07:22:25Z</time>
        <hdop>6.4</hdop>
      </trkpt>
      <trkpt lat="44.5995722" lon="3.3136544">
        <ele>859.2</ele>
        <time>2021-03-08T07:22:56Z</time>
        <hdop>10.7</hdop>
      </trkpt>
      <trkpt lat="44.5999055" lon="3.3138504">
        <ele>859.1</ele>
        <time>2021-03-08T07:23:27Z</time>
        <hdop>10.7</hdop>
      </trkpt>
      <trkpt lat="44.6002286" lon="3.3139288">
        <ele>864.3</ele>
        <time>2021-03-08T07:23:57Z</time>
        <hdop>11.8</hdop>
      </trkpt>
      <trkpt lat="44.6004852" lon="3.3142401">
        <ele>869.3</ele>
        <time>2021-03-08T07:24:28Z</time>
        <hdop>10.7</hdop>
      </trkpt>
      <trkpt lat="44.6007085" lon="3.3145913">
        <ele>888.1</ele>
        <time>2021-03-08T07:26:00Z</time>
        <hdop>9.6</hdop>
      </trkpt>
      <trkpt lat="44.6007802" lon="3.3145842">
        <ele>891.9</ele>
        <time>2021-03-08T07:26:30Z</time>
        <hdop>9.6</hdop>
      </trkpt>
      <trkpt lat="44.6006663" lon="3.3143543">
        <ele>885</ele>
        <time>2021-03-08T07:27:00Z</time>
        <hdop>9.6</hdop>
      </trkpt>
      <trkpt lat="44.6004037" lon="3.313912">
        <ele>875.6</ele>
        <time>2021-03-08T07:27:31Z</time>
        <hdop>9.6</hdop>
      </trkpt>
      <trkpt lat="44.599965" lon="3.3137532">
        <ele>862.4</ele>
        <time>2021-03-08T07:28:01Z</time>
        <hdop>9.6</hdop>
      </trkpt>
      <trkpt lat="44.5995633" lon="3.313517">
        <ele>864.9</ele>
        <time>2021-03-08T07:28:32Z</time>
        <hdop>9.6</hdop>
      </trkpt>
      <trkpt lat="44.5992634" lon="3.3132367">
        <ele>859.1</ele>
        <time>2021-03-08T07:29:02Z</time>
        <hdop>9.6</hdop>
      </trkpt>
      <trkpt lat="44.5990113" lon="3.3129692">
        <ele>853.5</ele>
        <time>2021-03-08T07:29:33Z</time>
        <hdop>3.2</hdop>
      </trkpt>
      <trkpt lat="44.5989471" lon="3.3125136">
        <ele>850.7</ele>
        <time>2021-03-08T07:30:04Z</time>
        <hdop>3.2</hdop>
      </trkpt>
      <trkpt lat="44.5987391" lon="3.3120162">
        <ele>846.4</ele>
        <time>2021-03-08T07:30:35Z</time>
        <hdop>3.2</hdop>
      </trkpt>
      <trkpt lat="44.5984415" lon="3.3115423">
        <ele>835.7</ele>
        <time>2021-03-08T07:31:06Z</time>
        <hdop>9.6</hdop>
      </trkpt>
      <trkpt lat="44.5982743" lon="3.3113162">
        <ele>836.2</ele>
        <time>2021-03-08T07:31:37Z</time>
        <hdop>9.6</hdop>
      </trkpt>
      <trkpt lat="44.5982331" lon="3.3112044">
        <ele>834.7</ele>
        <time>2021-03-08T07:32:08Z</time>
        <hdop>9.6</hdop>
      </trkpt>
      <trkpt lat="44.598183" lon="3.3110926">
        <ele>843.6</ele>
        <time>2021-03-08T07:32:38Z</time>
        <hdop>9.6</hdop>
      </trkpt>
      <trkpt lat="44.5980788" lon="3.3109099">
        <ele>849.6</ele>
        <time>2021-03-08T07:33:09Z</time>
        <hdop>9.6</hdop>
      </trkpt>
      <trkpt lat="44.5979516" lon="3.310713">
        <ele>851.4</ele>
        <time>2021-03-08T07:33:40Z</time>
        <hdop>3.2</hdop>
      </trkpt>
      <trkpt lat="44.5979732" lon="3.3106443">
        <ele>866.4</ele>
        <time>2021-03-08T07:35:43Z</time>
        <hdop>3.2</hdop>
      </trkpt>
      <trkpt lat="44.5979906" lon="3.3105199">
        <ele>857.8</ele>
        <time>2021-03-08T07:36:44Z</time>
        <hdop>3.2</hdop>
      </trkpt>
      <trkpt lat="44.5980857" lon="3.3104028">
        <ele>860.8</ele>
        <time>2021-03-08T07:37:14Z</time>
        <hdop>3.2</hdop>
      </trkpt>
      <trkpt lat="44.5982374" lon="3.3104787">
        <ele>857.3</ele>
        <time>2021-03-08T07:37:44Z</time>
        <hdop>3.2</hdop>
      </trkpt>
      <trkpt lat="44.5983792" lon="3.3103983">
        <ele>859.9</ele>
        <time>2021-03-08T07:38:15Z</time>
        <hdop>3.2</hdop>
      </trkpt>
      <trkpt lat="44.5985629" lon="3.3104264">
        <ele>864.5</ele>
        <time>2021-03-08T07:38:46Z</time>
        <hdop>3.2</hdop>
      </trkpt>
      <trkpt lat="44.5985628" lon="3.3103802">
        <ele>859.1</ele>
        <time>2021-03-08T07:39:16Z</time>
        <hdop>3.2</hdop>
      </trkpt>
      <trkpt lat="44.5985629" lon="3.3099145">
        <ele>860.7</ele>
        <time>2021-03-08T07:39:47Z</time>
        <hdop>3.2</hdop>
      </trkpt>
      <trkpt lat="44.5985099" lon="3.3098969">
        <ele>846.6</ele>
        <time>2021-03-08T07:40:49Z</time>
        <hdop>4.3</hdop>
      </trkpt>
      <trkpt lat="44.598412" lon="3.3098736">
        <ele>838.5</ele>
        <time>2021-03-08T07:41:20Z</time>
        <hdop>3.2</hdop>
      </trkpt>
      <trkpt lat="44.5985416" lon="3.3096579">
        <ele>832.3</ele>
        <time>2021-03-08T07:41:50Z</time>
        <hdop>3.2</hdop>
      </trkpt>
      <trkpt lat="44.5985795" lon="3.3095513">
        <ele>839.7</ele>
        <time>2021-03-08T07:42:20Z</time>
        <hdop>3.2</hdop>
      </trkpt>
      <trkpt lat="44.5986858" lon="3.3093367">
        <ele>836.7</ele>
        <time>2021-03-08T07:42:50Z</time>
        <hdop>9.6</hdop>
      </trkpt>
      <trkpt lat="44.5987849" lon="3.3092331">
        <ele>838.5</ele>
        <time>2021-03-08T07:43:20Z</time>
        <hdop>9.6</hdop>
      </trkpt>
      <trkpt lat="44.5988349" lon="3.3090746">
        <ele>841</ele>
        <time>2021-03-08T07:43:50Z</time>
        <hdop>3.2</hdop>
      </trkpt>
      <trkpt lat="44.5988758" lon="3.3090069">
        <ele>844.2</ele>
        <time>2021-03-08T07:44:21Z</time>
        <hdop>4.3</hdop>
      </trkpt>
      <trkpt lat="44.5988979" lon="3.3090499">
        <ele>848.9</ele>
        <time>2021-03-08T07:44:51Z</time>
        <hdop>4.3</hdop>
      </trkpt>
      <trkpt lat="44.5989658" lon="3.3091195">
        <ele>843.1</ele>
        <time>2021-03-08T07:45:22Z</time>
        <hdop>9.6</hdop>
      </trkpt>
      <trkpt lat="44.5989721" lon="3.3089148">
        <ele>847.2</ele>
        <time>2021-03-08T07:45:53Z</time>
        <hdop>3.2</hdop>
      </trkpt>
      <trkpt lat="44.5990495" lon="3.3089813">
        <ele>856.7</ele>
        <time>2021-03-08T07:46:23Z</time>
        <hdop>3.2</hdop>
      </trkpt>
      <trkpt lat="44.5990999" lon="3.3089706">
        <ele>858.1</ele>
        <time>2021-03-08T07:48:29Z</time>
        <hdop>3.2</hdop>
      </trkpt>
      <trkpt lat="44.5991245" lon="3.3089099">
        <ele>860.2</ele>
        <time>2021-03-08T07:49:00Z</time>
        <hdop>3.2</hdop>
      </trkpt>
      <trkpt lat="44.5991861" lon="3.3090239">
        <ele>859.8</ele>
        <time>2021-03-08T07:49:30Z</time>
        <hdop>3.2</hdop>
      </trkpt>
      <trkpt lat="44.5992272" lon="3.3090652">
        <ele>868.8</ele>
        <time>2021-03-08T07:50:00Z</time>
        <hdop>9.6</hdop>
      </trkpt>
      <trkpt lat="44.5993344" lon="3.3091388">
        <ele>870.4</ele>
        <time>2021-03-08T07:50:31Z</time>
        <hdop>9.6</hdop>
      </trkpt>
      <trkpt lat="44.599342" lon="3.3091972">
        <ele>870.4</ele>
        <time>2021-03-08T07:51:02Z</time>
        <hdop>9.6</hdop>
      </trkpt>
      <trkpt lat="44.5993213" lon="3.309245">
        <ele>873.7</ele>
        <time>2021-03-08T07:51:32Z</time>
        <hdop>9.6</hdop>
      </trkpt>
      <trkpt lat="44.5993661" lon="3.309299">
        <ele>874.4</ele>
        <time>2021-03-08T07:52:03Z</time>
        <hdop>9.6</hdop>
      </trkpt>
      <trkpt lat="44.5994078" lon="3.3094072">
        <ele>884.1</ele>
        <time>2021-03-08T07:54:23Z</time>
        <hdop>3.2</hdop>
      </trkpt>
      <trkpt lat="44.5994268" lon="3.3094146">
        <ele>890.3</ele>
        <time>2021-03-08T07:55:25Z</time>
        <hdop>9.6</hdop>
      </trkpt>
      <trkpt lat="44.5994728" lon="3.3094925">
        <ele>898.1</ele>
        <time>2021-03-08T07:55:55Z</time>
        <hdop>3.2</hdop>
      </trkpt>
      <trkpt lat="44.5995711" lon="3.3095485">
        <ele>901.8</ele>
        <time>2021-03-08T07:56:26Z</time>
        <hdop>3.2</hdop>
      </trkpt>
      <trkpt lat="44.5995644" lon="3.3096703">
        <ele>906.6</ele>
        <time>2021-03-08T07:56:56Z</time>
        <hdop>3.2</hdop>
      </trkpt>
      <trkpt lat="44.5995931" lon="3.3097583">
        <ele>907.5</ele>
        <time>2021-03-08T07:57:27Z</time>
        <hdop>9.6</hdop>
      </trkpt>
      <trkpt lat="44.5996355" lon="3.3098218">
        <ele>914.9</ele>
        <time>2021-03-08T07:57:58Z</time>
        <hdop>3.2</hdop>
      </trkpt>
      <trkpt lat="44.5996358" lon="3.3098608">
        <ele>914.5</ele>
        <time>2021-03-08T08:00:28Z</time>
        <hdop>3.2</hdop>
      </trkpt>
      <trkpt lat="44.5996847" lon="3.3099271">
        <ele>914.6</ele>
        <time>2021-03-08T08:00:59Z</time>
        <hdop>3.2</hdop>
      </trkpt>
      <trkpt lat="44.5997004" lon="3.3099462">
        <ele>918.2</ele>
        <time>2021-03-08T08:01:29Z</time>
        <hdop>3.2</hdop>
      </trkpt>
      <trkpt lat="44.5997155" lon="3.3100019">
        <ele>919</ele>
        <time>2021-03-08T08:02:00Z</time>
        <hdop>3.2</hdop>
      </trkpt>
      <trkpt lat="44.5997311" lon="3.3101517">
        <ele>925.8</ele>
        <time>2021-03-08T08:02:30Z</time>
        <hdop>3.2</hdop>
      </trkpt>
      <trkpt lat="44.5997546" lon="3.3102093">
        <ele>927.1</ele>
        <time>2021-03-08T08:03:00Z</time>
        <hdop>3.2</hdop>
      </trkpt>
      <trkpt lat="44.5998286" lon="3.3102956">
        <ele>933.2</ele>
        <time>2021-03-08T08:03:30Z</time>
        <hdop>3.2</hdop>
      </trkpt>
      <trkpt lat="44.599911" lon="3.310385">
        <ele>939</ele>
        <time>2021-03-08T08:04:01Z</time>
        <hdop>3.2</hdop>
      </trkpt>
      <trkpt lat="44.5999895" lon="3.310525">
        <ele>940.4</ele>
        <time>2021-03-08T08:04:32Z</time>
        <hdop>3.2</hdop>
      </trkpt>
      <trkpt lat="44.6001275" lon="3.3107134">
        <ele>947.2</ele>
        <time>2021-03-08T08:05:03Z</time>
        <hdop>3.2</hdop>
      </trkpt>
      <trkpt lat="44.6002701" lon="3.3108948">
        <ele>953.5</ele>
        <time>2021-03-08T08:05:33Z</time>
        <hdop>3.2</hdop>
      </trkpt>
      <trkpt lat="44.6004336" lon="3.3110652">
        <ele>959.6</ele>
        <time>2021-03-08T08:06:04Z</time>
        <hdop>3.2</hdop>
      </trkpt>
      <trkpt lat="44.6006616" lon="3.3112467">
        <ele>964.3</ele>
        <time>2021-03-08T08:06:35Z</time>
        <hdop>3.2</hdop>
      </trkpt>
      <trkpt lat="44.6008393" lon="3.3114806">
        <ele>971.3</ele>
        <time>2021-03-08T08:07:05Z</time>
        <hdop>3.2</hdop>
      </trkpt>
      <trkpt lat="44.6010482" lon="3.31163">
        <ele>977.4</ele>
        <time>2021-03-08T08:07:36Z</time>
        <hdop>3.2</hdop>
      </trkpt>
      <trkpt lat="44.6012169" lon="3.3115289">
        <ele>984</ele>
        <time>2021-03-08T08:08:07Z</time>
        <hdop>3.2</hdop>
      </trkpt>
      <trkpt lat="44.6012955" lon="3.3115043">
        <ele>985.4</ele>
        <time>2021-03-08T08:08:37Z</time>
        <hdop>3.2</hdop>
      </trkpt>
      <trkpt lat="44.6014254" lon="3.3115733">
        <ele>989.4</ele>
        <time>2021-03-08T08:09:07Z</time>
        <hdop>3.2</hdop>
      </trkpt>
      <trkpt lat="44.6015345" lon="3.3116903">
        <ele>991.8</ele>
        <time>2021-03-08T08:09:37Z</time>
        <hdop>3.2</hdop>
      </trkpt>
      <trkpt lat="44.6017542" lon="3.3118213">
        <ele>999.4</ele>
        <time>2021-03-08T08:10:08Z</time>
        <hdop>3.2</hdop>
      </trkpt>
      <trkpt lat="44.602034" lon="3.3119296">
        <ele>1000.8</ele>
        <time>2021-03-08T08:10:39Z</time>
        <hdop>3.2</hdop>
      </trkpt>
      <trkpt lat="44.6023337" lon="3.3120534">
        <ele>1008.4</ele>
        <time>2021-03-08T08:11:10Z</time>
        <hdop>3.2</hdop>
      </trkpt>
      <trkpt lat="44.6026752" lon="3.312218">
        <ele>1012.3</ele>
        <time>2021-03-08T08:11:40Z</time>
        <hdop>3.2</hdop>
      </trkpt>
      <trkpt lat="44.6030315" lon="3.312383">
        <ele>1015.8</ele>
        <time>2021-03-08T08:12:10Z</time>
        <hdop>3.2</hdop>
      </trkpt>
      <trkpt lat="44.6033629" lon="3.3125375">
        <ele>1022.1</ele>
        <time>2021-03-08T08:12:41Z</time>
        <hdop>3.2</hdop>
      </trkpt>
      <trkpt lat="44.6036252" lon="3.3128865">
        <ele>1024.7</ele>
        <time>2021-03-08T08:13:11Z</time>
        <hdop>3.2</hdop>
      </trkpt>
      <trkpt lat="44.6039325" lon="3.3132414">
        <ele>1030.8</ele>
        <time>2021-03-08T08:13:42Z</time>
        <hdop>3.2</hdop>
      </trkpt>
      <trkpt lat="44.6043076" lon="3.3134377">
        <ele>1029.6</ele>
        <time>2021-03-08T08:14:13Z</time>
        <hdop>3.2</hdop>
      </trkpt>
      <trkpt lat="44.6046419" lon="3.3135851">
        <ele>1036.6</ele>
        <time>2021-03-08T08:14:43Z</time>
        <hdop>3.2</hdop>
      </trkpt>
      <trkpt lat="44.6050021" lon="3.3137425">
        <ele>1038</ele>
        <time>2021-03-08T08:15:14Z</time>
        <hdop>3.2</hdop>
      </trkpt>
      <trkpt lat="44.6053218" lon="3.3136571">
        <ele>1041.2</ele>
        <time>2021-03-08T08:15:44Z</time>
        <hdop>3.2</hdop>
      </trkpt>
      <trkpt lat="44.60545" lon="3.3134576">
        <ele>1045.7</ele>
        <time>2021-03-08T08:18:21Z</time>
        <hdop>3.2</hdop>
      </trkpt>
      <trkpt lat="44.605727" lon="3.3131483">
        <ele>1044.2</ele>
        <time>2021-03-08T08:18:51Z</time>
        <hdop>3.2</hdop>
      </trkpt>
      <trkpt lat="44.6059182" lon="3.3125989">
        <ele>1044.6</ele>
        <time>2021-03-08T08:19:22Z</time>
        <hdop>3.2</hdop>
      </trkpt>
      <trkpt lat="44.606185" lon="3.3120592">
        <ele>1044.6</ele>
        <time>2021-03-08T08:19:53Z</time>
        <hdop>3.2</hdop>
      </trkpt>
      <trkpt lat="44.6064606" lon="3.3115035">
        <ele>1046.9</ele>
        <time>2021-03-08T08:20:23Z</time>
        <hdop>3.2</hdop>
      </trkpt>
      <trkpt lat="44.6067613" lon="3.3109637">
        <ele>1047.2</ele>
        <time>2021-03-08T08:20:54Z</time>
        <hdop>3.2</hdop>
      </trkpt>
      <trkpt lat="44.6067939" lon="3.3107012">
        <ele>1046.3</ele>
        <time>2021-03-08T08:21:24Z</time>
        <hdop>3.2</hdop>
      </trkpt>
      <trkpt lat="44.6064166" lon="3.3105886">
        <ele>1041</ele>
        <time>2021-03-08T08:21:55Z</time>
        <hdop>4.3</hdop>
      </trkpt>
      <trkpt lat="44.6060898" lon="3.3101269">
        <ele>1039.7</ele>
        <time>2021-03-08T08:22:26Z</time>
        <hdop>4.3</hdop>
      </trkpt>
      <trkpt lat="44.6058187" lon="3.3097532">
        <ele>1027.3</ele>
        <time>2021-03-08T08:22:57Z</time>
        <hdop>3.2</hdop>
      </trkpt>
      <trkpt lat="44.6058471" lon="3.3091597">
        <ele>1025.8</ele>
        <time>2021-03-08T08:23:27Z</time>
        <hdop>3.2</hdop>
      </trkpt>
      <trkpt lat="44.6058524" lon="3.3086751">
        <ele>1017</ele>
        <time>2021-03-08T08:23:57Z</time>
        <hdop>3.2</hdop>
      </trkpt>
      <trkpt lat="44.605945" lon="3.3083137">
        <ele>1008.1</ele>
        <time>2021-03-08T08:24:28Z</time>
        <hdop>3.2</hdop>
      </trkpt>
      <trkpt lat="44.6060309" lon="3.3079037">
        <ele>1007.2</ele>
        <time>2021-03-08T08:24:59Z</time>
        <hdop>4.3</hdop>
      </trkpt>
      <trkpt lat="44.6058707" lon="3.3074706">
        <ele>1004.7</ele>
        <time>2021-03-08T08:25:30Z</time>
        <hdop>3.2</hdop>
      </trkpt>
      <trkpt lat="44.6055971" lon="3.3072337">
        <ele>999.1</ele>
        <time>2021-03-08T08:26:01Z</time>
        <hdop>4.3</hdop>
      </trkpt>
      <trkpt lat="44.6052096" lon="3.3070225">
        <ele>992.2</ele>
        <time>2021-03-08T08:26:32Z</time>
        <hdop>3.2</hdop>
      </trkpt>
      <trkpt lat="44.6048489" lon="3.306846">
        <ele>991.4</ele>
        <time>2021-03-08T08:27:02Z</time>
        <hdop>3.2</hdop>
      </trkpt>
      <trkpt lat="44.6044553" lon="3.3065938">
        <ele>988.5</ele>
        <time>2021-03-08T08:27:33Z</time>
        <hdop>3.2</hdop>
      </trkpt>
      <trkpt lat="44.6044971" lon="3.3060377">
        <ele>981.4</ele>
        <time>2021-03-08T08:28:04Z</time>
        <hdop>3.2</hdop>
      </trkpt>
      <trkpt lat="44.6046256" lon="3.3052869">
        <ele>973.3</ele>
        <time>2021-03-08T08:28:35Z</time>
        <hdop>3.2</hdop>
      </trkpt>
      <trkpt lat="44.6048212" lon="3.3047384">
        <ele>970.4</ele>
        <time>2021-03-08T08:29:05Z</time>
        <hdop>3.2</hdop>
      </trkpt>
      <trkpt lat="44.6051015" lon="3.3044083">
        <ele>964.6</ele>
        <time>2021-03-08T08:29:36Z</time>
        <hdop>3.2</hdop>
      </trkpt>
      <trkpt lat="44.6047063" lon="3.3047355">
        <ele>964.7</ele>
        <time>2021-03-08T08:30:06Z</time>
        <hdop>3.2</hdop>
      </trkpt>
      <trkpt lat="44.6044736" lon="3.3052679">
        <ele>959.8</ele>
        <time>2021-03-08T08:30:37Z</time>
        <hdop>3.2</hdop>
      </trkpt>
      <trkpt lat="44.6042585" lon="3.3056699">
        <ele>961.6</ele>
        <time>2021-03-08T08:31:08Z</time>
        <hdop>3.2</hdop>
      </trkpt>
      <trkpt lat="44.6039474" lon="3.3060155">
        <ele>956.9</ele>
        <time>2021-03-08T08:31:38Z</time>
        <hdop>3.2</hdop>
      </trkpt>
      <trkpt lat="44.6035094" lon="3.3062478">
        <ele>950.3</ele>
        <time>2021-03-08T08:32:09Z</time>
        <hdop>3.2</hdop>
      </trkpt>
      <trkpt lat="44.6032319" lon="3.3066405">
        <ele>946.7</ele>
        <time>2021-03-08T08:32:39Z</time>
        <hdop>3.2</hdop>
      </trkpt>
      <trkpt lat="44.6036136" lon="3.3069266">
        <ele>940.1</ele>
        <time>2021-03-08T08:33:09Z</time>
        <hdop>4.3</hdop>
      </trkpt>
      <trkpt lat="44.6039786" lon="3.3074086">
        <ele>936.8</ele>
        <time>2021-03-08T08:33:40Z</time>
        <hdop>5.4</hdop>
      </trkpt>
      <trkpt lat="44.6043274" lon="3.307839">
        <ele>932.4</ele>
        <time>2021-03-08T08:34:11Z</time>
        <hdop>3.2</hdop>
      </trkpt>
      <trkpt lat="44.6044901" lon="3.3081641">
        <ele>927.7</ele>
        <time>2021-03-08T08:34:42Z</time>
        <hdop>6.4</hdop>
      </trkpt>
      <trkpt lat="44.6041229" lon="3.3083417">
        <ele>929.7</ele>
        <time>2021-03-08T08:35:13Z</time>
        <hdop>7.5</hdop>
      </trkpt>
      <trkpt lat="44.6040021" lon="3.308482">
        <ele>923.1</ele>
        <time>2021-03-08T08:35:43Z</time>
        <hdop>4.3</hdop>
      </trkpt>
      <trkpt lat="44.6039758" lon="3.3080238">
        <ele>921.8</ele>
        <time>2021-03-08T08:36:13Z</time>
        <hdop>4.3</hdop>
      </trkpt>
      <trkpt lat="44.6036204" lon="3.3080564">
        <ele>914.8</ele>
        <time>2021-03-08T08:36:43Z</time>
        <hdop>10.7</hdop>
      </trkpt>
      <trkpt lat="44.6032569" lon="3.3078214">
        <ele>910.5</ele>
        <time>2021-03-08T08:37:13Z</time>
        <hdop>10.7</hdop>
      </trkpt>
      <trkpt lat="44.6028788" lon="3.3077578">
        <ele>896.9</ele>
        <time>2021-03-08T08:37:44Z</time>
        <hdop>4.3</hdop>
      </trkpt>
      <trkpt lat="44.6024968" lon="3.3075461">
        <ele>887.8</ele>
        <time>2021-03-08T08:38:14Z</time>
        <hdop>4.3</hdop>
      </trkpt>
      <trkpt lat="44.6024664" lon="3.3076574">
        <ele>876.7</ele>
        <time>2021-03-08T08:38:45Z</time>
        <hdop>4.3</hdop>
      </trkpt>
      <trkpt lat="44.6023222" lon="3.3076998">
        <ele>870.8</ele>
        <time>2021-03-08T08:39:15Z</time>
        <hdop>4.3</hdop>
      </trkpt>
      <trkpt lat="44.6020808" lon="3.3071084">
        <ele>870.7</ele>
        <time>2021-03-08T08:39:45Z</time>
        <hdop>4.3</hdop>
      </trkpt>
      <trkpt lat="44.6019889" lon="3.306528">
        <ele>870</ele>
        <time>2021-03-08T08:40:16Z</time>
        <hdop>4.3</hdop>
      </trkpt>
      <trkpt lat="44.6017279" lon="3.3066752">
        <ele>858.7</ele>
        <time>2021-03-08T08:40:46Z</time>
        <hdop>3.2</hdop>
      </trkpt>
      <trkpt lat="44.6014395" lon="3.3070533">
        <ele>857.4</ele>
        <time>2021-03-08T08:41:17Z</time>
        <hdop>10.7</hdop>
      </trkpt>
      <trkpt lat="44.6009997" lon="3.3071903">
        <ele>855.7</ele>
        <time>2021-03-08T08:41:47Z</time>
        <hdop>10.7</hdop>
      </trkpt>
      <trkpt lat="44.6006295" lon="3.3069195">
        <ele>849</ele>
        <time>2021-03-08T08:42:18Z</time>
        <hdop>8.6</hdop>
      </trkpt>
      <trkpt lat="44.6002758" lon="3.3067491">
        <ele>845.4</ele>
        <time>2021-03-08T08:42:48Z</time>
        <hdop>6.4</hdop>
      </trkpt>
      <trkpt lat="44.5998762" lon="3.3064834">
        <ele>835.9</ele>
        <time>2021-03-08T08:43:18Z</time>
        <hdop>5.4</hdop>
      </trkpt>
      <trkpt lat="44.5995521" lon="3.3062747">
        <ele>823.8</ele>
        <time>2021-03-08T08:43:49Z</time>
        <hdop>5.4</hdop>
      </trkpt>
      <trkpt lat="44.5990798" lon="3.3060498">
        <ele>820.7</ele>
        <time>2021-03-08T08:44:20Z</time>
        <hdop>4.3</hdop>
      </trkpt>
      <trkpt lat="44.5987966" lon="3.3058708">
        <ele>813.9</ele>
        <time>2021-03-08T08:44:50Z</time>
        <hdop>4.3</hdop>
      </trkpt>
      <trkpt lat="44.5983542" lon="3.3056862">
        <ele>817</ele>
        <time>2021-03-08T08:45:21Z</time>
        <hdop>4.3</hdop>
      </trkpt>
      <trkpt lat="44.5979929" lon="3.3054622">
        <ele>808.9</ele>
        <time>2021-03-08T08:45:52Z</time>
        <hdop>6.4</hdop>
      </trkpt>
      <trkpt lat="44.597525" lon="3.3053559">
        <ele>805.7</ele>
        <time>2021-03-08T08:46:23Z</time>
        <hdop>5.4</hdop>
      </trkpt>
      <trkpt lat="44.5973673" lon="3.305027">
        <ele>793.4</ele>
        <time>2021-03-08T08:46:53Z</time>
        <hdop>5.4</hdop>
      </trkpt>
      <trkpt lat="44.597227" lon="3.3046038">
        <ele>806</ele>
        <time>2021-03-08T08:47:24Z</time>
        <hdop>3.2</hdop>
      </trkpt>
      <trkpt lat="44.5970138" lon="3.3041762">
        <ele>803.1</ele>
        <time>2021-03-08T08:47:55Z</time>
        <hdop>9.6</hdop>
      </trkpt>
      <trkpt lat="44.5967112" lon="3.3039131">
        <ele>809</ele>
        <time>2021-03-08T08:48:25Z</time>
        <hdop>9.6</hdop>
      </trkpt>
      <trkpt lat="44.5964855" lon="3.3035176">
        <ele>810.1</ele>
        <time>2021-03-08T08:48:56Z</time>
        <hdop>9.6</hdop>
      </trkpt>
      <trkpt lat="44.5963223" lon="3.3031161">
        <ele>819.6</ele>
        <time>2021-03-08T08:49:26Z</time>
        <hdop>3.2</hdop>
      </trkpt>
      <trkpt lat="44.5961498" lon="3.3027283">
        <ele>825.7</ele>
        <time>2021-03-08T08:49:57Z</time>
        <hdop>3.2</hdop>
      </trkpt>
      <trkpt lat="44.5959664" lon="3.3023615">
        <ele>827.2</ele>
        <time>2021-03-08T08:50:28Z</time>
        <hdop>3.2</hdop>
      </trkpt>
      <trkpt lat="44.5957805" lon="3.3019819">
        <ele>836.1</ele>
        <time>2021-03-08T08:50:59Z</time>
        <hdop>9.6</hdop>
      </trkpt>
      <trkpt lat="44.59574" lon="3.3016703">
        <ele>837.2</ele>
        <time>2021-03-08T08:51:29Z</time>
        <hdop>3.2</hdop>
      </trkpt>
      <trkpt lat="44.596007" lon="3.3017334">
        <ele>838.1</ele>
        <time>2021-03-08T08:51:59Z</time>
        <hdop>3.2</hdop>
      </trkpt>
      <trkpt lat="44.5963592" lon="3.3018597">
        <ele>842.5</ele>
        <time>2021-03-08T08:52:30Z</time>
        <hdop>3.2</hdop>
      </trkpt>
      <trkpt lat="44.5966838" lon="3.3020589">
        <ele>846.9</ele>
        <time>2021-03-08T08:53:00Z</time>
        <hdop>3.2</hdop>
      </trkpt>
      <trkpt lat="44.5970464" lon="3.3020246">
        <ele>853.9</ele>
        <time>2021-03-08T08:53:31Z</time>
        <hdop>3.2</hdop>
      </trkpt>
      <trkpt lat="44.5973576" lon="3.3019614">
        <ele>860</ele>
        <time>2021-03-08T08:54:02Z</time>
        <hdop>3.2</hdop>
      </trkpt>
      <trkpt lat="44.597669" lon="3.301941">
        <ele>868.1</ele>
        <time>2021-03-08T08:54:33Z</time>
        <hdop>3.2</hdop>
      </trkpt>
      <trkpt lat="44.5979816" lon="3.3018854">
        <ele>875.8</ele>
        <time>2021-03-08T08:55:04Z</time>
        <hdop>3.2</hdop>
      </trkpt>
      <trkpt lat="44.5982487" lon="3.3017804">
        <ele>873.2</ele>
        <time>2021-03-08T08:55:35Z</time>
        <hdop>3.2</hdop>
      </trkpt>
      <trkpt lat="44.5985607" lon="3.3016443">
        <ele>881.3</ele>
        <time>2021-03-08T08:56:06Z</time>
        <hdop>3.2</hdop>
      </trkpt>
      <trkpt lat="44.5988708" lon="3.301507">
        <ele>886.6</ele>
        <time>2021-03-08T08:56:36Z</time>
        <hdop>3.2</hdop>
      </trkpt>
      <trkpt lat="44.5991567" lon="3.3013293">
        <ele>897.9</ele>
        <time>2021-03-08T08:57:07Z</time>
        <hdop>3.2</hdop>
      </trkpt>
      <trkpt lat="44.599383" lon="3.3011767">
        <ele>898.2</ele>
        <time>2021-03-08T08:57:37Z</time>
        <hdop>3.2</hdop>
      </trkpt>
      <trkpt lat="44.5996555" lon="3.3010062">
        <ele>907.3</ele>
        <time>2021-03-08T08:58:08Z</time>
        <hdop>3.2</hdop>
      </trkpt>
      <trkpt lat="44.5998612" lon="3.3008112">
        <ele>907.8</ele>
        <time>2021-03-08T08:58:38Z</time>
        <hdop>3.2</hdop>
      </trkpt>
      <trkpt lat="44.6000096" lon="3.3008209">
        <ele>915.1</ele>
        <time>2021-03-08T08:59:09Z</time>
        <hdop>3.2</hdop>
      </trkpt>
      <trkpt lat="44.5998204" lon="3.3011653">
        <ele>920.2</ele>
        <time>2021-03-08T08:59:40Z</time>
        <hdop>3.2</hdop>
      </trkpt>
      <trkpt lat="44.5997108" lon="3.3014771">
        <ele>923</ele>
        <time>2021-03-08T09:00:10Z</time>
        <hdop>3.2</hdop>
      </trkpt>
      <trkpt lat="44.5995116" lon="3.3018393">
        <ele>932</ele>
        <time>2021-03-08T09:00:41Z</time>
        <hdop>3.2</hdop>
      </trkpt>
      <trkpt lat="44.5993369" lon="3.3022092">
        <ele>932.6</ele>
        <time>2021-03-08T09:01:11Z</time>
        <hdop>3.2</hdop>
      </trkpt>
      <trkpt lat="44.5992083" lon="3.3026226">
        <ele>939.6</ele>
        <time>2021-03-08T09:01:41Z</time>
        <hdop>3.2</hdop>
      </trkpt>
      <trkpt lat="44.5991443" lon="3.3029619">
        <ele>943</ele>
        <time>2021-03-08T09:02:12Z</time>
        <hdop>3.2</hdop>
      </trkpt>
      <trkpt lat="44.5993726" lon="3.3028411">
        <ele>947.4</ele>
        <time>2021-03-08T09:02:43Z</time>
        <hdop>3.2</hdop>
      </trkpt>
      <trkpt lat="44.599579" lon="3.3026062">
        <ele>952</ele>
        <time>2021-03-08T09:03:14Z</time>
        <hdop>3.2</hdop>
      </trkpt>
      <trkpt lat="44.599895" lon="3.3024609">
        <ele>954.9</ele>
        <time>2021-03-08T09:03:45Z</time>
        <hdop>3.2</hdop>
      </trkpt>
      <trkpt lat="44.6001772" lon="3.3023711">
        <ele>962.2</ele>
        <time>2021-03-08T09:04:16Z</time>
        <hdop>3.2</hdop>
      </trkpt>
      <trkpt lat="44.6004405" lon="3.3022136">
        <ele>969.4</ele>
        <time>2021-03-08T09:04:47Z</time>
        <hdop>3.2</hdop>
      </trkpt>
      <trkpt lat="44.6005853" lon="3.3023488">
        <ele>972.8</ele>
        <time>2021-03-08T09:05:18Z</time>
        <hdop>3.2</hdop>
      </trkpt>
      <trkpt lat="44.6007438" lon="3.3024446">
        <ele>978.2</ele>
        <time>2021-03-08T09:05:49Z</time>
        <hdop>3.2</hdop>
      </trkpt>
      <trkpt lat="44.6010346" lon="3.30243">
        <ele>985.2</ele>
        <time>2021-03-08T09:06:19Z</time>
        <hdop>3.2</hdop>
      </trkpt>
      <trkpt lat="44.6013115" lon="3.3025418">
        <ele>987.4</ele>
        <time>2021-03-08T09:06:50Z</time>
        <hdop>3.2</hdop>
      </trkpt>
      <trkpt lat="44.6016601" lon="3.3026544">
        <ele>995</ele>
        <time>2021-03-08T09:07:20Z</time>
        <hdop>3.2</hdop>
      </trkpt>
      <trkpt lat="44.6020766" lon="3.3026829">
        <ele>997.5</ele>
        <time>2021-03-08T09:16:58Z</time>
        <hdop>3.2</hdop>
      </trkpt>
      <trkpt lat="44.6023972" lon="3.3025894">
        <ele>1005.2</ele>
        <time>2021-03-08T09:17:28Z</time>
        <hdop>3.2</hdop>
      </trkpt>
      <trkpt lat="44.6028079" lon="3.302422">
        <ele>1004.6</ele>
        <time>2021-03-08T09:17:59Z</time>
        <hdop>3.2</hdop>
      </trkpt>
      <trkpt lat="44.6032354" lon="3.3022864">
        <ele>1006.5</ele>
        <time>2021-03-08T09:18:29Z</time>
        <hdop>3.2</hdop>
      </trkpt>
      <trkpt lat="44.6036747" lon="3.3021483">
        <ele>1008.3</ele>
        <time>2021-03-08T09:19:00Z</time>
        <hdop>3.2</hdop>
      </trkpt>
      <trkpt lat="44.6040668" lon="3.3020302">
        <ele>1011</ele>
        <time>2021-03-08T09:19:30Z</time>
        <hdop>3.2</hdop>
      </trkpt>
      <trkpt lat="44.6044886" lon="3.3018263">
        <ele>1012</ele>
        <time>2021-03-08T09:20:01Z</time>
        <hdop>3.2</hdop>
      </trkpt>
      <trkpt lat="44.6048525" lon="3.301516">
        <ele>1017.7</ele>
        <time>2021-03-08T09:20:32Z</time>
        <hdop>3.2</hdop>
      </trkpt>
      <trkpt lat="44.6051704" lon="3.3012012">
        <ele>1017.8</ele>
        <time>2021-03-08T09:21:02Z</time>
        <hdop>3.2</hdop>
      </trkpt>
      <trkpt lat="44.6055061" lon="3.301034">
        <ele>1023.6</ele>
        <time>2021-03-08T09:21:33Z</time>
        <hdop>3.2</hdop>
      </trkpt>
      <trkpt lat="44.605817" lon="3.3008853">
        <ele>1029.4</ele>
        <time>2021-03-08T09:22:04Z</time>
        <hdop>3.2</hdop>
      </trkpt>
      <trkpt lat="44.606169" lon="3.3007298">
        <ele>1032.8</ele>
        <time>2021-03-08T09:22:34Z</time>
        <hdop>3.2</hdop>
      </trkpt>
      <trkpt lat="44.6064139" lon="3.300503">
        <ele>1031.1</ele>
        <time>2021-03-08T09:23:04Z</time>
        <hdop>3.2</hdop>
      </trkpt>
      <trkpt lat="44.6067564" lon="3.3003596">
        <ele>1037.7</ele>
        <time>2021-03-08T09:23:35Z</time>
        <hdop>3.2</hdop>
      </trkpt>
      <trkpt lat="44.6072091" lon="3.3003438">
        <ele>1039.6</ele>
        <time>2021-03-08T09:24:06Z</time>
        <hdop>3.2</hdop>
      </trkpt>
      <trkpt lat="44.6076633" lon="3.3002842">
        <ele>1040.1</ele>
        <time>2021-03-08T09:24:36Z</time>
        <hdop>3.2</hdop>
      </trkpt>
      <trkpt lat="44.6081441" lon="3.3003027">
        <ele>1043.6</ele>
        <time>2021-03-08T09:25:07Z</time>
        <hdop>3.2</hdop>
      </trkpt>
      <trkpt lat="44.6086151" lon="3.300303">
        <ele>1047</ele>
        <time>2021-03-08T09:25:37Z</time>
        <hdop>3.2</hdop>
      </trkpt>
      <trkpt lat="44.6090357" lon="3.3003232">
        <ele>1049.1</ele>
        <time>2021-03-08T09:26:08Z</time>
        <hdop>3.2</hdop>
      </trkpt>
      <trkpt lat="44.6094006" lon="3.3002675">
        <ele>1053.5</ele>
        <time>2021-03-08T09:26:39Z</time>
        <hdop>3.2</hdop>
      </trkpt>
      <trkpt lat="44.6098216" lon="3.3002312">
        <ele>1058.6</ele>
        <time>2021-03-08T09:27:10Z</time>
        <hdop>3.2</hdop>
      </trkpt>
      <trkpt lat="44.610234" lon="3.3002512">
        <ele>1064.5</ele>
        <time>2021-03-08T09:27:40Z</time>
        <hdop>3.2</hdop>
      </trkpt>
      <trkpt lat="44.6106246" lon="3.3002486">
        <ele>1069.3</ele>
        <time>2021-03-08T09:28:10Z</time>
        <hdop>3.2</hdop>
      </trkpt>
      <trkpt lat="44.6110204" lon="3.3003075">
        <ele>1071.5</ele>
        <time>2021-03-08T09:28:41Z</time>
        <hdop>3.2</hdop>
      </trkpt>
      <trkpt lat="44.6114379" lon="3.3002676">
        <ele>1079.7</ele>
        <time>2021-03-08T09:29:11Z</time>
        <hdop>3.2</hdop>
      </trkpt>
      <trkpt lat="44.6118568" lon="3.3002032">
        <ele>1079.7</ele>
        <time>2021-03-08T09:29:42Z</time>
        <hdop>3.2</hdop>
      </trkpt>
      <trkpt lat="44.6122518" lon="3.3001189">
        <ele>1086.1</ele>
        <time>2021-03-08T09:30:13Z</time>
        <hdop>3.2</hdop>
      </trkpt>
      <trkpt lat="44.6126417" lon="3.3000058">
        <ele>1091.5</ele>
        <time>2021-03-08T09:30:44Z</time>
        <hdop>3.2</hdop>
      </trkpt>
      <trkpt lat="44.6129876" lon="3.2998862">
        <ele>1095.4</ele>
        <time>2021-03-08T09:31:15Z</time>
        <hdop>3.2</hdop>
      </trkpt>
      <trkpt lat="44.6133746" lon="3.2998673">
        <ele>1098.7</ele>
        <time>2021-03-08T09:31:46Z</time>
        <hdop>3.2</hdop>
      </trkpt>
      <trkpt lat="44.6137544" lon="3.2997746">
        <ele>1098.4</ele>
        <time>2021-03-08T09:32:16Z</time>
        <hdop>3.2</hdop>
      </trkpt>
      <trkpt lat="44.6142099" lon="3.2996614">
        <ele>1102.1</ele>
        <time>2021-03-08T09:32:47Z</time>
        <hdop>3.2</hdop>
      </trkpt>
      <trkpt lat="44.6146592" lon="3.2997739">
        <ele>1098.6</ele>
        <time>2021-03-08T09:33:18Z</time>
        <hdop>3.2</hdop>
      </trkpt>
      <trkpt lat="44.615125" lon="3.2999716">
        <ele>1097.9</ele>
        <time>2021-03-08T09:33:49Z</time>
        <hdop>3.2</hdop>
      </trkpt>
      <trkpt lat="44.6156124" lon="3.2999172">
        <ele>1095.7</ele>
        <time>2021-03-08T09:34:20Z</time>
        <hdop>3.2</hdop>
      </trkpt>
      <trkpt lat="44.616121" lon="3.2997311">
        <ele>1090.3</ele>
        <time>2021-03-08T09:34:51Z</time>
        <hdop>3.2</hdop>
      </trkpt>
      <trkpt lat="44.616584" lon="3.2995109">
        <ele>1088</ele>
        <time>2021-03-08T09:35:21Z</time>
        <hdop>3.2</hdop>
      </trkpt>
      <trkpt lat="44.6169881" lon="3.2992382">
        <ele>1091.4</ele>
        <time>2021-03-08T09:35:52Z</time>
        <hdop>3.2</hdop>
      </trkpt>
      <trkpt lat="44.6175254" lon="3.2989927">
        <ele>1091</ele>
        <time>2021-03-08T09:36:23Z</time>
        <hdop>3.2</hdop>
      </trkpt>
      <trkpt lat="44.6179475" lon="3.2986785">
        <ele>1091.2</ele>
        <time>2021-03-08T09:36:54Z</time>
        <hdop>3.2</hdop>
      </trkpt>
      <trkpt lat="44.6184893" lon="3.2984946">
        <ele>1081.5</ele>
        <time>2021-03-08T09:37:25Z</time>
        <hdop>3.2</hdop>
      </trkpt>
      <trkpt lat="44.6189304" lon="3.2982832">
        <ele>1077.3</ele>
        <time>2021-03-08T09:37:55Z</time>
        <hdop>3.2</hdop>
      </trkpt>
      <trkpt lat="44.6194671" lon="3.2980337">
        <ele>1073.4</ele>
        <time>2021-03-08T09:38:26Z</time>
        <hdop>3.2</hdop>
      </trkpt>
      <trkpt lat="44.6199059" lon="3.2977434">
        <ele>1069.6</ele>
        <time>2021-03-08T09:38:56Z</time>
        <hdop>3.2</hdop>
      </trkpt>
      <trkpt lat="44.6202916" lon="3.2973664">
        <ele>1063.6</ele>
        <time>2021-03-08T09:39:27Z</time>
        <hdop>3.2</hdop>
      </trkpt>
      <trkpt lat="44.620735" lon="3.297073">
        <ele>1061.3</ele>
        <time>2021-03-08T09:39:57Z</time>
        <hdop>3.2</hdop>
      </trkpt>
      <trkpt lat="44.6212028" lon="3.2968853">
        <ele>1060.3</ele>
        <time>2021-03-08T09:40:28Z</time>
        <hdop>3.2</hdop>
      </trkpt>
      <trkpt lat="44.6213801" lon="3.2962738">
        <ele>1056.6</ele>
        <time>2021-03-08T09:40:59Z</time>
        <hdop>3.2</hdop>
      </trkpt>
      <trkpt lat="44.6211092" lon="3.295802">
        <ele>1057.6</ele>
        <time>2021-03-08T09:41:30Z</time>
        <hdop>3.2</hdop>
      </trkpt>
      <trkpt lat="44.620819" lon="3.2953644">
        <ele>1057.2</ele>
        <time>2021-03-08T09:42:01Z</time>
        <hdop>3.2</hdop>
      </trkpt>
      <trkpt lat="44.6205692" lon="3.2948725">
        <ele>1052.5</ele>
        <time>2021-03-08T09:42:31Z</time>
        <hdop>3.2</hdop>
      </trkpt>
      <trkpt lat="44.6203498" lon="3.2948378">
        <ele>1055.8</ele>
        <time>2021-03-08T09:43:02Z</time>
        <hdop>3.2</hdop>
      </trkpt>
      <trkpt lat="44.6199484" lon="3.2949187">
        <ele>1050.6</ele>
        <time>2021-03-08T09:43:32Z</time>
        <hdop>3.2</hdop>
      </trkpt>
      <trkpt lat="44.6195398" lon="3.2948169">
        <ele>1045.8</ele>
        <time>2021-03-08T09:44:02Z</time>
        <hdop>3.2</hdop>
      </trkpt>
      <trkpt lat="44.6191429" lon="3.2944031">
        <ele>1037.5</ele>
        <time>2021-03-08T09:44:33Z</time>
        <hdop>3.2</hdop>
      </trkpt>
      <trkpt lat="44.619138" lon="3.293743">
        <ele>1036.4</ele>
        <time>2021-03-08T09:45:04Z</time>
        <hdop>3.2</hdop>
      </trkpt>
      <trkpt lat="44.6193522" lon="3.293131">
        <ele>1028.4</ele>
        <time>2021-03-08T09:45:35Z</time>
        <hdop>3.2</hdop>
      </trkpt>
      <trkpt lat="44.6195324" lon="3.2925506">
        <ele>1026</ele>
        <time>2021-03-08T09:46:06Z</time>
        <hdop>3.2</hdop>
      </trkpt>
      <trkpt lat="44.6193403" lon="3.2918762">
        <ele>1017.3</ele>
        <time>2021-03-08T09:46:37Z</time>
        <hdop>3.2</hdop>
      </trkpt>
      <trkpt lat="44.6191855" lon="3.2912843">
        <ele>1013.5</ele>
        <time>2021-03-08T09:47:07Z</time>
        <hdop>3.2</hdop>
      </trkpt>
      <trkpt lat="44.6191447" lon="3.2906877">
        <ele>1011.6</ele>
        <time>2021-03-08T09:47:38Z</time>
        <hdop>3.2</hdop>
      </trkpt>
      <trkpt lat="44.6194258" lon="3.2902783">
        <ele>995.3</ele>
        <time>2021-03-08T09:48:08Z</time>
        <hdop>3.2</hdop>
      </trkpt>
      <trkpt lat="44.6196314" lon="3.290176">
        <ele>995.6</ele>
        <time>2021-03-08T09:49:19Z</time>
        <hdop>3.2</hdop>
      </trkpt>
      <trkpt lat="44.6199722" lon="3.29001">
        <ele>986</ele>
        <time>2021-03-08T09:49:49Z</time>
        <hdop>3.2</hdop>
      </trkpt>
      <trkpt lat="44.6203158" lon="3.2896821">
        <ele>984.4</ele>
        <time>2021-03-08T09:50:19Z</time>
        <hdop>3.2</hdop>
      </trkpt>
      <trkpt lat="44.6203513" lon="3.2891591">
        <ele>978.8</ele>
        <time>2021-03-08T09:50:50Z</time>
        <hdop>4.3</hdop>
      </trkpt>
      <trkpt lat="44.6200483" lon="3.2895907">
        <ele>977.3</ele>
        <time>2021-03-08T09:51:21Z</time>
        <hdop>3.2</hdop>
      </trkpt>
      <trkpt lat="44.619669" lon="3.2895206">
        <ele>976.3</ele>
        <time>2021-03-08T09:51:52Z</time>
        <hdop>5.4</hdop>
      </trkpt>
      <trkpt lat="44.6192017" lon="3.2896258">
        <ele>965.1</ele>
        <time>2021-03-08T09:52:22Z</time>
        <hdop>3.2</hdop>
      </trkpt>
      <trkpt lat="44.6195997" lon="3.289441">
        <ele>956.3</ele>
        <time>2021-03-08T09:52:53Z</time>
        <hdop>4.3</hdop>
      </trkpt>
      <trkpt lat="44.6200454" lon="3.2891954">
        <ele>949.1</ele>
        <time>2021-03-08T09:53:24Z</time>
        <hdop>3.2</hdop>
      </trkpt>
      <trkpt lat="44.6201538" lon="3.2885597">
        <ele>952.4</ele>
        <time>2021-03-08T09:53:55Z</time>
        <hdop>4.3</hdop>
      </trkpt>
      <trkpt lat="44.6204404" lon="3.2881512">
        <ele>938.1</ele>
        <time>2021-03-08T09:54:25Z</time>
        <hdop>5.4</hdop>
      </trkpt>
      <trkpt lat="44.6208862" lon="3.2879051">
        <ele>936.8</ele>
        <time>2021-03-08T09:54:56Z</time>
        <hdop>3.2</hdop>
      </trkpt>
      <trkpt lat="44.621244" lon="3.2875521">
        <ele>935.5</ele>
        <time>2021-03-08T09:55:26Z</time>
        <hdop>9.6</hdop>
      </trkpt>
      <trkpt lat="44.6216122" lon="3.2871771">
        <ele>932</ele>
        <time>2021-03-08T09:55:57Z</time>
        <hdop>9.6</hdop>
      </trkpt>
      <trkpt lat="44.6217412" lon="3.2865613">
        <ele>921.4</ele>
        <time>2021-03-08T09:56:27Z</time>
        <hdop>3.2</hdop>
      </trkpt>
      <trkpt lat="44.6218128" lon="3.2858987">
        <ele>918.1</ele>
        <time>2021-03-08T09:56:58Z</time>
        <hdop>3.2</hdop>
      </trkpt>
      <trkpt lat="44.6218004" lon="3.2853215">
        <ele>915.6</ele>
        <time>2021-03-08T09:57:28Z</time>
        <hdop>3.2</hdop>
      </trkpt>
      <trkpt lat="44.6216497" lon="3.2847698">
        <ele>909.5</ele>
        <time>2021-03-08T09:57:58Z</time>
        <hdop>3.2</hdop>
      </trkpt>
      <trkpt lat="44.6213644" lon="3.2844424">
        <ele>917</ele>
        <time>2021-03-08T09:58:28Z</time>
        <hdop>3.2</hdop>
      </trkpt>
      <trkpt lat="44.6209834" lon="3.2843309">
        <ele>906.1</ele>
        <time>2021-03-08T09:58:59Z</time>
        <hdop>3.2</hdop>
      </trkpt>
      <trkpt lat="44.6208437" lon="3.284015">
        <ele>893.4</ele>
        <time>2021-03-08T09:59:29Z</time>
        <hdop>6.4</hdop>
      </trkpt>
      <trkpt lat="44.6206924" lon="3.2839522">
        <ele>891.4</ele>
        <time>2021-03-08T10:00:00Z</time>
        <hdop>3.2</hdop>
      </trkpt>
      <trkpt lat="44.620679" lon="3.2836007">
        <ele>899.3</ele>
        <time>2021-03-08T10:00:31Z</time>
        <hdop>4.3</hdop>
      </trkpt>
      <trkpt lat="44.6208035" lon="3.2829849">
        <ele>885.9</ele>
        <time>2021-03-08T10:01:02Z</time>
        <hdop>4.3</hdop>
      </trkpt>
      <trkpt lat="44.6205735" lon="3.2827753">
        <ele>871.5</ele>
        <time>2021-03-08T10:01:33Z</time>
        <hdop>3.2</hdop>
      </trkpt>
      <trkpt lat="44.6206662" lon="3.2825733">
        <ele>867.9</ele>
        <time>2021-03-08T10:02:03Z</time>
        <hdop>4.3</hdop>
      </trkpt>
      <trkpt lat="44.6203509" lon="3.2823594">
        <ele>857.4</ele>
        <time>2021-03-08T10:02:34Z</time>
        <hdop>9.6</hdop>
      </trkpt>
      <trkpt lat="44.6201656" lon="3.2823987">
        <ele>849.5</ele>
        <time>2021-03-08T10:03:05Z</time>
        <hdop>9.6</hdop>
      </trkpt>
      <trkpt lat="44.6201645" lon="3.2824316">
        <ele>850.5</ele>
        <time>2021-03-08T10:03:36Z</time>
        <hdop>9.6</hdop>
      </trkpt>
      <trkpt lat="44.6201767" lon="3.2824909">
        <ele>849</ele>
        <time>2021-03-08T10:04:07Z</time>
        <hdop>9.6</hdop>
      </trkpt>
      <trkpt lat="44.6201533" lon="3.2825291">
        <ele>854.5</ele>
        <time>2021-03-08T10:04:38Z</time>
        <hdop>9.6</hdop>
      </trkpt>
      <trkpt lat="44.6201034" lon="3.2825665">
        <ele>853.2</ele>
        <time>2021-03-08T10:05:08Z</time>
        <hdop>9.6</hdop>
      </trkpt>
      <trkpt lat="44.6199671" lon="3.2826335">
        <ele>850</ele>
        <time>2021-03-08T10:05:39Z</time>
        <hdop>6.4</hdop>
      </trkpt>
      <trkpt lat="44.619932" lon="3.2825154">
        <ele>844.5</ele>
        <time>2021-03-08T10:06:09Z</time>
        <hdop>6.4</hdop>
      </trkpt>
      <trkpt lat="44.6197059" lon="3.2823971">
        <ele>849.9</ele>
        <time>2021-03-08T10:06:40Z</time>
        <hdop>7.5</hdop>
      </trkpt>
      <trkpt lat="44.6195669" lon="3.2823063">
        <ele>863.5</ele>
        <time>2021-03-08T10:07:11Z</time>
        <hdop>4.3</hdop>
      </trkpt>
      <trkpt lat="44.6195803" lon="3.2823567">
        <ele>865.7</ele>
        <time>2021-03-08T10:07:41Z</time>
        <hdop>5.4</hdop>
      </trkpt>
      <trkpt lat="44.6194847" lon="3.2824246">
        <ele>866.3</ele>
        <time>2021-03-08T10:08:11Z</time>
        <hdop>6.4</hdop>
      </trkpt>
      <trkpt lat="44.6196547" lon="3.2823903">
        <ele>868.2</ele>
        <time>2021-03-08T10:08:42Z</time>
        <hdop>7.5</hdop>
      </trkpt>
      <trkpt lat="44.6196451" lon="3.2824248">
        <ele>869.9</ele>
        <time>2021-03-08T10:09:13Z</time>
        <hdop>10.7</hdop>
      </trkpt>
      <trkpt lat="44.6195668" lon="3.2824541">
        <ele>864</ele>
        <time>2021-03-08T10:09:44Z</time>
        <hdop>10.7</hdop>
      </trkpt>
      <trkpt lat="44.6194628" lon="3.2825251">
        <ele>865.9</ele>
        <time>2021-03-08T10:10:15Z</time>
        <hdop>10.7</hdop>
      </trkpt>
      <trkpt lat="44.6194812" lon="3.2825279">
        <ele>867.1</ele>
        <time>2021-03-08T10:10:46Z</time>
        <hdop>5.4</hdop>
      </trkpt>
      <trkpt lat="44.619416" lon="3.2826582">
        <ele>861.3</ele>
        <time>2021-03-08T10:11:17Z</time>
        <hdop>5.4</hdop>
      </trkpt>
      <trkpt lat="44.6193946" lon="3.2827671">
        <ele>859.4</ele>
        <time>2021-03-08T10:11:48Z</time>
        <hdop>5.4</hdop>
      </trkpt>
      <trkpt lat="44.6194132" lon="3.2827075">
        <ele>863.8</ele>
        <time>2021-03-08T10:12:18Z</time>
        <hdop>6.4</hdop>
      </trkpt>
      <trkpt lat="44.6193882" lon="3.2826737">
        <ele>866.6</ele>
        <time>2021-03-08T10:12:49Z</time>
        <hdop>5.4</hdop>
      </trkpt>
      <trkpt lat="44.6193445" lon="3.2825904">
        <ele>877.8</ele>
        <time>2021-03-08T10:13:19Z</time>
        <hdop>6.4</hdop>
      </trkpt>
      <trkpt lat="44.6192589" lon="3.2826793">
        <ele>875.1</ele>
        <time>2021-03-08T10:13:49Z</time>
        <hdop>4.3</hdop>
      </trkpt>
      <trkpt lat="44.6192657" lon="3.282812">
        <ele>879.2</ele>
        <time>2021-03-08T10:14:20Z</time>
        <hdop>4.3</hdop>
      </trkpt>
      <trkpt lat="44.6192092" lon="3.2828663">
        <ele>879.8</ele>
        <time>2021-03-08T10:14:50Z</time>
        <hdop>4.3</hdop>
      </trkpt>
      <trkpt lat="44.61917" lon="3.2828223">
        <ele>889.4</ele>
        <time>2021-03-08T10:15:21Z</time>
        <hdop>5.4</hdop>
      </trkpt>
      <trkpt lat="44.6191144" lon="3.2828545">
        <ele>893.9</ele>
        <time>2021-03-08T10:15:52Z</time>
        <hdop>5.4</hdop>
      </trkpt>
      <trkpt lat="44.6190751" lon="3.2828633">
        <ele>900.6</ele>
        <time>2021-03-08T10:16:22Z</time>
        <hdop>5.4</hdop>
      </trkpt>
      <trkpt lat="44.619052" lon="3.2830813">
        <ele>903.8</ele>
        <time>2021-03-08T10:16:52Z</time>
        <hdop>4.3</hdop>
      </trkpt>
      <trkpt lat="44.6190803" lon="3.2831963">
        <ele>906.8</ele>
        <time>2021-03-08T10:17:23Z</time>
        <hdop>9.6</hdop>
      </trkpt>
      <trkpt lat="44.6190375" lon="3.2833131">
        <ele>908.3</ele>
        <time>2021-03-08T10:17:53Z</time>
        <hdop>9.6</hdop>
      </trkpt>
      <trkpt lat="44.6189669" lon="3.2832921">
        <ele>911.5</ele>
        <time>2021-03-08T10:18:24Z</time>
        <hdop>3.2</hdop>
      </trkpt>
      <trkpt lat="44.6188319" lon="3.2831894">
        <ele>913.9</ele>
        <time>2021-03-08T10:18:54Z</time>
        <hdop>4.3</hdop>
      </trkpt>
      <trkpt lat="44.6187358" lon="3.2830449">
        <ele>918.6</ele>
        <time>2021-03-08T10:19:25Z</time>
        <hdop>4.3</hdop>
      </trkpt>
      <trkpt lat="44.618714" lon="3.2833338">
        <ele>927.2</ele>
        <time>2021-03-08T10:19:56Z</time>
        <hdop>9.6</hdop>
      </trkpt>
      <trkpt lat="44.6186051" lon="3.2835363">
        <ele>934.8</ele>
        <time>2021-03-08T10:20:26Z</time>
        <hdop>3.2</hdop>
      </trkpt>
      <trkpt lat="44.6185047" lon="3.2833396">
        <ele>935.2</ele>
        <time>2021-03-08T10:20:57Z</time>
        <hdop>5.4</hdop>
      </trkpt>
      <trkpt lat="44.6183879" lon="3.2833057">
        <ele>944.2</ele>
        <time>2021-03-08T10:21:27Z</time>
        <hdop>9.6</hdop>
      </trkpt>
      <trkpt lat="44.6182986" lon="3.2836461">
        <ele>957.1</ele>
        <time>2021-03-08T10:21:58Z</time>
        <hdop>9.6</hdop>
      </trkpt>
      <trkpt lat="44.6182025" lon="3.2836784">
        <ele>950.8</ele>
        <time>2021-03-08T10:22:28Z</time>
        <hdop>9.6</hdop>
      </trkpt>
      <trkpt lat="44.6180883" lon="3.2834446">
        <ele>946.1</ele>
        <time>2021-03-08T10:22:59Z</time>
        <hdop>3.2</hdop>
      </trkpt>
      <trkpt lat="44.6179948" lon="3.2835178">
        <ele>958.8</ele>
        <time>2021-03-08T10:23:29Z</time>
        <hdop>3.2</hdop>
      </trkpt>
      <trkpt lat="44.6179507" lon="3.2838989">
        <ele>965</ele>
        <time>2021-03-08T10:24:00Z</time>
        <hdop>3.2</hdop>
      </trkpt>
      <trkpt lat="44.6178084" lon="3.2837552">
        <ele>971</ele>
        <time>2021-03-08T10:24:31Z</time>
        <hdop>4.3</hdop>
      </trkpt>
      <trkpt lat="44.6176772" lon="3.2833922">
        <ele>972.4</ele>
        <time>2021-03-08T10:25:02Z</time>
        <hdop>3.2</hdop>
      </trkpt>
      <trkpt lat="44.6175958" lon="3.2830756">
        <ele>977.5</ele>
        <time>2021-03-08T10:25:32Z</time>
        <hdop>4.3</hdop>
      </trkpt>
      <trkpt lat="44.6174262" lon="3.2827859">
        <ele>983.9</ele>
        <time>2021-03-08T10:26:02Z</time>
        <hdop>3.2</hdop>
      </trkpt>
      <trkpt lat="44.6173679" lon="3.2831444">
        <ele>989.4</ele>
        <time>2021-03-08T10:26:32Z</time>
        <hdop>4.3</hdop>
      </trkpt>
      <trkpt lat="44.6172002" lon="3.2835498">
        <ele>987.7</ele>
        <time>2021-03-08T10:27:02Z</time>
        <hdop>4.3</hdop>
      </trkpt>
      <trkpt lat="44.6169687" lon="3.2836132">
        <ele>992.5</ele>
        <time>2021-03-08T10:27:33Z</time>
        <hdop>3.2</hdop>
      </trkpt>
      <trkpt lat="44.6168193" lon="3.2836319">
        <ele>994.7</ele>
        <time>2021-03-08T10:28:03Z</time>
        <hdop>4.3</hdop>
      </trkpt>
      <trkpt lat="44.6165618" lon="3.2835878">
        <ele>1000</ele>
        <time>2021-03-08T10:28:33Z</time>
        <hdop>4.3</hdop>
      </trkpt>
      <trkpt lat="44.6161741" lon="3.2834948">
        <ele>1008.1</ele>
        <time>2021-03-08T10:29:04Z</time>
        <hdop>3.2</hdop>
      </trkpt>
      <trkpt lat="44.6159253" lon="3.2833395">
        <ele>1008</ele>
        <time>2021-03-08T10:29:34Z</time>
        <hdop>3.2</hdop>
      </trkpt>
      <trkpt lat="44.615548" lon="3.2832645">
        <ele>1013.9</ele>
        <time>2021-03-08T10:30:04Z</time>
        <hdop>3.2</hdop>
      </trkpt>
      <trkpt lat="44.6153148" lon="3.2831049">
        <ele>1021.8</ele>
        <time>2021-03-08T10:30:35Z</time>
        <hdop>3.2</hdop>
      </trkpt>
      <trkpt lat="44.6149997" lon="3.2828976">
        <ele>1027.3</ele>
        <time>2021-03-08T10:31:06Z</time>
        <hdop>3.2</hdop>
      </trkpt>
      <trkpt lat="44.6146431" lon="3.2827406">
        <ele>1029.1</ele>
        <time>2021-03-08T10:31:37Z</time>
        <hdop>3.2</hdop>
      </trkpt>
      <trkpt lat="44.61442" lon="3.2825068">
        <ele>1036</ele>
        <time>2021-03-08T10:32:08Z</time>
        <hdop>3.2</hdop>
      </trkpt>
      <trkpt lat="44.6142116" lon="3.2821676">
        <ele>1033.3</ele>
        <time>2021-03-08T10:32:39Z</time>
        <hdop>3.2</hdop>
      </trkpt>
      <trkpt lat="44.6139748" lon="3.2817943">
        <ele>1036.1</ele>
        <time>2021-03-08T10:33:10Z</time>
        <hdop>4.3</hdop>
      </trkpt>
      <trkpt lat="44.613656" lon="3.281423">
        <ele>1044</ele>
        <time>2021-03-08T10:33:40Z</time>
        <hdop>5.4</hdop>
      </trkpt>
      <trkpt lat="44.6132458" lon="3.2813359">
        <ele>1048.1</ele>
        <time>2021-03-08T10:34:11Z</time>
        <hdop>5.4</hdop>
      </trkpt>
      <trkpt lat="44.6129034" lon="3.2814848">
        <ele>1053.4</ele>
        <time>2021-03-08T10:34:42Z</time>
        <hdop>4.3</hdop>
      </trkpt>
      <trkpt lat="44.6124572" lon="3.2816">
        <ele>1057.4</ele>
        <time>2021-03-08T10:35:12Z</time>
        <hdop>4.3</hdop>
      </trkpt>
      <trkpt lat="44.6121483" lon="3.2820847">
        <ele>1052.9</ele>
        <time>2021-03-08T10:35:42Z</time>
        <hdop>9.6</hdop>
      </trkpt>
      <trkpt lat="44.6118012" lon="3.2820783">
        <ele>1041.1</ele>
        <time>2021-03-08T10:36:12Z</time>
        <hdop>6.4</hdop>
      </trkpt>
      <trkpt lat="44.6113798" lon="3.282003">
        <ele>1036.9</ele>
        <time>2021-03-08T10:36:43Z</time>
        <hdop>8.6</hdop>
      </trkpt>
      <trkpt lat="44.6108764" lon="3.2819675">
        <ele>1033.4</ele>
        <time>2021-03-08T10:37:14Z</time>
        <hdop>5.4</hdop>
      </trkpt>
      <trkpt lat="44.6106836" lon="3.2824452">
        <ele>1033.2</ele>
        <time>2021-03-08T10:37:45Z</time>
        <hdop>5.4</hdop>
      </trkpt>
      <trkpt lat="44.6103746" lon="3.282552">
        <ele>1034.1</ele>
        <time>2021-03-08T10:38:15Z</time>
        <hdop>5.4</hdop>
      </trkpt>
      <trkpt lat="44.6100677" lon="3.2826522">
        <ele>1038.1</ele>
        <time>2021-03-08T10:38:45Z</time>
        <hdop>8.6</hdop>
      </trkpt>
      <trkpt lat="44.609792" lon="3.282932">
        <ele>1039.3</ele>
        <time>2021-03-08T10:39:16Z</time>
        <hdop>10.7</hdop>
      </trkpt>
      <trkpt lat="44.6094758" lon="3.2831754">
        <ele>1042.8</ele>
        <time>2021-03-08T10:39:47Z</time>
        <hdop>4.3</hdop>
      </trkpt>
      <trkpt lat="44.6092377" lon="3.2834375">
        <ele>1049.2</ele>
        <time>2021-03-08T10:40:18Z</time>
        <hdop>4.3</hdop>
      </trkpt>
      <trkpt lat="44.6089693" lon="3.2837973">
        <ele>1056.8</ele>
        <time>2021-03-08T10:40:48Z</time>
        <hdop>4.3</hdop>
      </trkpt>
      <trkpt lat="44.6086381" lon="3.2840931">
        <ele>1052</ele>
        <time>2021-03-08T10:41:19Z</time>
        <hdop>9.6</hdop>
      </trkpt>
      <trkpt lat="44.608375" lon="3.2844704">
        <ele>1055.4</ele>
        <time>2021-03-08T10:41:49Z</time>
        <hdop>3.2</hdop>
      </trkpt>
      <trkpt lat="44.6081925" lon="3.2846911">
        <ele>1057.5</ele>
        <time>2021-03-08T10:42:20Z</time>
        <hdop>3.2</hdop>
      </trkpt>
      <trkpt lat="44.6079025" lon="3.2847712">
        <ele>1058</ele>
        <time>2021-03-08T10:42:50Z</time>
        <hdop>3.2</hdop>
      </trkpt>
      <trkpt lat="44.6075408" lon="3.2849013">
        <ele>1055.7</ele>
        <time>2021-03-08T10:43:21Z</time>
        <hdop>3.2</hdop>
      </trkpt>
      <trkpt lat="44.6071697" lon="3.28495">
        <ele>1056.1</ele>
        <time>2021-03-08T10:43:51Z</time>
        <hdop>3.2</hdop>
      </trkpt>
      <trkpt lat="44.606744" lon="3.2850744">
        <ele>1061.7</ele>
        <time>2021-03-08T10:44:22Z</time>
        <hdop>3.2</hdop>
      </trkpt>
      <trkpt lat="44.6064084" lon="3.284963">
        <ele>1062.2</ele>
        <time>2021-03-08T10:44:52Z</time>
        <hdop>3.2</hdop>
      </trkpt>
      <trkpt lat="44.606452" lon="3.2851528">
        <ele>1064.3</ele>
        <time>2021-03-08T10:45:23Z</time>
        <hdop>3.2</hdop>
      </trkpt>
      <trkpt lat="44.6060832" lon="3.2852108">
        <ele>1068.8</ele>
        <time>2021-03-08T10:45:53Z</time>
        <hdop>3.2</hdop>
      </trkpt>
      <trkpt lat="44.6061243" lon="3.2849158">
        <ele>1074.5</ele>
        <time>2021-03-08T10:46:24Z</time>
        <hdop>3.2</hdop>
      </trkpt>
      <trkpt lat="44.6058349" lon="3.2847618">
        <ele>1069.4</ele>
        <time>2021-03-08T10:46:54Z</time>
        <hdop>3.2</hdop>
      </trkpt>
      <trkpt lat="44.605421" lon="3.2847415">
        <ele>1067.5</ele>
        <time>2021-03-08T10:47:25Z</time>
        <hdop>3.2</hdop>
      </trkpt>
      <trkpt lat="44.6050492" lon="3.2849593">
        <ele>1061.4</ele>
        <time>2021-03-08T10:47:56Z</time>
        <hdop>3.2</hdop>
      </trkpt>
      <trkpt lat="44.6046414" lon="3.2848174">
        <ele>1059</ele>
        <time>2021-03-08T10:48:27Z</time>
        <hdop>3.2</hdop>
      </trkpt>
      <trkpt lat="44.6043886" lon="3.2844076">
        <ele>1052.5</ele>
        <time>2021-03-08T10:48:58Z</time>
        <hdop>3.2</hdop>
      </trkpt>
      <trkpt lat="44.6042788" lon="3.2838625">
        <ele>1046</ele>
        <time>2021-03-08T10:49:28Z</time>
        <hdop>3.2</hdop>
      </trkpt>
      <trkpt lat="44.6039645" lon="3.2841162">
        <ele>1044.7</ele>
        <time>2021-03-08T10:49:58Z</time>
        <hdop>4.3</hdop>
      </trkpt>
      <trkpt lat="44.6035642" lon="3.2845545">
        <ele>1035</ele>
        <time>2021-03-08T10:50:28Z</time>
        <hdop>3.2</hdop>
      </trkpt>
      <trkpt lat="44.6032612" lon="3.2849966">
        <ele>1034.7</ele>
        <time>2021-03-08T10:50:59Z</time>
        <hdop>3.2</hdop>
      </trkpt>
      <trkpt lat="44.6030868" lon="3.2851717">
        <ele>1029.3</ele>
        <time>2021-03-08T10:53:34Z</time>
        <hdop>3.2</hdop>
      </trkpt>
      <trkpt lat="44.6027197" lon="3.2854588">
        <ele>1030.3</ele>
        <time>2021-03-08T10:54:05Z</time>
        <hdop>3.2</hdop>
      </trkpt>
      <trkpt lat="44.6022991" lon="3.2856856">
        <ele>1028.2</ele>
        <time>2021-03-08T10:54:36Z</time>
        <hdop>3.2</hdop>
      </trkpt>
      <trkpt lat="44.6019118" lon="3.2857039">
        <ele>1021.9</ele>
        <time>2021-03-08T10:55:06Z</time>
        <hdop>3.2</hdop>
      </trkpt>
      <trkpt lat="44.6017577" lon="3.2857104">
        <ele>1021.3</ele>
        <time>2021-03-08T10:55:37Z</time>
        <hdop>3.2</hdop>
      </trkpt>
      <trkpt lat="44.6013901" lon="3.2856738">
        <ele>1018.5</ele>
        <time>2021-03-08T10:56:07Z</time>
        <hdop>4.3</hdop>
      </trkpt>
      <trkpt lat="44.6009427" lon="3.285477">
        <ele>1013.5</ele>
        <time>2021-03-08T10:56:38Z</time>
        <hdop>3.2</hdop>
      </trkpt>
      <trkpt lat="44.6007314" lon="3.285274">
        <ele>1012.4</ele>
        <time>2021-03-08T10:59:32Z</time>
        <hdop>3.2</hdop>
      </trkpt>
      <trkpt lat="44.6005601" lon="3.2851236">
        <ele>1010.2</ele>
        <time>2021-03-08T11:00:02Z</time>
        <hdop>3.2</hdop>
      </trkpt>
      <trkpt lat="44.6002917" lon="3.2849776">
        <ele>1005.1</ele>
        <time>2021-03-08T11:00:33Z</time>
        <hdop>3.2</hdop>
      </trkpt>
      <trkpt lat="44.600211" lon="3.2848314">
        <ele>1001</ele>
        <time>2021-03-08T11:01:35Z</time>
        <hdop>3.2</hdop>
      </trkpt>
      <trkpt lat="44.5998806" lon="3.2851961">
        <ele>991.5</ele>
        <time>2021-03-08T11:02:05Z</time>
        <hdop>3.2</hdop>
      </trkpt>
      <trkpt lat="44.5995161" lon="3.2853739">
        <ele>986.2</ele>
        <time>2021-03-08T11:02:36Z</time>
        <hdop>3.2</hdop>
      </trkpt>
      <trkpt lat="44.5993578" lon="3.2857771">
        <ele>988.1</ele>
        <time>2021-03-08T11:03:07Z</time>
        <hdop>4.3</hdop>
      </trkpt>
      <trkpt lat="44.5992024" lon="3.2864171">
        <ele>978.7</ele>
        <time>2021-03-08T11:03:37Z</time>
        <hdop>7.5</hdop>
      </trkpt>
      <trkpt lat="44.599103" lon="3.287063">
        <ele>974.3</ele>
        <time>2021-03-08T11:04:07Z</time>
        <hdop>10.7</hdop>
      </trkpt>
      <trkpt lat="44.598999" lon="3.2876497">
        <ele>969.8</ele>
        <time>2021-03-08T11:04:38Z</time>
        <hdop>9.6</hdop>
      </trkpt>
      <trkpt lat="44.5988014" lon="3.2880859">
        <ele>966.6</ele>
        <time>2021-03-08T11:05:09Z</time>
        <hdop>9.6</hdop>
      </trkpt>
      <trkpt lat="44.5986144" lon="3.2886013">
        <ele>956.1</ele>
        <time>2021-03-08T11:05:40Z</time>
        <hdop>10.7</hdop>
      </trkpt>
      <trkpt lat="44.5985714" lon="3.2891299">
        <ele>944.7</ele>
        <time>2021-03-08T11:06:10Z</time>
        <hdop>10.7</hdop>
      </trkpt>
      <trkpt lat="44.5985511" lon="3.289739">
        <ele>935.9</ele>
        <time>2021-03-08T11:06:41Z</time>
        <hdop>9.6</hdop>
      </trkpt>
      <trkpt lat="44.5986022" lon="3.289951">
        <ele>935.2</ele>
        <time>2021-03-08T11:07:11Z</time>
        <hdop>3.2</hdop>
      </trkpt>
      <trkpt lat="44.5985706" lon="3.2904656">
        <ele>929.2</ele>
        <time>2021-03-08T11:07:42Z</time>
        <hdop>4.3</hdop>
      </trkpt>
      <trkpt lat="44.5985138" lon="3.290861">
        <ele>918.9</ele>
        <time>2021-03-08T11:08:12Z</time>
        <hdop>4.3</hdop>
      </trkpt>
      <trkpt lat="44.5982374" lon="3.2911049">
        <ele>910.6</ele>
        <time>2021-03-08T11:08:43Z</time>
        <hdop>4.3</hdop>
      </trkpt>
      <trkpt lat="44.5980669" lon="3.2914368">
        <ele>898</ele>
        <time>2021-03-08T11:09:13Z</time>
        <hdop>4.3</hdop>
      </trkpt>
      <trkpt lat="44.5977758" lon="3.2913221">
        <ele>891.9</ele>
        <time>2021-03-08T11:09:43Z</time>
        <hdop>6.4</hdop>
      </trkpt>
      <trkpt lat="44.5975345" lon="3.2912792">
        <ele>888.6</ele>
        <time>2021-03-08T11:10:14Z</time>
        <hdop>10.7</hdop>
      </trkpt>
      <trkpt lat="44.5972893" lon="3.2915274">
        <ele>890.2</ele>
        <time>2021-03-08T11:10:45Z</time>
        <hdop>10.7</hdop>
      </trkpt>
      <trkpt lat="44.597154" lon="3.2916882">
        <ele>868.6</ele>
        <time>2021-03-08T11:11:15Z</time>
        <hdop>7.5</hdop>
      </trkpt>
      <trkpt lat="44.597239" lon="3.2921326">
        <ele>855.4</ele>
        <time>2021-03-08T11:11:45Z</time>
        <hdop>5.4</hdop>
      </trkpt>
      <trkpt lat="44.5971528" lon="3.2925366">
        <ele>844.7</ele>
        <time>2021-03-08T11:12:16Z</time>
        <hdop>11.8</hdop>
      </trkpt>
      <trkpt lat="44.5971091" lon="3.2930351">
        <ele>844.4</ele>
        <time>2021-03-08T11:12:46Z</time>
        <hdop>11.8</hdop>
      </trkpt>
      <trkpt lat="44.5969808" lon="3.2937207">
        <ele>842.7</ele>
        <time>2021-03-08T11:13:17Z</time>
        <hdop>10.7</hdop>
      </trkpt>
      <trkpt lat="44.5967049" lon="3.294228">
        <ele>834.1</ele>
        <time>2021-03-08T11:13:48Z</time>
        <hdop>11.8</hdop>
      </trkpt>
      <trkpt lat="44.5965807" lon="3.2948502">
        <ele>832.3</ele>
        <time>2021-03-08T11:14:19Z</time>
        <hdop>4.3</hdop>
      </trkpt>
      <trkpt lat="44.5965688" lon="3.2954042">
        <ele>824.5</ele>
        <time>2021-03-08T11:14:50Z</time>
        <hdop>5.4</hdop>
      </trkpt>
      <trkpt lat="44.5964199" lon="3.2958007">
        <ele>813.4</ele>
        <time>2021-03-08T11:15:21Z</time>
        <hdop>3.2</hdop>
      </trkpt>
      <trkpt lat="44.596085" lon="3.2959906">
        <ele>807.1</ele>
        <time>2021-03-08T11:15:52Z</time>
        <hdop>6.4</hdop>
      </trkpt>
      <trkpt lat="44.5958382" lon="3.2962064">
        <ele>800.3</ele>
        <time>2021-03-08T11:16:23Z</time>
        <hdop>4.3</hdop>
      </trkpt>
      <trkpt lat="44.5955791" lon="3.296354">
        <ele>789.4</ele>
        <time>2021-03-08T11:16:54Z</time>
        <hdop>5.4</hdop>
      </trkpt>
      <trkpt lat="44.5952519" lon="3.2965122">
        <ele>779.9</ele>
        <time>2021-03-08T11:17:24Z</time>
        <hdop>6.4</hdop>
      </trkpt>
      <trkpt lat="44.5949918" lon="3.2966146">
        <ele>772.7</ele>
        <time>2021-03-08T11:17:55Z</time>
        <hdop>10.7</hdop>
      </trkpt>
      <trkpt lat="44.5946641" lon="3.2967861">
        <ele>760</ele>
        <time>2021-03-08T11:18:26Z</time>
        <hdop>4.3</hdop>
      </trkpt>
      <trkpt lat="44.5944079" lon="3.2971232">
        <ele>749.2</ele>
        <time>2021-03-08T11:18:57Z</time>
        <hdop>6.4</hdop>
      </trkpt>
      <trkpt lat="44.5941521" lon="3.2973426">
        <ele>743.9</ele>
        <time>2021-03-08T11:19:27Z</time>
        <hdop>11.8</hdop>
      </trkpt>
      <trkpt lat="44.5938328" lon="3.2977397">
        <ele>727.7</ele>
        <time>2021-03-08T11:19:58Z</time>
        <hdop>10.7</hdop>
      </trkpt>
      <trkpt lat="44.5935543" lon="3.2979876">
        <ele>726.8</ele>
        <time>2021-03-08T11:20:29Z</time>
        <hdop>11.8</hdop>
      </trkpt>
      <trkpt lat="44.5935464" lon="3.2983002">
        <ele>721.4</ele>
        <time>2021-03-08T11:21:00Z</time>
        <hdop>11.8</hdop>
      </trkpt>
      <trkpt lat="44.5938587" lon="3.2986008">
        <ele>713.6</ele>
        <time>2021-03-08T11:21:31Z</time>
        <hdop>9.6</hdop>
      </trkpt>
      <trkpt lat="44.5939435" lon="3.2988024">
        <ele>715.5</ele>
        <time>2021-03-08T11:22:32Z</time>
        <hdop>7.5</hdop>
      </trkpt>
      <trkpt lat="44.5940218" lon="3.2991368">
        <ele>717.5</ele>
        <time>2021-03-08T11:23:02Z</time>
        <hdop>6.4</hdop>
      </trkpt>
      <trkpt lat="44.5940022" lon="3.2997937">
        <ele>712</ele>
        <time>2021-03-08T11:23:33Z</time>
        <hdop>11.8</hdop>
      </trkpt>
      <trkpt lat="44.5938413" lon="3.3002663">
        <ele>712.3</ele>
        <time>2021-03-08T11:24:04Z</time>
        <hdop>10.7</hdop>
      </trkpt>
      <trkpt lat="44.5937124" lon="3.3008265">
        <ele>712.4</ele>
        <time>2021-03-08T11:24:35Z</time>
        <hdop>10.7</hdop>
      </trkpt>
    </trkseg>
  </trk>
</gpx>
