<?xml version='1.0' encoding='UTF-8'?>
<gpx version="1.1" creator="JOSM GPX export" xmlns="http://www.topografix.com/GPX/1/1"
    xmlns:xsi="http://www.w3.org/2001/XMLSchema-instance"
    xsi:schemaLocation="http://www.topografix.com/GPX/1/1 http://www.topografix.com/GPX/1/1/gpx.xsd">
  <metadata>
    <bounds minlat="45.1253902" minlon="2.7016854" maxlat="45.1379309" maxlon="2.7481339"/>
  </metadata>
  <trk>
    <trkseg>
      <trkpt lat="45.1379309" lon="2.7480976">
        <ele>1143.215</ele>
        <time>2020-12-05T08:39:36Z</time>
        <hdop>3.216</hdop>
      </trkpt>
      <trkpt lat="45.1378405" lon="2.7479512">
        <ele>1146.224</ele>
        <time>2020-12-05T08:40:37Z</time>
        <hdop>3.216</hdop>
      </trkpt>
      <trkpt lat="45.1375502" lon="2.7476974">
        <ele>1143.057</ele>
        <time>2020-12-05T08:41:08Z</time>
        <hdop>3.216</hdop>
      </trkpt>
      <trkpt lat="45.1372553" lon="2.7474391">
        <ele>1144.551</ele>
        <time>2020-12-05T08:41:38Z</time>
        <hdop>3.216</hdop>
      </trkpt>
      <trkpt lat="45.1369982" lon="2.7471501">
        <ele>1135.239</ele>
        <time>2020-12-05T08:42:08Z</time>
        <hdop>4.288</hdop>
      </trkpt>
      <trkpt lat="45.1367456" lon="2.7469419">
        <ele>1136.605</ele>
        <time>2020-12-05T08:42:38Z</time>
        <hdop>4.288</hdop>
      </trkpt>
      <trkpt lat="45.1366289" lon="2.746939">
        <ele>1138.263</ele>
        <time>2020-12-05T08:43:09Z</time>
        <hdop>4.288</hdop>
      </trkpt>
      <trkpt lat="45.1363455" lon="2.7466916">
        <ele>1130.3</ele>
        <time>2020-12-05T08:43:40Z</time>
        <hdop>5.36</hdop>
      </trkpt>
      <trkpt lat="45.1359451" lon="2.7466177">
        <ele>1129.361</ele>
        <time>2020-12-05T08:44:10Z</time>
        <hdop>4.288</hdop>
      </trkpt>
      <trkpt lat="45.1355729" lon="2.74648">
        <ele>1131.845</ele>
        <time>2020-12-05T08:44:41Z</time>
        <hdop>3.216</hdop>
      </trkpt>
      <trkpt lat="45.1352475" lon="2.7462433">
        <ele>1129.359</ele>
        <time>2020-12-05T08:45:11Z</time>
        <hdop>3.216</hdop>
      </trkpt>
      <trkpt lat="45.1348539" lon="2.745982">
        <ele>1121.83</ele>
        <time>2020-12-05T08:45:42Z</time>
        <hdop>3.216</hdop>
      </trkpt>
      <trkpt lat="45.1346064" lon="2.7456511">
        <ele>1120.463</ele>
        <time>2020-12-05T08:46:12Z</time>
        <hdop>3.216</hdop>
      </trkpt>
      <trkpt lat="45.134481" lon="2.7451976">
        <ele>1127.066</ele>
        <time>2020-12-05T08:46:43Z</time>
        <hdop>3.216</hdop>
      </trkpt>
      <trkpt lat="45.13442" lon="2.7447645">
        <ele>1122.812</ele>
        <time>2020-12-05T08:47:13Z</time>
        <hdop>3.216</hdop>
      </trkpt>
      <trkpt lat="45.1342332" lon="2.7444442">
        <ele>1124.862</ele>
        <time>2020-12-05T08:47:44Z</time>
        <hdop>4.288</hdop>
      </trkpt>
      <trkpt lat="45.1340615" lon="2.7441439">
        <ele>1130.847</ele>
        <time>2020-12-05T08:48:14Z</time>
        <hdop>4.288</hdop>
      </trkpt>
      <trkpt lat="45.1339337" lon="2.7438573">
        <ele>1135.668</ele>
        <time>2020-12-05T08:48:45Z</time>
        <hdop>3.216</hdop>
      </trkpt>
      <trkpt lat="45.133806" lon="2.7435596">
        <ele>1139.232</ele>
        <time>2020-12-05T08:49:15Z</time>
        <hdop>3.216</hdop>
      </trkpt>
      <trkpt lat="45.1337534" lon="2.7434082">
        <ele>1145.26</ele>
        <time>2020-12-05T08:51:18Z</time>
        <hdop>4.288</hdop>
      </trkpt>
      <trkpt lat="45.1336218" lon="2.7430472">
        <ele>1144.267</ele>
        <time>2020-12-05T08:52:19Z</time>
        <hdop>4.288</hdop>
      </trkpt>
      <trkpt lat="45.1335077" lon="2.7427716">
        <ele>1150.009</ele>
        <time>2020-12-05T08:52:50Z</time>
        <hdop>3.216</hdop>
      </trkpt>
      <trkpt lat="45.1333731" lon="2.7425382">
        <ele>1157.445</ele>
        <time>2020-12-05T08:53:21Z</time>
        <hdop>3.216</hdop>
      </trkpt>
      <trkpt lat="45.1331705" lon="2.7423136">
        <ele>1159.264</ele>
        <time>2020-12-05T08:53:51Z</time>
        <hdop>3.216</hdop>
      </trkpt>
      <trkpt lat="45.1330277" lon="2.7420835">
        <ele>1159.398</ele>
        <time>2020-12-05T08:54:21Z</time>
        <hdop>3.216</hdop>
      </trkpt>
      <trkpt lat="45.1328996" lon="2.7417826">
        <ele>1162.916</ele>
        <time>2020-12-05T08:54:52Z</time>
        <hdop>3.216</hdop>
      </trkpt>
      <trkpt lat="45.1327961" lon="2.7414725">
        <ele>1159.77</ele>
        <time>2020-12-05T08:55:23Z</time>
        <hdop>3.216</hdop>
      </trkpt>
      <trkpt lat="45.1326287" lon="2.7411341">
        <ele>1160.484</ele>
        <time>2020-12-05T08:55:53Z</time>
        <hdop>3.216</hdop>
      </trkpt>
      <trkpt lat="45.1323969" lon="2.7410373">
        <ele>1163.161</ele>
        <time>2020-12-05T08:56:24Z</time>
        <hdop>3.216</hdop>
      </trkpt>
      <trkpt lat="45.132164" lon="2.7409319">
        <ele>1169.174</ele>
        <time>2020-12-05T08:56:54Z</time>
        <hdop>4.288</hdop>
      </trkpt>
      <trkpt lat="45.1319614" lon="2.7407704">
        <ele>1176.107</ele>
        <time>2020-12-05T08:57:25Z</time>
        <hdop>3.216</hdop>
      </trkpt>
      <trkpt lat="45.1317576" lon="2.7405908">
        <ele>1176.773</ele>
        <time>2020-12-05T08:57:56Z</time>
        <hdop>3.216</hdop>
      </trkpt>
      <trkpt lat="45.1315311" lon="2.740482">
        <ele>1175.986</ele>
        <time>2020-12-05T08:58:27Z</time>
        <hdop>3.216</hdop>
      </trkpt>
      <trkpt lat="45.131691" lon="2.7403468">
        <ele>1179.524</ele>
        <time>2020-12-05T08:58:57Z</time>
        <hdop>3.216</hdop>
      </trkpt>
      <trkpt lat="45.1318695" lon="2.7400964">
        <ele>1177.48</ele>
        <time>2020-12-05T08:59:28Z</time>
        <hdop>3.216</hdop>
      </trkpt>
      <trkpt lat="45.1319915" lon="2.7399706">
        <ele>1180.268</ele>
        <time>2020-12-05T08:59:58Z</time>
        <hdop>3.216</hdop>
      </trkpt>
      <trkpt lat="45.1321223" lon="2.7397872">
        <ele>1176.059</ele>
        <time>2020-12-05T09:00:29Z</time>
        <hdop>3.216</hdop>
      </trkpt>
      <trkpt lat="45.1322149" lon="2.7395227">
        <ele>1181.316</ele>
        <time>2020-12-05T09:01:00Z</time>
        <hdop>5.36</hdop>
      </trkpt>
      <trkpt lat="45.1322756" lon="2.7392017">
        <ele>1181.882</ele>
        <time>2020-12-05T09:01:31Z</time>
        <hdop>5.36</hdop>
      </trkpt>
      <trkpt lat="45.1323958" lon="2.7389123">
        <ele>1187.496</ele>
        <time>2020-12-05T09:02:01Z</time>
        <hdop>4.288</hdop>
      </trkpt>
      <trkpt lat="45.132471" lon="2.73859">
        <ele>1183.393</ele>
        <time>2020-12-05T09:02:31Z</time>
        <hdop>4.288</hdop>
      </trkpt>
      <trkpt lat="45.1326247" lon="2.7382759">
        <ele>1182.493</ele>
        <time>2020-12-05T09:03:02Z</time>
        <hdop>4.288</hdop>
      </trkpt>
      <trkpt lat="45.1327678" lon="2.7379399">
        <ele>1173.564</ele>
        <time>2020-12-05T09:03:33Z</time>
        <hdop>4.288</hdop>
      </trkpt>
      <trkpt lat="45.1328762" lon="2.7376491">
        <ele>1180.523</ele>
        <time>2020-12-05T09:04:04Z</time>
        <hdop>3.216</hdop>
      </trkpt>
      <trkpt lat="45.1329885" lon="2.7372877">
        <ele>1182.107</ele>
        <time>2020-12-05T09:04:35Z</time>
        <hdop>5.36</hdop>
      </trkpt>
      <trkpt lat="45.1329619" lon="2.7369092">
        <ele>1175.504</ele>
        <time>2020-12-05T09:05:06Z</time>
        <hdop>8.576</hdop>
      </trkpt>
      <trkpt lat="45.1330251" lon="2.7366382">
        <ele>1179.331</ele>
        <time>2020-12-05T09:05:36Z</time>
        <hdop>4.288</hdop>
      </trkpt>
      <trkpt lat="45.133058" lon="2.7362758">
        <ele>1180.214</ele>
        <time>2020-12-05T09:06:06Z</time>
        <hdop>3.216</hdop>
      </trkpt>
      <trkpt lat="45.1330528" lon="2.7359165">
        <ele>1178.776</ele>
        <time>2020-12-05T09:06:36Z</time>
        <hdop>4.288</hdop>
      </trkpt>
      <trkpt lat="45.1330374" lon="2.7356574">
        <ele>1178.296</ele>
        <time>2020-12-05T09:07:07Z</time>
        <hdop>4.288</hdop>
      </trkpt>
      <trkpt lat="45.1331141" lon="2.7352744">
        <ele>1186.31</ele>
        <time>2020-12-05T09:07:37Z</time>
        <hdop>9.648</hdop>
      </trkpt>
      <trkpt lat="45.1329755" lon="2.7349787">
        <ele>1178.863</ele>
        <time>2020-12-05T09:08:08Z</time>
        <hdop>9.648</hdop>
      </trkpt>
      <trkpt lat="45.1328839" lon="2.7347108">
        <ele>1173.335</ele>
        <time>2020-12-05T09:08:39Z</time>
        <hdop>3.216</hdop>
      </trkpt>
      <trkpt lat="45.1328558" lon="2.7344914">
        <ele>1175.847</ele>
        <time>2020-12-05T09:09:09Z</time>
        <hdop>3.216</hdop>
      </trkpt>
      <trkpt lat="45.1328331" lon="2.7342284">
        <ele>1179.769</ele>
        <time>2020-12-05T09:09:39Z</time>
        <hdop>3.216</hdop>
      </trkpt>
      <trkpt lat="45.1328085" lon="2.7339622">
        <ele>1180.738</ele>
        <time>2020-12-05T09:10:10Z</time>
        <hdop>3.216</hdop>
      </trkpt>
      <trkpt lat="45.1327608" lon="2.733756">
        <ele>1183.005</ele>
        <time>2020-12-05T09:10:41Z</time>
        <hdop>3.216</hdop>
      </trkpt>
      <trkpt lat="45.132726" lon="2.7335003">
        <ele>1186.443</ele>
        <time>2020-12-05T09:11:11Z</time>
        <hdop>3.216</hdop>
      </trkpt>
      <trkpt lat="45.1326394" lon="2.7332196">
        <ele>1189.637</ele>
        <time>2020-12-05T09:11:42Z</time>
        <hdop>3.216</hdop>
      </trkpt>
      <trkpt lat="45.1326003" lon="2.7329513">
        <ele>1186.335</ele>
        <time>2020-12-05T09:12:12Z</time>
        <hdop>3.216</hdop>
      </trkpt>
      <trkpt lat="45.1326028" lon="2.7326411">
        <ele>1185.916</ele>
        <time>2020-12-05T09:12:43Z</time>
        <hdop>3.216</hdop>
      </trkpt>
      <trkpt lat="45.1325212" lon="2.7323894">
        <ele>1186.251</ele>
        <time>2020-12-05T09:13:13Z</time>
        <hdop>3.216</hdop>
      </trkpt>
      <trkpt lat="45.1324435" lon="2.7321198">
        <ele>1190.879</ele>
        <time>2020-12-05T09:13:44Z</time>
        <hdop>3.216</hdop>
      </trkpt>
      <trkpt lat="45.1323539" lon="2.7318813">
        <ele>1189.701</ele>
        <time>2020-12-05T09:14:14Z</time>
        <hdop>3.216</hdop>
      </trkpt>
      <trkpt lat="45.1322594" lon="2.7316807">
        <ele>1190.325</ele>
        <time>2020-12-05T09:14:45Z</time>
        <hdop>3.216</hdop>
      </trkpt>
      <trkpt lat="45.1321687" lon="2.7314811">
        <ele>1190.755</ele>
        <time>2020-12-05T09:15:15Z</time>
        <hdop>4.288</hdop>
      </trkpt>
      <trkpt lat="45.1320674" lon="2.7312406">
        <ele>1194.345</ele>
        <time>2020-12-05T09:15:45Z</time>
        <hdop>4.288</hdop>
      </trkpt>
      <trkpt lat="45.1318958" lon="2.7309267">
        <ele>1187.022</ele>
        <time>2020-12-05T09:16:16Z</time>
        <hdop>5.36</hdop>
      </trkpt>
      <trkpt lat="45.131731" lon="2.7306558">
        <ele>1185.737</ele>
        <time>2020-12-05T09:16:47Z</time>
        <hdop>9.648</hdop>
      </trkpt>
      <trkpt lat="45.1316176" lon="2.7303932">
        <ele>1187.492</ele>
        <time>2020-12-05T09:17:18Z</time>
        <hdop>9.648</hdop>
      </trkpt>
      <trkpt lat="45.131522" lon="2.730103">
        <ele>1193.424</ele>
        <time>2020-12-05T09:17:49Z</time>
        <hdop>3.216</hdop>
      </trkpt>
      <trkpt lat="45.1314863" lon="2.7298473">
        <ele>1194.493</ele>
        <time>2020-12-05T09:18:19Z</time>
        <hdop>3.216</hdop>
      </trkpt>
      <trkpt lat="45.1313783" lon="2.7296321">
        <ele>1198.195</ele>
        <time>2020-12-05T09:18:50Z</time>
        <hdop>5.36</hdop>
      </trkpt>
      <trkpt lat="45.1312488" lon="2.7293896">
        <ele>1199.74</ele>
        <time>2020-12-05T09:19:20Z</time>
        <hdop>4.288</hdop>
      </trkpt>
      <trkpt lat="45.1312215" lon="2.7291343">
        <ele>1204.502</ele>
        <time>2020-12-05T09:19:50Z</time>
        <hdop>3.216</hdop>
      </trkpt>
      <trkpt lat="45.1311945" lon="2.7288972">
        <ele>1207.771</ele>
        <time>2020-12-05T09:20:20Z</time>
        <hdop>3.216</hdop>
      </trkpt>
      <trkpt lat="45.1312265" lon="2.7286592">
        <ele>1205.223</ele>
        <time>2020-12-05T09:20:51Z</time>
        <hdop>3.216</hdop>
      </trkpt>
      <trkpt lat="45.1313956" lon="2.7285457">
        <ele>1204.684</ele>
        <time>2020-12-05T09:21:21Z</time>
        <hdop>3.216</hdop>
      </trkpt>
      <trkpt lat="45.1315608" lon="2.7283812">
        <ele>1204.214</ele>
        <time>2020-12-05T09:21:52Z</time>
        <hdop>3.216</hdop>
      </trkpt>
      <trkpt lat="45.1316547" lon="2.7281706">
        <ele>1205.63</ele>
        <time>2020-12-05T09:22:22Z</time>
        <hdop>3.216</hdop>
      </trkpt>
      <trkpt lat="45.1316068" lon="2.7279155">
        <ele>1203.997</ele>
        <time>2020-12-05T09:22:53Z</time>
        <hdop>3.216</hdop>
      </trkpt>
      <trkpt lat="45.1315" lon="2.7277144">
        <ele>1210.395</ele>
        <time>2020-12-05T09:23:23Z</time>
        <hdop>3.216</hdop>
      </trkpt>
      <trkpt lat="45.1315397" lon="2.7275621">
        <ele>1213.11</ele>
        <time>2020-12-05T09:23:54Z</time>
        <hdop>3.216</hdop>
      </trkpt>
      <trkpt lat="45.1314997" lon="2.7273285">
        <ele>1216.665</ele>
        <time>2020-12-05T09:24:24Z</time>
        <hdop>3.216</hdop>
      </trkpt>
      <trkpt lat="45.131421" lon="2.7270361">
        <ele>1216.49</ele>
        <time>2020-12-05T09:24:55Z</time>
        <hdop>4.288</hdop>
      </trkpt>
      <trkpt lat="45.1314284" lon="2.726796">
        <ele>1212.387</ele>
        <time>2020-12-05T09:25:25Z</time>
        <hdop>5.36</hdop>
      </trkpt>
      <trkpt lat="45.1314152" lon="2.7265561">
        <ele>1214.679</ele>
        <time>2020-12-05T09:25:56Z</time>
        <hdop>3.216</hdop>
      </trkpt>
      <trkpt lat="45.1314245" lon="2.7263651">
        <ele>1210.618</ele>
        <time>2020-12-05T09:26:26Z</time>
        <hdop>3.216</hdop>
      </trkpt>
      <trkpt lat="45.1315777" lon="2.7261262">
        <ele>1206.097</ele>
        <time>2020-12-05T09:26:57Z</time>
        <hdop>3.216</hdop>
      </trkpt>
      <trkpt lat="45.1315678" lon="2.7259444">
        <ele>1205.612</ele>
        <time>2020-12-05T09:27:28Z</time>
        <hdop>3.216</hdop>
      </trkpt>
      <trkpt lat="45.1315564" lon="2.7257412">
        <ele>1201.925</ele>
        <time>2020-12-05T09:27:58Z</time>
        <hdop>4.288</hdop>
      </trkpt>
      <trkpt lat="45.1315706" lon="2.7254294">
        <ele>1202.37</ele>
        <time>2020-12-05T09:28:29Z</time>
        <hdop>3.216</hdop>
      </trkpt>
      <trkpt lat="45.1315513" lon="2.7251691">
        <ele>1199.569</ele>
        <time>2020-12-05T09:29:00Z</time>
        <hdop>3.216</hdop>
      </trkpt>
      <trkpt lat="45.1316204" lon="2.7248481">
        <ele>1200.184</ele>
        <time>2020-12-05T09:29:30Z</time>
        <hdop>5.36</hdop>
      </trkpt>
      <trkpt lat="45.1316183" lon="2.7246736">
        <ele>1199.402</ele>
        <time>2020-12-05T09:30:01Z</time>
        <hdop>3.216</hdop>
      </trkpt>
      <trkpt lat="45.1316305" lon="2.7243214">
        <ele>1195.636</ele>
        <time>2020-12-05T09:30:32Z</time>
        <hdop>3.216</hdop>
      </trkpt>
      <trkpt lat="45.1315078" lon="2.7239811">
        <ele>1190.359</ele>
        <time>2020-12-05T09:31:02Z</time>
        <hdop>3.216</hdop>
      </trkpt>
      <trkpt lat="45.1313196" lon="2.7237096">
        <ele>1185.954</ele>
        <time>2020-12-05T09:31:32Z</time>
        <hdop>3.216</hdop>
      </trkpt>
      <trkpt lat="45.1314307" lon="2.7235637">
        <ele>1182.37</ele>
        <time>2020-12-05T09:32:03Z</time>
        <hdop>3.216</hdop>
      </trkpt>
      <trkpt lat="45.1314304" lon="2.7233019">
        <ele>1184.724</ele>
        <time>2020-12-05T09:32:33Z</time>
        <hdop>3.216</hdop>
      </trkpt>
      <trkpt lat="45.1314744" lon="2.7230436">
        <ele>1184.506</ele>
        <time>2020-12-05T09:33:03Z</time>
        <hdop>3.216</hdop>
      </trkpt>
      <trkpt lat="45.1314936" lon="2.7229648">
        <ele>1181.23</ele>
        <time>2020-12-05T09:33:34Z</time>
        <hdop>3.216</hdop>
      </trkpt>
      <trkpt lat="45.1316217" lon="2.7230995">
        <ele>1186.093</ele>
        <time>2020-12-05T09:34:05Z</time>
        <hdop>3.216</hdop>
      </trkpt>
      <trkpt lat="45.1316877" lon="2.7232201">
        <ele>1187.501</ele>
        <time>2020-12-05T09:34:36Z</time>
        <hdop>3.216</hdop>
      </trkpt>
      <trkpt lat="45.1317609" lon="2.7234081">
        <ele>1189.078</ele>
        <time>2020-12-05T09:35:07Z</time>
        <hdop>4.288</hdop>
      </trkpt>
      <trkpt lat="45.1318125" lon="2.7234797">
        <ele>1189.275</ele>
        <time>2020-12-05T09:35:38Z</time>
        <hdop>4.288</hdop>
      </trkpt>
      <trkpt lat="45.1318898" lon="2.7236538">
        <ele>1188.425</ele>
        <time>2020-12-05T09:36:09Z</time>
        <hdop>4.288</hdop>
      </trkpt>
      <trkpt lat="45.1320005" lon="2.7238204">
        <ele>1196.859</ele>
        <time>2020-12-05T09:36:40Z</time>
        <hdop>4.288</hdop>
      </trkpt>
      <trkpt lat="45.1321301" lon="2.7239845">
        <ele>1197.052</ele>
        <time>2020-12-05T09:37:10Z</time>
        <hdop>5.36</hdop>
      </trkpt>
      <trkpt lat="45.1322001" lon="2.7240881">
        <ele>1201.225</ele>
        <time>2020-12-05T09:37:40Z</time>
        <hdop>4.288</hdop>
      </trkpt>
      <trkpt lat="45.1323194" lon="2.7241478">
        <ele>1208.479</ele>
        <time>2020-12-05T09:38:10Z</time>
        <hdop>3.216</hdop>
      </trkpt>
      <trkpt lat="45.1324618" lon="2.7240825">
        <ele>1208.554</ele>
        <time>2020-12-05T09:38:40Z</time>
        <hdop>3.216</hdop>
      </trkpt>
      <trkpt lat="45.1325912" lon="2.7239917">
        <ele>1212.385</ele>
        <time>2020-12-05T09:39:11Z</time>
        <hdop>3.216</hdop>
      </trkpt>
      <trkpt lat="45.1325952" lon="2.7237756">
        <ele>1213.777</ele>
        <time>2020-12-05T09:39:42Z</time>
        <hdop>3.216</hdop>
      </trkpt>
      <trkpt lat="45.1326033" lon="2.7236806">
        <ele>1216.485</ele>
        <time>2020-12-05T09:40:12Z</time>
        <hdop>3.216</hdop>
      </trkpt>
      <trkpt lat="45.1325624" lon="2.7234373">
        <ele>1220.571</ele>
        <time>2020-12-05T09:40:43Z</time>
        <hdop>3.216</hdop>
      </trkpt>
      <trkpt lat="45.1325691" lon="2.7231315">
        <ele>1214.771</ele>
        <time>2020-12-05T09:41:14Z</time>
        <hdop>3.216</hdop>
      </trkpt>
      <trkpt lat="45.1323898" lon="2.7229148">
        <ele>1217.25</ele>
        <time>2020-12-05T09:41:45Z</time>
        <hdop>3.216</hdop>
      </trkpt>
      <trkpt lat="45.1323506" lon="2.7227117">
        <ele>1217.258</ele>
        <time>2020-12-05T09:42:16Z</time>
        <hdop>3.216</hdop>
      </trkpt>
      <trkpt lat="45.1322668" lon="2.7224488">
        <ele>1217.669</ele>
        <time>2020-12-05T09:42:46Z</time>
        <hdop>3.216</hdop>
      </trkpt>
      <trkpt lat="45.1322584" lon="2.722189">
        <ele>1219.731</ele>
        <time>2020-12-05T09:43:17Z</time>
        <hdop>3.216</hdop>
      </trkpt>
      <trkpt lat="45.1322352" lon="2.7221163">
        <ele>1220.928</ele>
        <time>2020-12-05T09:43:48Z</time>
        <hdop>3.216</hdop>
      </trkpt>
      <trkpt lat="45.1322016" lon="2.721945">
        <ele>1220.12</ele>
        <time>2020-12-05T09:44:18Z</time>
        <hdop>3.216</hdop>
      </trkpt>
      <trkpt lat="45.1321639" lon="2.7216631">
        <ele>1220.006</ele>
        <time>2020-12-05T09:44:49Z</time>
        <hdop>3.216</hdop>
      </trkpt>
      <trkpt lat="45.132206" lon="2.7214025">
        <ele>1224.11</ele>
        <time>2020-12-05T09:45:19Z</time>
        <hdop>3.216</hdop>
      </trkpt>
      <trkpt lat="45.1321988" lon="2.7212018">
        <ele>1225.036</ele>
        <time>2020-12-05T09:45:49Z</time>
        <hdop>3.216</hdop>
      </trkpt>
      <trkpt lat="45.1321643" lon="2.7209598">
        <ele>1219.048</ele>
        <time>2020-12-05T09:46:20Z</time>
        <hdop>3.216</hdop>
      </trkpt>
      <trkpt lat="45.1321174" lon="2.7206011">
        <ele>1221.285</ele>
        <time>2020-12-05T09:48:53Z</time>
        <hdop>3.216</hdop>
      </trkpt>
      <trkpt lat="45.1321197" lon="2.7204149">
        <ele>1223.916</ele>
        <time>2020-12-05T09:49:23Z</time>
        <hdop>3.216</hdop>
      </trkpt>
      <trkpt lat="45.1321585" lon="2.7201982">
        <ele>1224.739</ele>
        <time>2020-12-05T09:49:53Z</time>
        <hdop>3.216</hdop>
      </trkpt>
      <trkpt lat="45.1321274" lon="2.7200007">
        <ele>1231.387</ele>
        <time>2020-12-05T09:50:23Z</time>
        <hdop>3.216</hdop>
      </trkpt>
      <trkpt lat="45.1320299" lon="2.7197893">
        <ele>1229.724</ele>
        <time>2020-12-05T09:50:54Z</time>
        <hdop>4.288</hdop>
      </trkpt>
      <trkpt lat="45.1319263" lon="2.7195363">
        <ele>1227.138</ele>
        <time>2020-12-05T09:51:25Z</time>
        <hdop>3.216</hdop>
      </trkpt>
      <trkpt lat="45.1317922" lon="2.7193424">
        <ele>1224.845</ele>
        <time>2020-12-05T09:51:56Z</time>
        <hdop>3.216</hdop>
      </trkpt>
      <trkpt lat="45.1317729" lon="2.7191244">
        <ele>1231.204</ele>
        <time>2020-12-05T09:52:26Z</time>
        <hdop>3.216</hdop>
      </trkpt>
      <trkpt lat="45.1317538" lon="2.7188586">
        <ele>1234.213</ele>
        <time>2020-12-05T09:52:56Z</time>
        <hdop>3.216</hdop>
      </trkpt>
      <trkpt lat="45.1316529" lon="2.718604">
        <ele>1231.353</ele>
        <time>2020-12-05T09:53:27Z</time>
        <hdop>3.216</hdop>
      </trkpt>
      <trkpt lat="45.1315322" lon="2.7184166">
        <ele>1234.01</ele>
        <time>2020-12-05T09:53:58Z</time>
        <hdop>3.216</hdop>
      </trkpt>
      <trkpt lat="45.1314462" lon="2.7181851">
        <ele>1226.899</ele>
        <time>2020-12-05T09:54:29Z</time>
        <hdop>3.216</hdop>
      </trkpt>
      <trkpt lat="45.1313193" lon="2.7179206">
        <ele>1229.808</ele>
        <time>2020-12-05T09:54:59Z</time>
        <hdop>3.216</hdop>
      </trkpt>
      <trkpt lat="45.1312197" lon="2.7177535">
        <ele>1225.323</ele>
        <time>2020-12-05T09:55:30Z</time>
        <hdop>3.216</hdop>
      </trkpt>
      <trkpt lat="45.131187" lon="2.7175738">
        <ele>1232.946</ele>
        <time>2020-12-05T09:56:00Z</time>
        <hdop>3.216</hdop>
      </trkpt>
      <trkpt lat="45.131037" lon="2.7173741">
        <ele>1228.344</ele>
        <time>2020-12-05T09:56:31Z</time>
        <hdop>3.216</hdop>
      </trkpt>
      <trkpt lat="45.1309457" lon="2.7171555">
        <ele>1232.281</ele>
        <time>2020-12-05T09:57:02Z</time>
        <hdop>3.216</hdop>
      </trkpt>
      <trkpt lat="45.1307971" lon="2.7169743">
        <ele>1226.345</ele>
        <time>2020-12-05T09:57:33Z</time>
        <hdop>3.216</hdop>
      </trkpt>
      <trkpt lat="45.1307241" lon="2.7167237">
        <ele>1232.854</ele>
        <time>2020-12-05T09:58:03Z</time>
        <hdop>3.216</hdop>
      </trkpt>
      <trkpt lat="45.1305803" lon="2.7165429">
        <ele>1235.363</ele>
        <time>2020-12-05T09:58:33Z</time>
        <hdop>3.216</hdop>
      </trkpt>
      <trkpt lat="45.1305541" lon="2.7163239">
        <ele>1231.93</ele>
        <time>2020-12-05T09:59:03Z</time>
        <hdop>4.288</hdop>
      </trkpt>
      <trkpt lat="45.1304698" lon="2.7161438">
        <ele>1236.688</ele>
        <time>2020-12-05T09:59:34Z</time>
        <hdop>4.288</hdop>
      </trkpt>
      <trkpt lat="45.1303958" lon="2.7159737">
        <ele>1235.777</ele>
        <time>2020-12-05T10:00:04Z</time>
        <hdop>5.36</hdop>
      </trkpt>
      <trkpt lat="45.1303426" lon="2.715795">
        <ele>1237.957</ele>
        <time>2020-12-05T10:00:35Z</time>
        <hdop>3.216</hdop>
      </trkpt>
      <trkpt lat="45.1302345" lon="2.7156405">
        <ele>1233.438</ele>
        <time>2020-12-05T10:01:05Z</time>
        <hdop>4.288</hdop>
      </trkpt>
      <trkpt lat="45.130123" lon="2.715432">
        <ele>1234.243</ele>
        <time>2020-12-05T10:01:35Z</time>
        <hdop>3.216</hdop>
      </trkpt>
      <trkpt lat="45.1301003" lon="2.7151847">
        <ele>1236.458</ele>
        <time>2020-12-05T10:02:05Z</time>
        <hdop>4.288</hdop>
      </trkpt>
      <trkpt lat="45.130103" lon="2.7150098">
        <ele>1238.746</ele>
        <time>2020-12-05T10:02:36Z</time>
        <hdop>4.288</hdop>
      </trkpt>
      <trkpt lat="45.1301091" lon="2.714799">
        <ele>1240.7</ele>
        <time>2020-12-05T10:03:07Z</time>
        <hdop>3.216</hdop>
      </trkpt>
      <trkpt lat="45.1301491" lon="2.7146442">
        <ele>1236.616</ele>
        <time>2020-12-05T10:03:37Z</time>
        <hdop>3.216</hdop>
      </trkpt>
      <trkpt lat="45.1301453" lon="2.714505">
        <ele>1239.915</ele>
        <time>2020-12-05T10:04:08Z</time>
        <hdop>3.216</hdop>
      </trkpt>
      <trkpt lat="45.130079" lon="2.7143827">
        <ele>1241.693</ele>
        <time>2020-12-05T10:04:38Z</time>
        <hdop>3.216</hdop>
      </trkpt>
      <trkpt lat="45.1299835" lon="2.7142616">
        <ele>1244.59</ele>
        <time>2020-12-05T10:05:09Z</time>
        <hdop>3.216</hdop>
      </trkpt>
      <trkpt lat="45.1299541" lon="2.7142284">
        <ele>1240.855</ele>
        <time>2020-12-05T10:05:40Z</time>
        <hdop>3.216</hdop>
      </trkpt>
      <trkpt lat="45.1299211" lon="2.7141068">
        <ele>1239.559</ele>
        <time>2020-12-05T10:06:10Z</time>
        <hdop>3.216</hdop>
      </trkpt>
      <trkpt lat="45.1298937" lon="2.713865">
        <ele>1236.039</ele>
        <time>2020-12-05T10:06:40Z</time>
        <hdop>4.288</hdop>
      </trkpt>
      <trkpt lat="45.1298209" lon="2.7137185">
        <ele>1239.322</ele>
        <time>2020-12-05T10:07:11Z</time>
        <hdop>6.432</hdop>
      </trkpt>
      <trkpt lat="45.1297896" lon="2.7136203">
        <ele>1243.841</ele>
        <time>2020-12-05T10:09:14Z</time>
        <hdop>3.216</hdop>
      </trkpt>
      <trkpt lat="45.129792" lon="2.7133989">
        <ele>1236.321</ele>
        <time>2020-12-05T10:09:45Z</time>
        <hdop>3.216</hdop>
      </trkpt>
      <trkpt lat="45.129719" lon="2.7131645">
        <ele>1242.261</ele>
        <time>2020-12-05T10:10:16Z</time>
        <hdop>3.216</hdop>
      </trkpt>
      <trkpt lat="45.1296482" lon="2.7128969">
        <ele>1242.02</ele>
        <time>2020-12-05T10:10:46Z</time>
        <hdop>3.216</hdop>
      </trkpt>
      <trkpt lat="45.1295403" lon="2.7126728">
        <ele>1240.172</ele>
        <time>2020-12-05T10:11:17Z</time>
        <hdop>4.288</hdop>
      </trkpt>
      <trkpt lat="45.1295614" lon="2.7125489">
        <ele>1241.351</ele>
        <time>2020-12-05T10:11:48Z</time>
        <hdop>3.216</hdop>
      </trkpt>
      <trkpt lat="45.1295805" lon="2.712389">
        <ele>1244.88</ele>
        <time>2020-12-05T10:12:18Z</time>
        <hdop>4.288</hdop>
      </trkpt>
      <trkpt lat="45.1296712" lon="2.712194">
        <ele>1247.047</ele>
        <time>2020-12-05T10:12:48Z</time>
        <hdop>3.216</hdop>
      </trkpt>
      <trkpt lat="45.1297618" lon="2.7119727">
        <ele>1251.068</ele>
        <time>2020-12-05T10:13:18Z</time>
        <hdop>3.216</hdop>
      </trkpt>
      <trkpt lat="45.1298128" lon="2.711859">
        <ele>1252.795</ele>
        <time>2020-12-05T10:13:49Z</time>
        <hdop>3.216</hdop>
      </trkpt>
      <trkpt lat="45.1298644" lon="2.7117334">
        <ele>1254.836</ele>
        <time>2020-12-05T10:14:19Z</time>
        <hdop>4.288</hdop>
      </trkpt>
      <trkpt lat="45.1298906" lon="2.7115667">
        <ele>1258.245</ele>
        <time>2020-12-05T10:14:49Z</time>
        <hdop>4.288</hdop>
      </trkpt>
      <trkpt lat="45.1299424" lon="2.7114822">
        <ele>1261.233</ele>
        <time>2020-12-05T10:15:20Z</time>
        <hdop>3.216</hdop>
      </trkpt>
      <trkpt lat="45.1299847" lon="2.7112808">
        <ele>1258.769</ele>
        <time>2020-12-05T10:15:50Z</time>
        <hdop>3.216</hdop>
      </trkpt>
      <trkpt lat="45.1299275" lon="2.7111207">
        <ele>1259.307</ele>
        <time>2020-12-05T10:16:21Z</time>
        <hdop>3.216</hdop>
      </trkpt>
      <trkpt lat="45.1299192" lon="2.7109257">
        <ele>1259.475</ele>
        <time>2020-12-05T10:16:51Z</time>
        <hdop>3.216</hdop>
      </trkpt>
      <trkpt lat="45.1299389" lon="2.710788">
        <ele>1261.393</ele>
        <time>2020-12-05T10:17:22Z</time>
        <hdop>3.216</hdop>
      </trkpt>
      <trkpt lat="45.1299888" lon="2.7106671">
        <ele>1259.621</ele>
        <time>2020-12-05T10:17:52Z</time>
        <hdop>3.216</hdop>
      </trkpt>
      <trkpt lat="45.1300245" lon="2.710515">
        <ele>1261.37</ele>
        <time>2020-12-05T10:18:23Z</time>
        <hdop>3.216</hdop>
      </trkpt>
      <trkpt lat="45.130041" lon="2.7104239">
        <ele>1266.213</ele>
        <time>2020-12-05T10:18:53Z</time>
        <hdop>3.216</hdop>
      </trkpt>
      <trkpt lat="45.1300043" lon="2.7103623">
        <ele>1265.086</ele>
        <time>2020-12-05T10:19:24Z</time>
        <hdop>3.216</hdop>
      </trkpt>
      <trkpt lat="45.1300021" lon="2.7102281">
        <ele>1265.568</ele>
        <time>2020-12-05T10:19:54Z</time>
        <hdop>3.216</hdop>
      </trkpt>
      <trkpt lat="45.1300156" lon="2.7101099">
        <ele>1270.283</ele>
        <time>2020-12-05T10:20:25Z</time>
        <hdop>3.216</hdop>
      </trkpt>
      <trkpt lat="45.1300266" lon="2.7100227">
        <ele>1269.372</ele>
        <time>2020-12-05T10:20:55Z</time>
        <hdop>3.216</hdop>
      </trkpt>
      <trkpt lat="45.1300801" lon="2.7098969">
        <ele>1271.599</ele>
        <time>2020-12-05T10:21:26Z</time>
        <hdop>3.216</hdop>
      </trkpt>
      <trkpt lat="45.1300934" lon="2.7097442">
        <ele>1273.029</ele>
        <time>2020-12-05T10:21:57Z</time>
        <hdop>3.216</hdop>
      </trkpt>
      <trkpt lat="45.1300871" lon="2.7096971">
        <ele>1276.144</ele>
        <time>2020-12-05T10:22:28Z</time>
        <hdop>3.216</hdop>
      </trkpt>
      <trkpt lat="45.1300964" lon="2.7095068">
        <ele>1277.507</ele>
        <time>2020-12-05T10:22:59Z</time>
        <hdop>3.216</hdop>
      </trkpt>
      <trkpt lat="45.1301293" lon="2.7094205">
        <ele>1279.141</ele>
        <time>2020-12-05T10:23:29Z</time>
        <hdop>3.216</hdop>
      </trkpt>
      <trkpt lat="45.1301994" lon="2.7092702">
        <ele>1282.551</ele>
        <time>2020-12-05T10:23:59Z</time>
        <hdop>3.216</hdop>
      </trkpt>
      <trkpt lat="45.1302294" lon="2.709133">
        <ele>1282.625</ele>
        <time>2020-12-05T10:24:29Z</time>
        <hdop>3.216</hdop>
      </trkpt>
      <trkpt lat="45.1302622" lon="2.7090327">
        <ele>1285.13</ele>
        <time>2020-12-05T10:24:59Z</time>
        <hdop>3.216</hdop>
      </trkpt>
      <trkpt lat="45.1302839" lon="2.7089836">
        <ele>1285.493</ele>
        <time>2020-12-05T10:25:30Z</time>
        <hdop>3.216</hdop>
      </trkpt>
      <trkpt lat="45.1302886" lon="2.7088268">
        <ele>1284.542</ele>
        <time>2020-12-05T10:26:01Z</time>
        <hdop>3.216</hdop>
      </trkpt>
      <trkpt lat="45.1303052" lon="2.7087285">
        <ele>1287.207</ele>
        <time>2020-12-05T10:26:32Z</time>
        <hdop>3.216</hdop>
      </trkpt>
      <trkpt lat="45.1304589" lon="2.7087363">
        <ele>1282.478</ele>
        <time>2020-12-05T10:46:42Z</time>
        <hdop>6.432</hdop>
      </trkpt>
      <trkpt lat="45.1305386" lon="2.7087844">
        <ele>1283.601</ele>
        <time>2020-12-05T10:47:13Z</time>
        <hdop>8.576</hdop>
      </trkpt>
      <trkpt lat="45.130652" lon="2.708887">
        <ele>1287.45</ele>
        <time>2020-12-05T10:47:43Z</time>
        <hdop>6.432</hdop>
      </trkpt>
      <trkpt lat="45.1307114" lon="2.7089888">
        <ele>1285.043</ele>
        <time>2020-12-05T10:48:14Z</time>
        <hdop>8.576</hdop>
      </trkpt>
      <trkpt lat="45.1307731" lon="2.7091507">
        <ele>1284.857</ele>
        <time>2020-12-05T10:48:44Z</time>
        <hdop>8.576</hdop>
      </trkpt>
      <trkpt lat="45.1308482" lon="2.7092522">
        <ele>1284.986</ele>
        <time>2020-12-05T10:49:14Z</time>
        <hdop>5.36</hdop>
      </trkpt>
      <trkpt lat="45.1309583" lon="2.7093377">
        <ele>1289.931</ele>
        <time>2020-12-05T10:49:45Z</time>
        <hdop>5.36</hdop>
      </trkpt>
      <trkpt lat="45.1311737" lon="2.7094861">
        <ele>1294.845</ele>
        <time>2020-12-05T10:50:47Z</time>
        <hdop>6.432</hdop>
      </trkpt>
      <trkpt lat="45.1312631" lon="2.7095706">
        <ele>1298.942</ele>
        <time>2020-12-05T10:51:17Z</time>
        <hdop>7.504</hdop>
      </trkpt>
      <trkpt lat="45.1313914" lon="2.709703">
        <ele>1305.665</ele>
        <time>2020-12-05T10:51:48Z</time>
        <hdop>7.504</hdop>
      </trkpt>
      <trkpt lat="45.1315174" lon="2.7099416">
        <ele>1308.502</ele>
        <time>2020-12-05T10:52:49Z</time>
        <hdop>6.432</hdop>
      </trkpt>
      <trkpt lat="45.1315816" lon="2.7100642">
        <ele>1307.85</ele>
        <time>2020-12-05T10:53:20Z</time>
        <hdop>7.504</hdop>
      </trkpt>
      <trkpt lat="45.1316397" lon="2.7102898">
        <ele>1312.179</ele>
        <time>2020-12-05T10:53:50Z</time>
        <hdop>7.504</hdop>
      </trkpt>
      <trkpt lat="45.131725" lon="2.7104657">
        <ele>1312.517</ele>
        <time>2020-12-05T10:54:21Z</time>
        <hdop>9.648</hdop>
      </trkpt>
      <trkpt lat="45.1318506" lon="2.7105737">
        <ele>1316.131</ele>
        <time>2020-12-05T10:54:52Z</time>
        <hdop>8.576</hdop>
      </trkpt>
      <trkpt lat="45.1319698" lon="2.7107074">
        <ele>1320.704</ele>
        <time>2020-12-05T10:55:23Z</time>
        <hdop>5.36</hdop>
      </trkpt>
      <trkpt lat="45.1320606" lon="2.7108232">
        <ele>1325.776</ele>
        <time>2020-12-05T10:55:53Z</time>
        <hdop>7.504</hdop>
      </trkpt>
      <trkpt lat="45.132143" lon="2.7109651">
        <ele>1329.378</ele>
        <time>2020-12-05T10:56:24Z</time>
        <hdop>4.288</hdop>
      </trkpt>
      <trkpt lat="45.1321967" lon="2.7111495">
        <ele>1320.138</ele>
        <time>2020-12-05T10:56:54Z</time>
        <hdop>3.216</hdop>
      </trkpt>
      <trkpt lat="45.1323309" lon="2.711493">
        <ele>1333.22</ele>
        <time>2020-12-05T10:57:56Z</time>
        <hdop>4.288</hdop>
      </trkpt>
      <trkpt lat="45.1323906" lon="2.7116739">
        <ele>1331.312</ele>
        <time>2020-12-05T10:58:27Z</time>
        <hdop>3.216</hdop>
      </trkpt>
      <trkpt lat="45.1324553" lon="2.7116452">
        <ele>1330.341</ele>
        <time>2020-12-05T10:58:58Z</time>
        <hdop>3.216</hdop>
      </trkpt>
      <trkpt lat="45.1324257" lon="2.7113613">
        <ele>1329.588</ele>
        <time>2020-12-05T10:59:29Z</time>
        <hdop>3.216</hdop>
      </trkpt>
      <trkpt lat="45.1324593" lon="2.7110976">
        <ele>1336.438</ele>
        <time>2020-12-05T10:59:59Z</time>
        <hdop>3.216</hdop>
      </trkpt>
      <trkpt lat="45.1324644" lon="2.7108077">
        <ele>1341.24</ele>
        <time>2020-12-05T11:00:30Z</time>
        <hdop>3.216</hdop>
      </trkpt>
      <trkpt lat="45.1324678" lon="2.7105619">
        <ele>1343.587</ele>
        <time>2020-12-05T11:01:00Z</time>
        <hdop>3.216</hdop>
      </trkpt>
      <trkpt lat="45.1324733" lon="2.7104205">
        <ele>1338.67</ele>
        <time>2020-12-05T11:01:31Z</time>
        <hdop>3.216</hdop>
      </trkpt>
      <trkpt lat="45.1324096" lon="2.7101046">
        <ele>1340.396</ele>
        <time>2020-12-05T11:02:02Z</time>
        <hdop>3.216</hdop>
      </trkpt>
      <trkpt lat="45.1323485" lon="2.7097896">
        <ele>1342.268</ele>
        <time>2020-12-05T11:02:33Z</time>
        <hdop>3.216</hdop>
      </trkpt>
      <trkpt lat="45.1322769" lon="2.7095306">
        <ele>1339.752</ele>
        <time>2020-12-05T11:03:03Z</time>
        <hdop>3.216</hdop>
      </trkpt>
      <trkpt lat="45.1322364" lon="2.709218">
        <ele>1342.979</ele>
        <time>2020-12-05T11:03:34Z</time>
        <hdop>3.216</hdop>
      </trkpt>
      <trkpt lat="45.1322314" lon="2.7088715">
        <ele>1346.408</ele>
        <time>2020-12-05T11:04:05Z</time>
        <hdop>3.216</hdop>
      </trkpt>
      <trkpt lat="45.1321581" lon="2.7085629">
        <ele>1348.047</ele>
        <time>2020-12-05T11:04:36Z</time>
        <hdop>3.216</hdop>
      </trkpt>
      <trkpt lat="45.1321334" lon="2.7082535">
        <ele>1346.911</ele>
        <time>2020-12-05T11:05:06Z</time>
        <hdop>3.216</hdop>
      </trkpt>
      <trkpt lat="45.1320895" lon="2.7081316">
        <ele>1349.265</ele>
        <time>2020-12-05T11:05:37Z</time>
        <hdop>3.216</hdop>
      </trkpt>
      <trkpt lat="45.1320238" lon="2.7077674">
        <ele>1348.436</ele>
        <time>2020-12-05T11:07:08Z</time>
        <hdop>3.216</hdop>
      </trkpt>
      <trkpt lat="45.131894" lon="2.7073125">
        <ele>1352.809</ele>
        <time>2020-12-05T11:07:39Z</time>
        <hdop>3.216</hdop>
      </trkpt>
      <trkpt lat="45.1317593" lon="2.7068825">
        <ele>1354.556</ele>
        <time>2020-12-05T11:08:09Z</time>
        <hdop>3.216</hdop>
      </trkpt>
      <trkpt lat="45.1317158" lon="2.7067323">
        <ele>1350.583</ele>
        <time>2020-12-05T11:08:40Z</time>
        <hdop>3.216</hdop>
      </trkpt>
      <trkpt lat="45.1315962" lon="2.7063223">
        <ele>1354.843</ele>
        <time>2020-12-05T11:09:11Z</time>
        <hdop>3.216</hdop>
      </trkpt>
      <trkpt lat="45.131491" lon="2.7059566">
        <ele>1355.886</ele>
        <time>2020-12-05T11:09:41Z</time>
        <hdop>3.216</hdop>
      </trkpt>
      <trkpt lat="45.1313915" lon="2.7055945">
        <ele>1359.196</ele>
        <time>2020-12-05T11:10:12Z</time>
        <hdop>3.216</hdop>
      </trkpt>
      <trkpt lat="45.1313473" lon="2.7052876">
        <ele>1361.844</ele>
        <time>2020-12-05T11:10:43Z</time>
        <hdop>3.216</hdop>
      </trkpt>
      <trkpt lat="45.1312406" lon="2.7049214">
        <ele>1365.768</ele>
        <time>2020-12-05T11:11:14Z</time>
        <hdop>3.216</hdop>
      </trkpt>
      <trkpt lat="45.1311315" lon="2.7045713">
        <ele>1368.668</ele>
        <time>2020-12-05T11:11:44Z</time>
        <hdop>3.216</hdop>
      </trkpt>
      <trkpt lat="45.1309945" lon="2.7041994">
        <ele>1370.044</ele>
        <time>2020-12-05T11:12:15Z</time>
        <hdop>3.216</hdop>
      </trkpt>
      <trkpt lat="45.1307849" lon="2.7039118">
        <ele>1367.449</ele>
        <time>2020-12-05T11:12:46Z</time>
        <hdop>3.216</hdop>
      </trkpt>
      <trkpt lat="45.1305725" lon="2.7036488">
        <ele>1370.783</ele>
        <time>2020-12-05T11:13:16Z</time>
        <hdop>3.216</hdop>
      </trkpt>
      <trkpt lat="45.1304393" lon="2.7032607">
        <ele>1374.311</ele>
        <time>2020-12-05T11:13:47Z</time>
        <hdop>3.216</hdop>
      </trkpt>
      <trkpt lat="45.13038" lon="2.7028471">
        <ele>1380.06</ele>
        <time>2020-12-05T11:14:18Z</time>
        <hdop>3.216</hdop>
      </trkpt>
      <trkpt lat="45.1304988" lon="2.7024771">
        <ele>1379.249</ele>
        <time>2020-12-05T11:14:49Z</time>
        <hdop>3.216</hdop>
      </trkpt>
      <trkpt lat="45.1306425" lon="2.7022659">
        <ele>1385.557</ele>
        <time>2020-12-05T11:16:50Z</time>
        <hdop>3.216</hdop>
      </trkpt>
      <trkpt lat="45.1308804" lon="2.702221">
        <ele>1384</ele>
        <time>2020-12-05T11:17:21Z</time>
        <hdop>3.216</hdop>
      </trkpt>
      <trkpt lat="45.1308937" lon="2.7021035">
        <ele>1392.646</ele>
        <time>2020-12-05T12:06:31Z</time>
        <hdop>4.288</hdop>
      </trkpt>
      <trkpt lat="45.1307866" lon="2.7021586">
        <ele>1384.677</ele>
        <time>2020-12-05T12:07:02Z</time>
        <hdop>3.216</hdop>
      </trkpt>
      <trkpt lat="45.1306104" lon="2.7021729">
        <ele>1386.61</ele>
        <time>2020-12-05T12:07:32Z</time>
        <hdop>4.288</hdop>
      </trkpt>
      <trkpt lat="45.130485" lon="2.7023394">
        <ele>1386.092</ele>
        <time>2020-12-05T12:08:02Z</time>
        <hdop>3.216</hdop>
      </trkpt>
      <trkpt lat="45.130235" lon="2.702307">
        <ele>1387.715</ele>
        <time>2020-12-05T12:08:33Z</time>
        <hdop>3.216</hdop>
      </trkpt>
      <trkpt lat="45.1299548" lon="2.7021632">
        <ele>1392.333</ele>
        <time>2020-12-05T12:09:03Z</time>
        <hdop>3.216</hdop>
      </trkpt>
      <trkpt lat="45.1296562" lon="2.7024012">
        <ele>1384.871</ele>
        <time>2020-12-05T12:09:34Z</time>
        <hdop>3.216</hdop>
      </trkpt>
      <trkpt lat="45.1294517" lon="2.7023431">
        <ele>1385.182</ele>
        <time>2020-12-05T12:10:05Z</time>
        <hdop>3.216</hdop>
      </trkpt>
      <trkpt lat="45.1291749" lon="2.7022405">
        <ele>1381.976</ele>
        <time>2020-12-05T12:10:35Z</time>
        <hdop>4.288</hdop>
      </trkpt>
      <trkpt lat="45.128895" lon="2.701959">
        <ele>1379.671</ele>
        <time>2020-12-05T12:11:06Z</time>
        <hdop>3.216</hdop>
      </trkpt>
      <trkpt lat="45.1285837" lon="2.7017847">
        <ele>1386.7</ele>
        <time>2020-12-05T12:11:37Z</time>
        <hdop>3.216</hdop>
      </trkpt>
      <trkpt lat="45.1282493" lon="2.7016854">
        <ele>1382.554</ele>
        <time>2020-12-05T12:12:07Z</time>
        <hdop>3.216</hdop>
      </trkpt>
      <trkpt lat="45.1280248" lon="2.7017889">
        <ele>1380.727</ele>
        <time>2020-12-05T12:12:37Z</time>
        <hdop>3.216</hdop>
      </trkpt>
      <trkpt lat="45.1281733" lon="2.7019344">
        <ele>1378.119</ele>
        <time>2020-12-05T12:13:08Z</time>
        <hdop>3.216</hdop>
      </trkpt>
      <trkpt lat="45.1284654" lon="2.7020038">
        <ele>1375.316</ele>
        <time>2020-12-05T12:13:39Z</time>
        <hdop>4.288</hdop>
      </trkpt>
      <trkpt lat="45.1287181" lon="2.7021285">
        <ele>1376.413</ele>
        <time>2020-12-05T12:14:10Z</time>
        <hdop>3.216</hdop>
      </trkpt>
      <trkpt lat="45.1287611" lon="2.7022324">
        <ele>1378.604</ele>
        <time>2020-12-05T12:14:40Z</time>
        <hdop>3.216</hdop>
      </trkpt>
      <trkpt lat="45.1288603" lon="2.7023632">
        <ele>1378.249</ele>
        <time>2020-12-05T12:15:10Z</time>
        <hdop>3.216</hdop>
      </trkpt>
      <trkpt lat="45.1290795" lon="2.7025855">
        <ele>1377.148</ele>
        <time>2020-12-05T12:15:41Z</time>
        <hdop>3.216</hdop>
      </trkpt>
      <trkpt lat="45.129348" lon="2.7027302">
        <ele>1377.433</ele>
        <time>2020-12-05T12:16:12Z</time>
        <hdop>3.216</hdop>
      </trkpt>
      <trkpt lat="45.1296485" lon="2.7028568">
        <ele>1371.406</ele>
        <time>2020-12-05T12:16:43Z</time>
        <hdop>5.36</hdop>
      </trkpt>
      <trkpt lat="45.1298279" lon="2.703072">
        <ele>1373.608</ele>
        <time>2020-12-05T12:17:13Z</time>
        <hdop>3.216</hdop>
      </trkpt>
      <trkpt lat="45.1299757" lon="2.7033565">
        <ele>1373.649</ele>
        <time>2020-12-05T12:17:43Z</time>
        <hdop>3.216</hdop>
      </trkpt>
      <trkpt lat="45.1300849" lon="2.7037239">
        <ele>1375.568</ele>
        <time>2020-12-05T12:18:14Z</time>
        <hdop>3.216</hdop>
      </trkpt>
      <trkpt lat="45.130303" lon="2.703923">
        <ele>1370.469</ele>
        <time>2020-12-05T12:18:45Z</time>
        <hdop>4.288</hdop>
      </trkpt>
      <trkpt lat="45.1305444" lon="2.7040495">
        <ele>1367.836</ele>
        <time>2020-12-05T12:19:16Z</time>
        <hdop>3.216</hdop>
      </trkpt>
      <trkpt lat="45.130723" lon="2.7043007">
        <ele>1367.127</ele>
        <time>2020-12-05T12:19:46Z</time>
        <hdop>3.216</hdop>
      </trkpt>
      <trkpt lat="45.1308107" lon="2.7045679">
        <ele>1371.891</ele>
        <time>2020-12-05T12:20:17Z</time>
        <hdop>4.288</hdop>
      </trkpt>
      <trkpt lat="45.1309432" lon="2.7048063">
        <ele>1371.27</ele>
        <time>2020-12-05T12:20:47Z</time>
        <hdop>3.216</hdop>
      </trkpt>
      <trkpt lat="45.1310537" lon="2.7050761">
        <ele>1370.438</ele>
        <time>2020-12-05T12:21:18Z</time>
        <hdop>3.216</hdop>
      </trkpt>
      <trkpt lat="45.1311747" lon="2.7053885">
        <ele>1366.968</ele>
        <time>2020-12-05T12:21:48Z</time>
        <hdop>3.216</hdop>
      </trkpt>
      <trkpt lat="45.1312342" lon="2.7057205">
        <ele>1364.402</ele>
        <time>2020-12-05T12:22:19Z</time>
        <hdop>3.216</hdop>
      </trkpt>
      <trkpt lat="45.1313288" lon="2.7060298">
        <ele>1365.573</ele>
        <time>2020-12-05T12:22:50Z</time>
        <hdop>3.216</hdop>
      </trkpt>
      <trkpt lat="45.1314377" lon="2.7063007">
        <ele>1369.487</ele>
        <time>2020-12-05T12:23:20Z</time>
        <hdop>3.216</hdop>
      </trkpt>
      <trkpt lat="45.1315929" lon="2.7065006">
        <ele>1365.834</ele>
        <time>2020-12-05T12:23:51Z</time>
        <hdop>4.288</hdop>
      </trkpt>
      <trkpt lat="45.131715" lon="2.7069007">
        <ele>1365.264</ele>
        <time>2020-12-05T12:25:22Z</time>
        <hdop>3.216</hdop>
      </trkpt>
      <trkpt lat="45.1318106" lon="2.7072952">
        <ele>1363.945</ele>
        <time>2020-12-05T12:25:53Z</time>
        <hdop>3.216</hdop>
      </trkpt>
      <trkpt lat="45.1319245" lon="2.7077546">
        <ele>1358.347</ele>
        <time>2020-12-05T12:26:23Z</time>
        <hdop>3.216</hdop>
      </trkpt>
      <trkpt lat="45.132045" lon="2.7082076">
        <ele>1357.402</ele>
        <time>2020-12-05T12:26:54Z</time>
        <hdop>3.216</hdop>
      </trkpt>
      <trkpt lat="45.1321621" lon="2.7087011">
        <ele>1350.787</ele>
        <time>2020-12-05T12:27:25Z</time>
        <hdop>3.216</hdop>
      </trkpt>
      <trkpt lat="45.1322253" lon="2.7091972">
        <ele>1346.18</ele>
        <time>2020-12-05T12:27:56Z</time>
        <hdop>3.216</hdop>
      </trkpt>
      <trkpt lat="45.1322691" lon="2.7097127">
        <ele>1347.905</ele>
        <time>2020-12-05T12:28:27Z</time>
        <hdop>3.216</hdop>
      </trkpt>
      <trkpt lat="45.1323772" lon="2.7101825">
        <ele>1342.607</ele>
        <time>2020-12-05T12:28:58Z</time>
        <hdop>3.216</hdop>
      </trkpt>
      <trkpt lat="45.1324046" lon="2.7106808">
        <ele>1342.124</ele>
        <time>2020-12-05T12:29:28Z</time>
        <hdop>3.216</hdop>
      </trkpt>
      <trkpt lat="45.1323877" lon="2.7111956">
        <ele>1339.142</ele>
        <time>2020-12-05T12:29:59Z</time>
        <hdop>3.216</hdop>
      </trkpt>
      <trkpt lat="45.132399" lon="2.7117249">
        <ele>1337.324</ele>
        <time>2020-12-05T12:30:29Z</time>
        <hdop>3.216</hdop>
      </trkpt>
      <trkpt lat="45.1323312" lon="2.7114767">
        <ele>1333.135</ele>
        <time>2020-12-05T12:35:05Z</time>
        <hdop>3.216</hdop>
      </trkpt>
      <trkpt lat="45.132214" lon="2.7111424">
        <ele>1331.713</ele>
        <time>2020-12-05T12:35:36Z</time>
        <hdop>3.216</hdop>
      </trkpt>
      <trkpt lat="45.1321443" lon="2.7108512">
        <ele>1325.17</ele>
        <time>2020-12-05T12:36:07Z</time>
        <hdop>3.216</hdop>
      </trkpt>
      <trkpt lat="45.1319465" lon="2.7106013">
        <ele>1321.708</ele>
        <time>2020-12-05T12:36:37Z</time>
        <hdop>3.216</hdop>
      </trkpt>
      <trkpt lat="45.1318115" lon="2.7102862">
        <ele>1322.5</ele>
        <time>2020-12-05T12:37:08Z</time>
        <hdop>3.216</hdop>
      </trkpt>
      <trkpt lat="45.1316451" lon="2.7100583">
        <ele>1316.295</ele>
        <time>2020-12-05T12:37:39Z</time>
        <hdop>3.216</hdop>
      </trkpt>
      <trkpt lat="45.1315092" lon="2.7097754">
        <ele>1310.647</ele>
        <time>2020-12-05T12:38:09Z</time>
        <hdop>3.216</hdop>
      </trkpt>
      <trkpt lat="45.1313363" lon="2.7095476">
        <ele>1311.518</ele>
        <time>2020-12-05T12:38:40Z</time>
        <hdop>3.216</hdop>
      </trkpt>
      <trkpt lat="45.1311009" lon="2.7093599">
        <ele>1303.585</ele>
        <time>2020-12-05T12:39:11Z</time>
        <hdop>3.216</hdop>
      </trkpt>
      <trkpt lat="45.130905" lon="2.7091815">
        <ele>1300.455</ele>
        <time>2020-12-05T12:39:41Z</time>
        <hdop>3.216</hdop>
      </trkpt>
      <trkpt lat="45.1307168" lon="2.7089545">
        <ele>1294.708</ele>
        <time>2020-12-05T12:40:12Z</time>
        <hdop>3.216</hdop>
      </trkpt>
      <trkpt lat="45.1305593" lon="2.7087627">
        <ele>1291.01</ele>
        <time>2020-12-05T12:40:42Z</time>
        <hdop>3.216</hdop>
      </trkpt>
      <trkpt lat="45.1302677" lon="2.7086207">
        <ele>1295.3</ele>
        <time>2020-12-05T12:41:13Z</time>
        <hdop>3.216</hdop>
      </trkpt>
      <trkpt lat="45.1302464" lon="2.7089899">
        <ele>1288.03</ele>
        <time>2020-12-05T12:41:44Z</time>
        <hdop>3.216</hdop>
      </trkpt>
      <trkpt lat="45.1301489" lon="2.7093179">
        <ele>1279.429</ele>
        <time>2020-12-05T12:42:15Z</time>
        <hdop>3.216</hdop>
      </trkpt>
      <trkpt lat="45.1301099" lon="2.7095997">
        <ele>1273.983</ele>
        <time>2020-12-05T12:42:46Z</time>
        <hdop>3.216</hdop>
      </trkpt>
      <trkpt lat="45.1300533" lon="2.7099573">
        <ele>1269.494</ele>
        <time>2020-12-05T12:43:17Z</time>
        <hdop>3.216</hdop>
      </trkpt>
      <trkpt lat="45.1299766" lon="2.7103032">
        <ele>1271.595</ele>
        <time>2020-12-05T12:43:48Z</time>
        <hdop>3.216</hdop>
      </trkpt>
      <trkpt lat="45.1299448" lon="2.7106574">
        <ele>1264.601</ele>
        <time>2020-12-05T12:44:19Z</time>
        <hdop>3.216</hdop>
      </trkpt>
      <trkpt lat="45.129908" lon="2.7110034">
        <ele>1259.94</ele>
        <time>2020-12-05T12:44:49Z</time>
        <hdop>3.216</hdop>
      </trkpt>
      <trkpt lat="45.1299262" lon="2.7113127">
        <ele>1261.484</ele>
        <time>2020-12-05T12:45:19Z</time>
        <hdop>3.216</hdop>
      </trkpt>
      <trkpt lat="45.1298221" lon="2.7115781">
        <ele>1259.802</ele>
        <time>2020-12-05T12:45:49Z</time>
        <hdop>3.216</hdop>
      </trkpt>
      <trkpt lat="45.1297211" lon="2.7118959">
        <ele>1255.964</ele>
        <time>2020-12-05T12:46:20Z</time>
        <hdop>3.216</hdop>
      </trkpt>
      <trkpt lat="45.1295685" lon="2.7122065">
        <ele>1248.299</ele>
        <time>2020-12-05T12:46:50Z</time>
        <hdop>3.216</hdop>
      </trkpt>
      <trkpt lat="45.1295013" lon="2.7125509">
        <ele>1244.548</ele>
        <time>2020-12-05T12:47:21Z</time>
        <hdop>3.216</hdop>
      </trkpt>
      <trkpt lat="45.1295645" lon="2.7128256">
        <ele>1241.044</ele>
        <time>2020-12-05T12:47:51Z</time>
        <hdop>3.216</hdop>
      </trkpt>
      <trkpt lat="45.1296331" lon="2.7130417">
        <ele>1237.415</ele>
        <time>2020-12-05T12:48:22Z</time>
        <hdop>3.216</hdop>
      </trkpt>
      <trkpt lat="45.1297268" lon="2.713382">
        <ele>1237.072</ele>
        <time>2020-12-05T12:48:53Z</time>
        <hdop>3.216</hdop>
      </trkpt>
      <trkpt lat="45.1297863" lon="2.7136986">
        <ele>1234.865</ele>
        <time>2020-12-05T12:49:24Z</time>
        <hdop>3.216</hdop>
      </trkpt>
      <trkpt lat="45.1298691" lon="2.7140231">
        <ele>1236.456</ele>
        <time>2020-12-05T12:49:54Z</time>
        <hdop>3.216</hdop>
      </trkpt>
      <trkpt lat="45.12993" lon="2.7143593">
        <ele>1234.264</ele>
        <time>2020-12-05T12:50:25Z</time>
        <hdop>4.288</hdop>
      </trkpt>
      <trkpt lat="45.1300132" lon="2.7146714">
        <ele>1231.383</ele>
        <time>2020-12-05T12:50:56Z</time>
        <hdop>3.216</hdop>
      </trkpt>
      <trkpt lat="45.1300553" lon="2.7149785">
        <ele>1235.407</ele>
        <time>2020-12-05T12:51:26Z</time>
        <hdop>4.288</hdop>
      </trkpt>
      <trkpt lat="45.130088" lon="2.7153104">
        <ele>1234.027</ele>
        <time>2020-12-05T12:51:56Z</time>
        <hdop>3.216</hdop>
      </trkpt>
      <trkpt lat="45.130174" lon="2.7156058">
        <ele>1233.595</ele>
        <time>2020-12-05T12:52:27Z</time>
        <hdop>3.216</hdop>
      </trkpt>
      <trkpt lat="45.1303342" lon="2.7159091">
        <ele>1231.163</ele>
        <time>2020-12-05T12:52:57Z</time>
        <hdop>3.216</hdop>
      </trkpt>
      <trkpt lat="45.1304186" lon="2.7161664">
        <ele>1229.061</ele>
        <time>2020-12-05T12:53:28Z</time>
        <hdop>3.216</hdop>
      </trkpt>
      <trkpt lat="45.130499" lon="2.7165072">
        <ele>1232.635</ele>
        <time>2020-12-05T12:53:59Z</time>
        <hdop>3.216</hdop>
      </trkpt>
      <trkpt lat="45.1306426" lon="2.7167456">
        <ele>1233.393</ele>
        <time>2020-12-05T12:54:29Z</time>
        <hdop>3.216</hdop>
      </trkpt>
      <trkpt lat="45.1307872" lon="2.7170025">
        <ele>1233.391</ele>
        <time>2020-12-05T12:54:59Z</time>
        <hdop>3.216</hdop>
      </trkpt>
      <trkpt lat="45.1309441" lon="2.7172791">
        <ele>1228.956</ele>
        <time>2020-12-05T12:55:29Z</time>
        <hdop>3.216</hdop>
      </trkpt>
      <trkpt lat="45.1310817" lon="2.717546">
        <ele>1231.796</ele>
        <time>2020-12-05T12:56:00Z</time>
        <hdop>3.216</hdop>
      </trkpt>
      <trkpt lat="45.1311681" lon="2.7178229">
        <ele>1234.101</ele>
        <time>2020-12-05T12:56:31Z</time>
        <hdop>3.216</hdop>
      </trkpt>
      <trkpt lat="45.1312704" lon="2.7180376">
        <ele>1237.525</ele>
        <time>2020-12-05T12:57:01Z</time>
        <hdop>3.216</hdop>
      </trkpt>
      <trkpt lat="45.1313588" lon="2.7182615">
        <ele>1236.617</ele>
        <time>2020-12-05T12:57:32Z</time>
        <hdop>3.216</hdop>
      </trkpt>
      <trkpt lat="45.1314494" lon="2.7184558">
        <ele>1236.901</ele>
        <time>2020-12-05T12:58:02Z</time>
        <hdop>4.288</hdop>
      </trkpt>
      <trkpt lat="45.131604" lon="2.7186903">
        <ele>1232.971</ele>
        <time>2020-12-05T12:58:33Z</time>
        <hdop>3.216</hdop>
      </trkpt>
      <trkpt lat="45.1316553" lon="2.7189171">
        <ele>1236.519</ele>
        <time>2020-12-05T12:59:03Z</time>
        <hdop>3.216</hdop>
      </trkpt>
      <trkpt lat="45.131713" lon="2.7191524">
        <ele>1237.316</ele>
        <time>2020-12-05T12:59:34Z</time>
        <hdop>3.216</hdop>
      </trkpt>
      <trkpt lat="45.1318494" lon="2.7194054">
        <ele>1232.715</ele>
        <time>2020-12-05T13:00:05Z</time>
        <hdop>3.216</hdop>
      </trkpt>
      <trkpt lat="45.1318784" lon="2.7195764">
        <ele>1237.844</ele>
        <time>2020-12-05T13:00:36Z</time>
        <hdop>3.216</hdop>
      </trkpt>
      <trkpt lat="45.1319918" lon="2.7198528">
        <ele>1233.016</ele>
        <time>2020-12-05T13:01:06Z</time>
        <hdop>3.216</hdop>
      </trkpt>
      <trkpt lat="45.1320601" lon="2.7201068">
        <ele>1233.617</ele>
        <time>2020-12-05T13:01:37Z</time>
        <hdop>3.216</hdop>
      </trkpt>
      <trkpt lat="45.1320109" lon="2.7204162">
        <ele>1228.759</ele>
        <time>2020-12-05T13:02:08Z</time>
        <hdop>3.216</hdop>
      </trkpt>
      <trkpt lat="45.1320122" lon="2.7207647">
        <ele>1219.368</ele>
        <time>2020-12-05T13:03:10Z</time>
        <hdop>3.216</hdop>
      </trkpt>
      <trkpt lat="45.132076" lon="2.7210652">
        <ele>1220.576</ele>
        <time>2020-12-05T13:03:41Z</time>
        <hdop>3.216</hdop>
      </trkpt>
      <trkpt lat="45.1321285" lon="2.7213551">
        <ele>1223.127</ele>
        <time>2020-12-05T13:04:12Z</time>
        <hdop>4.288</hdop>
      </trkpt>
      <trkpt lat="45.1321493" lon="2.7217311">
        <ele>1218.426</ele>
        <time>2020-12-05T13:04:42Z</time>
        <hdop>3.216</hdop>
      </trkpt>
      <trkpt lat="45.1321633" lon="2.7220539">
        <ele>1219.517</ele>
        <time>2020-12-05T13:05:13Z</time>
        <hdop>3.216</hdop>
      </trkpt>
      <trkpt lat="45.1321911" lon="2.7223834">
        <ele>1219.5</ele>
        <time>2020-12-05T13:05:44Z</time>
        <hdop>3.216</hdop>
      </trkpt>
      <trkpt lat="45.1322596" lon="2.7227319">
        <ele>1217.884</ele>
        <time>2020-12-05T13:06:15Z</time>
        <hdop>3.216</hdop>
      </trkpt>
      <trkpt lat="45.1324306" lon="2.7229661">
        <ele>1208.414</ele>
        <time>2020-12-05T13:06:46Z</time>
        <hdop>3.216</hdop>
      </trkpt>
      <trkpt lat="45.1325498" lon="2.7231733">
        <ele>1218.328</ele>
        <time>2020-12-05T13:07:16Z</time>
        <hdop>3.216</hdop>
      </trkpt>
      <trkpt lat="45.13248" lon="2.7233957">
        <ele>1217.521</ele>
        <time>2020-12-05T13:07:47Z</time>
        <hdop>3.216</hdop>
      </trkpt>
      <trkpt lat="45.1325332" lon="2.7237116">
        <ele>1217.884</ele>
        <time>2020-12-05T13:08:17Z</time>
        <hdop>3.216</hdop>
      </trkpt>
      <trkpt lat="45.1325019" lon="2.7239878">
        <ele>1214.309</ele>
        <time>2020-12-05T13:08:48Z</time>
        <hdop>3.216</hdop>
      </trkpt>
      <trkpt lat="45.1322881" lon="2.7240955">
        <ele>1204.524</ele>
        <time>2020-12-05T13:09:19Z</time>
        <hdop>3.216</hdop>
      </trkpt>
      <trkpt lat="45.1320676" lon="2.7239109">
        <ele>1201.453</ele>
        <time>2020-12-05T13:09:50Z</time>
        <hdop>3.216</hdop>
      </trkpt>
      <trkpt lat="45.1319315" lon="2.7235721">
        <ele>1193.65</ele>
        <time>2020-12-05T13:10:21Z</time>
        <hdop>3.216</hdop>
      </trkpt>
      <trkpt lat="45.1318572" lon="2.7233459">
        <ele>1186.162</ele>
        <time>2020-12-05T13:10:52Z</time>
        <hdop>3.216</hdop>
      </trkpt>
      <trkpt lat="45.131737" lon="2.7231455">
        <ele>1187.661</ele>
        <time>2020-12-05T13:11:22Z</time>
        <hdop>3.216</hdop>
      </trkpt>
      <trkpt lat="45.1316051" lon="2.7229506">
        <ele>1185.229</ele>
        <time>2020-12-05T13:11:53Z</time>
        <hdop>3.216</hdop>
      </trkpt>
      <trkpt lat="45.131405" lon="2.723042">
        <ele>1185.308</ele>
        <time>2020-12-05T13:12:23Z</time>
        <hdop>3.216</hdop>
      </trkpt>
      <trkpt lat="45.1313237" lon="2.7233858">
        <ele>1190.902</ele>
        <time>2020-12-05T13:12:54Z</time>
        <hdop>3.216</hdop>
      </trkpt>
      <trkpt lat="45.1312754" lon="2.7236544">
        <ele>1188.792</ele>
        <time>2020-12-05T13:13:24Z</time>
        <hdop>4.288</hdop>
      </trkpt>
      <trkpt lat="45.1313704" lon="2.7238615">
        <ele>1189.889</ele>
        <time>2020-12-05T13:13:55Z</time>
        <hdop>3.216</hdop>
      </trkpt>
      <trkpt lat="45.1314867" lon="2.7240447">
        <ele>1190.208</ele>
        <time>2020-12-05T13:14:25Z</time>
        <hdop>3.216</hdop>
      </trkpt>
      <trkpt lat="45.1315198" lon="2.7242096">
        <ele>1195.889</ele>
        <time>2020-12-05T13:14:56Z</time>
        <hdop>3.216</hdop>
      </trkpt>
      <trkpt lat="45.1315619" lon="2.7244541">
        <ele>1197.892</ele>
        <time>2020-12-05T13:15:27Z</time>
        <hdop>3.216</hdop>
      </trkpt>
      <trkpt lat="45.131564" lon="2.7247332">
        <ele>1195.892</ele>
        <time>2020-12-05T13:15:58Z</time>
        <hdop>3.216</hdop>
      </trkpt>
      <trkpt lat="45.1314898" lon="2.7249761">
        <ele>1195.104</ele>
        <time>2020-12-05T13:16:29Z</time>
        <hdop>3.216</hdop>
      </trkpt>
      <trkpt lat="45.131486" lon="2.7252251">
        <ele>1197.608</ele>
        <time>2020-12-05T13:16:59Z</time>
        <hdop>3.216</hdop>
      </trkpt>
      <trkpt lat="45.1314772" lon="2.7255042">
        <ele>1199.906</ele>
        <time>2020-12-05T13:17:30Z</time>
        <hdop>3.216</hdop>
      </trkpt>
      <trkpt lat="45.1315374" lon="2.7257951">
        <ele>1196.608</ele>
        <time>2020-12-05T13:18:00Z</time>
        <hdop>3.216</hdop>
      </trkpt>
      <trkpt lat="45.1314777" lon="2.7260512">
        <ele>1200.27</ele>
        <time>2020-12-05T13:18:31Z</time>
        <hdop>3.216</hdop>
      </trkpt>
      <trkpt lat="45.1314052" lon="2.7262895">
        <ele>1204.32</ele>
        <time>2020-12-05T13:19:02Z</time>
        <hdop>3.216</hdop>
      </trkpt>
      <trkpt lat="45.1313339" lon="2.7264842">
        <ele>1210.159</ele>
        <time>2020-12-05T13:19:32Z</time>
        <hdop>3.216</hdop>
      </trkpt>
      <trkpt lat="45.1313145" lon="2.7266951">
        <ele>1213.074</ele>
        <time>2020-12-05T13:20:03Z</time>
        <hdop>3.216</hdop>
      </trkpt>
      <trkpt lat="45.1313663" lon="2.7269704">
        <ele>1208.952</ele>
        <time>2020-12-05T13:20:34Z</time>
        <hdop>3.216</hdop>
      </trkpt>
      <trkpt lat="45.1314004" lon="2.7272524">
        <ele>1208.499</ele>
        <time>2020-12-05T13:21:04Z</time>
        <hdop>3.216</hdop>
      </trkpt>
      <trkpt lat="45.1314878" lon="2.7275184">
        <ele>1208.939</ele>
        <time>2020-12-05T13:21:35Z</time>
        <hdop>3.216</hdop>
      </trkpt>
      <trkpt lat="45.1315883" lon="2.7277929">
        <ele>1206.229</ele>
        <time>2020-12-05T13:22:05Z</time>
        <hdop>3.216</hdop>
      </trkpt>
      <trkpt lat="45.1316505" lon="2.7280255">
        <ele>1204.185</ele>
        <time>2020-12-05T13:22:35Z</time>
        <hdop>3.216</hdop>
      </trkpt>
      <trkpt lat="45.1315428" lon="2.728281">
        <ele>1207.063</ele>
        <time>2020-12-05T13:23:06Z</time>
        <hdop>3.216</hdop>
      </trkpt>
      <trkpt lat="45.1314051" lon="2.728486">
        <ele>1205.156</ele>
        <time>2020-12-05T13:23:36Z</time>
        <hdop>3.216</hdop>
      </trkpt>
      <trkpt lat="45.1311521" lon="2.7285823">
        <ele>1198.525</ele>
        <time>2020-12-05T13:24:07Z</time>
        <hdop>3.216</hdop>
      </trkpt>
      <trkpt lat="45.1311009" lon="2.728907">
        <ele>1198.835</ele>
        <time>2020-12-05T13:24:38Z</time>
        <hdop>3.216</hdop>
      </trkpt>
      <trkpt lat="45.1311978" lon="2.7292039">
        <ele>1194.959</ele>
        <time>2020-12-05T13:25:08Z</time>
        <hdop>3.216</hdop>
      </trkpt>
      <trkpt lat="45.131326" lon="2.7295441">
        <ele>1194.966</ele>
        <time>2020-12-05T13:25:39Z</time>
        <hdop>3.216</hdop>
      </trkpt>
      <trkpt lat="45.1314132" lon="2.7298689">
        <ele>1195.618</ele>
        <time>2020-12-05T13:26:09Z</time>
        <hdop>3.216</hdop>
      </trkpt>
      <trkpt lat="45.1315547" lon="2.730262">
        <ele>1195.274</ele>
        <time>2020-12-05T13:26:40Z</time>
        <hdop>3.216</hdop>
      </trkpt>
      <trkpt lat="45.1316716" lon="2.7306314">
        <ele>1187.922</ele>
        <time>2020-12-05T13:27:10Z</time>
        <hdop>3.216</hdop>
      </trkpt>
      <trkpt lat="45.1318008" lon="2.7308584">
        <ele>1187.938</ele>
        <time>2020-12-05T13:27:41Z</time>
        <hdop>3.216</hdop>
      </trkpt>
      <trkpt lat="45.1319457" lon="2.7310705">
        <ele>1192.282</ele>
        <time>2020-12-05T13:28:11Z</time>
        <hdop>3.216</hdop>
      </trkpt>
      <trkpt lat="45.1319956" lon="2.7312358">
        <ele>1188.692</ele>
        <time>2020-12-05T13:28:42Z</time>
        <hdop>4.288</hdop>
      </trkpt>
      <trkpt lat="45.1319787" lon="2.7312927">
        <ele>1188.301</ele>
        <time>2020-12-05T13:29:12Z</time>
        <hdop>4.288</hdop>
      </trkpt>
      <trkpt lat="45.1319559" lon="2.7313093">
        <ele>1190.864</ele>
        <time>2020-12-05T13:29:42Z</time>
        <hdop>5.36</hdop>
      </trkpt>
      <trkpt lat="45.1318979" lon="2.7312184">
        <ele>1196.769</ele>
        <time>2020-12-05T13:30:12Z</time>
        <hdop>4.288</hdop>
      </trkpt>
      <trkpt lat="45.1317026" lon="2.7311064">
        <ele>1194.317</ele>
        <time>2020-12-05T13:30:43Z</time>
        <hdop>4.288</hdop>
      </trkpt>
      <trkpt lat="45.131549" lon="2.7310893">
        <ele>1196.54</ele>
        <time>2020-12-05T13:31:14Z</time>
        <hdop>5.36</hdop>
      </trkpt>
      <trkpt lat="45.1314819" lon="2.7312597">
        <ele>1202.044</ele>
        <time>2020-12-05T13:31:44Z</time>
        <hdop>3.216</hdop>
      </trkpt>
      <trkpt lat="45.1315127" lon="2.7313953">
        <ele>1203.337</ele>
        <time>2020-12-05T13:32:15Z</time>
        <hdop>3.216</hdop>
      </trkpt>
      <trkpt lat="45.1314789" lon="2.7315667">
        <ele>1208.531</ele>
        <time>2020-12-05T13:32:46Z</time>
        <hdop>4.288</hdop>
      </trkpt>
      <trkpt lat="45.1314172" lon="2.7316284">
        <ele>1208.909</ele>
        <time>2020-12-05T13:33:16Z</time>
        <hdop>3.216</hdop>
      </trkpt>
      <trkpt lat="45.1313712" lon="2.7318357">
        <ele>1209.434</ele>
        <time>2020-12-05T13:33:47Z</time>
        <hdop>3.216</hdop>
      </trkpt>
      <trkpt lat="45.1313384" lon="2.732034">
        <ele>1220.937</ele>
        <time>2020-12-05T13:34:17Z</time>
        <hdop>4.288</hdop>
      </trkpt>
      <trkpt lat="45.1312908" lon="2.7322414">
        <ele>1217.683</ele>
        <time>2020-12-05T13:34:48Z</time>
        <hdop>4.288</hdop>
      </trkpt>
      <trkpt lat="45.1313293" lon="2.7323516">
        <ele>1218.398</ele>
        <time>2020-12-05T13:35:18Z</time>
        <hdop>5.36</hdop>
      </trkpt>
      <trkpt lat="45.1312981" lon="2.7324935">
        <ele>1223.553</ele>
        <time>2020-12-05T13:35:49Z</time>
        <hdop>4.288</hdop>
      </trkpt>
      <trkpt lat="45.1312952" lon="2.7326438">
        <ele>1232.357</ele>
        <time>2020-12-05T13:36:19Z</time>
        <hdop>4.288</hdop>
      </trkpt>
      <trkpt lat="45.1312567" lon="2.7326862">
        <ele>1235.654</ele>
        <time>2020-12-05T13:36:50Z</time>
        <hdop>6.432</hdop>
      </trkpt>
      <trkpt lat="45.131246" lon="2.7326507">
        <ele>1239.911</ele>
        <time>2020-12-05T13:37:20Z</time>
        <hdop>11.792</hdop>
      </trkpt>
      <trkpt lat="45.1312206" lon="2.7325703">
        <ele>1241.056</ele>
        <time>2020-12-05T13:37:51Z</time>
        <hdop>9.648</hdop>
      </trkpt>
      <trkpt lat="45.1311528" lon="2.7327358">
        <ele>1239.131</ele>
        <time>2020-12-05T13:38:21Z</time>
        <hdop>4.288</hdop>
      </trkpt>
      <trkpt lat="45.1311416" lon="2.7328219">
        <ele>1243.431</ele>
        <time>2020-12-05T13:38:52Z</time>
        <hdop>3.216</hdop>
      </trkpt>
      <trkpt lat="45.1311039" lon="2.7329681">
        <ele>1247.265</ele>
        <time>2020-12-05T13:39:23Z</time>
        <hdop>3.216</hdop>
      </trkpt>
      <trkpt lat="45.1310781" lon="2.7332727">
        <ele>1244.891</ele>
        <time>2020-12-05T13:40:24Z</time>
        <hdop>3.216</hdop>
      </trkpt>
      <trkpt lat="45.1310669" lon="2.7334525">
        <ele>1246.415</ele>
        <time>2020-12-05T13:40:55Z</time>
        <hdop>3.216</hdop>
      </trkpt>
      <trkpt lat="45.1310236" lon="2.7335628">
        <ele>1250.062</ele>
        <time>2020-12-05T13:41:26Z</time>
        <hdop>4.288</hdop>
      </trkpt>
      <trkpt lat="45.1308912" lon="2.7336635">
        <ele>1247.653</ele>
        <time>2020-12-05T13:41:56Z</time>
        <hdop>3.216</hdop>
      </trkpt>
      <trkpt lat="45.1309411" lon="2.7339554">
        <ele>1247.471</ele>
        <time>2020-12-05T13:42:27Z</time>
        <hdop>3.216</hdop>
      </trkpt>
      <trkpt lat="45.1310705" lon="2.7341041">
        <ele>1251.331</ele>
        <time>2020-12-05T13:42:57Z</time>
        <hdop>3.216</hdop>
      </trkpt>
      <trkpt lat="45.1311632" lon="2.7343188">
        <ele>1252.23</ele>
        <time>2020-12-05T13:43:28Z</time>
        <hdop>3.216</hdop>
      </trkpt>
      <trkpt lat="45.1311817" lon="2.7344169">
        <ele>1257.042</ele>
        <time>2020-12-05T13:43:59Z</time>
        <hdop>3.216</hdop>
      </trkpt>
      <trkpt lat="45.1312888" lon="2.7346612">
        <ele>1252.521</ele>
        <time>2020-12-05T13:44:30Z</time>
        <hdop>3.216</hdop>
      </trkpt>
      <trkpt lat="45.1313869" lon="2.7348195">
        <ele>1250.448</ele>
        <time>2020-12-05T13:45:00Z</time>
        <hdop>3.216</hdop>
      </trkpt>
      <trkpt lat="45.1314966" lon="2.7350455">
        <ele>1247.067</ele>
        <time>2020-12-05T13:45:31Z</time>
        <hdop>3.216</hdop>
      </trkpt>
      <trkpt lat="45.1316476" lon="2.7351905">
        <ele>1243.615</ele>
        <time>2020-12-05T13:46:02Z</time>
        <hdop>3.216</hdop>
      </trkpt>
      <trkpt lat="45.1317017" lon="2.7354688">
        <ele>1242.104</ele>
        <time>2020-12-05T13:46:32Z</time>
        <hdop>3.216</hdop>
      </trkpt>
      <trkpt lat="45.1317837" lon="2.7356947">
        <ele>1243.417</ele>
        <time>2020-12-05T13:47:02Z</time>
        <hdop>3.216</hdop>
      </trkpt>
      <trkpt lat="45.13181" lon="2.7359538">
        <ele>1240.93</ele>
        <time>2020-12-05T13:47:33Z</time>
        <hdop>3.216</hdop>
      </trkpt>
      <trkpt lat="45.1318343" lon="2.7362174">
        <ele>1239.43</ele>
        <time>2020-12-05T13:48:03Z</time>
        <hdop>3.216</hdop>
      </trkpt>
      <trkpt lat="45.1318308" lon="2.7365158">
        <ele>1237.458</ele>
        <time>2020-12-05T13:48:34Z</time>
        <hdop>3.216</hdop>
      </trkpt>
      <trkpt lat="45.1318643" lon="2.736784">
        <ele>1236.342</ele>
        <time>2020-12-05T13:49:04Z</time>
        <hdop>3.216</hdop>
      </trkpt>
      <trkpt lat="45.1318423" lon="2.7370784">
        <ele>1228.063</ele>
        <time>2020-12-05T13:49:34Z</time>
        <hdop>3.216</hdop>
      </trkpt>
      <trkpt lat="45.1317343" lon="2.7372986">
        <ele>1224.723</ele>
        <time>2020-12-05T13:50:05Z</time>
        <hdop>3.216</hdop>
      </trkpt>
      <trkpt lat="45.1316098" lon="2.7376177">
        <ele>1221.818</ele>
        <time>2020-12-05T13:50:36Z</time>
        <hdop>3.216</hdop>
      </trkpt>
      <trkpt lat="45.1316094" lon="2.7379334">
        <ele>1218.041</ele>
        <time>2020-12-05T13:51:06Z</time>
        <hdop>3.216</hdop>
      </trkpt>
      <trkpt lat="45.1316967" lon="2.7381981">
        <ele>1216.767</ele>
        <time>2020-12-05T13:51:37Z</time>
        <hdop>3.216</hdop>
      </trkpt>
      <trkpt lat="45.1318245" lon="2.7384949">
        <ele>1211.478</ele>
        <time>2020-12-05T13:52:07Z</time>
        <hdop>3.216</hdop>
      </trkpt>
      <trkpt lat="45.1318676" lon="2.7388204">
        <ele>1205.53</ele>
        <time>2020-12-05T13:52:38Z</time>
        <hdop>3.216</hdop>
      </trkpt>
      <trkpt lat="45.1318742" lon="2.739113">
        <ele>1193.5</ele>
        <time>2020-12-05T13:53:08Z</time>
        <hdop>3.216</hdop>
      </trkpt>
      <trkpt lat="45.1319749" lon="2.7394503">
        <ele>1188.636</ele>
        <time>2020-12-05T13:53:39Z</time>
        <hdop>3.216</hdop>
      </trkpt>
      <trkpt lat="45.131988" lon="2.73982">
        <ele>1182.305</ele>
        <time>2020-12-05T13:54:10Z</time>
        <hdop>3.216</hdop>
      </trkpt>
      <trkpt lat="45.1318326" lon="2.7400899">
        <ele>1178.37</ele>
        <time>2020-12-05T13:54:40Z</time>
        <hdop>3.216</hdop>
      </trkpt>
      <trkpt lat="45.131647" lon="2.7402934">
        <ele>1177.886</ele>
        <time>2020-12-05T13:55:11Z</time>
        <hdop>3.216</hdop>
      </trkpt>
      <trkpt lat="45.1314563" lon="2.7404347">
        <ele>1177.366</ele>
        <time>2020-12-05T13:55:41Z</time>
        <hdop>3.216</hdop>
      </trkpt>
      <trkpt lat="45.1311988" lon="2.7404784">
        <ele>1176.992</ele>
        <time>2020-12-05T13:56:12Z</time>
        <hdop>3.216</hdop>
      </trkpt>
      <trkpt lat="45.1309049" lon="2.7404655">
        <ele>1176.686</ele>
        <time>2020-12-05T13:56:43Z</time>
        <hdop>3.216</hdop>
      </trkpt>
      <trkpt lat="45.1306923" lon="2.7404188">
        <ele>1170.807</ele>
        <time>2020-12-05T13:57:13Z</time>
        <hdop>3.216</hdop>
      </trkpt>
      <trkpt lat="45.1304624" lon="2.7403787">
        <ele>1173.916</ele>
        <time>2020-12-05T13:58:45Z</time>
        <hdop>3.216</hdop>
      </trkpt>
      <trkpt lat="45.1302782" lon="2.7403589">
        <ele>1175.738</ele>
        <time>2020-12-05T13:59:16Z</time>
        <hdop>3.216</hdop>
      </trkpt>
      <trkpt lat="45.1300446" lon="2.740289">
        <ele>1177.042</ele>
        <time>2020-12-05T13:59:46Z</time>
        <hdop>3.216</hdop>
      </trkpt>
      <trkpt lat="45.1298084" lon="2.7401634">
        <ele>1178.264</ele>
        <time>2020-12-05T14:00:17Z</time>
        <hdop>3.216</hdop>
      </trkpt>
      <trkpt lat="45.1295815" lon="2.7400787">
        <ele>1179.902</ele>
        <time>2020-12-05T14:00:47Z</time>
        <hdop>3.216</hdop>
      </trkpt>
      <trkpt lat="45.129362" lon="2.739981">
        <ele>1177.465</ele>
        <time>2020-12-05T14:01:18Z</time>
        <hdop>3.216</hdop>
      </trkpt>
      <trkpt lat="45.1291186" lon="2.7398438">
        <ele>1181.893</ele>
        <time>2020-12-05T14:01:48Z</time>
        <hdop>3.216</hdop>
      </trkpt>
      <trkpt lat="45.1289796" lon="2.739681">
        <ele>1179.606</ele>
        <time>2020-12-05T14:02:18Z</time>
        <hdop>3.216</hdop>
      </trkpt>
      <trkpt lat="45.1287962" lon="2.7395052">
        <ele>1186.245</ele>
        <time>2020-12-05T14:02:49Z</time>
        <hdop>3.216</hdop>
      </trkpt>
      <trkpt lat="45.1286565" lon="2.739401">
        <ele>1182.165</ele>
        <time>2020-12-05T14:03:19Z</time>
        <hdop>3.216</hdop>
      </trkpt>
      <trkpt lat="45.1285477" lon="2.7392592">
        <ele>1188.757</ele>
        <time>2020-12-05T14:03:50Z</time>
        <hdop>3.216</hdop>
      </trkpt>
      <trkpt lat="45.1283519" lon="2.7390767">
        <ele>1184.984</ele>
        <time>2020-12-05T14:04:20Z</time>
        <hdop>3.216</hdop>
      </trkpt>
      <trkpt lat="45.1280895" lon="2.7389224">
        <ele>1187.634</ele>
        <time>2020-12-05T14:04:51Z</time>
        <hdop>3.216</hdop>
      </trkpt>
      <trkpt lat="45.1278638" lon="2.7388396">
        <ele>1186.215</ele>
        <time>2020-12-05T14:05:22Z</time>
        <hdop>3.216</hdop>
      </trkpt>
      <trkpt lat="45.127641" lon="2.7387698">
        <ele>1193.848</ele>
        <time>2020-12-05T14:05:52Z</time>
        <hdop>3.216</hdop>
      </trkpt>
      <trkpt lat="45.1273721" lon="2.7386241">
        <ele>1184.887</ele>
        <time>2020-12-05T14:06:22Z</time>
        <hdop>3.216</hdop>
      </trkpt>
      <trkpt lat="45.1271722" lon="2.7385467">
        <ele>1184.145</ele>
        <time>2020-12-05T14:06:53Z</time>
        <hdop>3.216</hdop>
      </trkpt>
      <trkpt lat="45.1268869" lon="2.7384954">
        <ele>1176.999</ele>
        <time>2020-12-05T14:07:24Z</time>
        <hdop>4.288</hdop>
      </trkpt>
      <trkpt lat="45.1266822" lon="2.7383958">
        <ele>1179.586</ele>
        <time>2020-12-05T14:07:55Z</time>
        <hdop>4.288</hdop>
      </trkpt>
      <trkpt lat="45.1264324" lon="2.7383887">
        <ele>1182.345</ele>
        <time>2020-12-05T14:08:25Z</time>
        <hdop>10.72</hdop>
      </trkpt>
      <trkpt lat="45.1261782" lon="2.7383319">
        <ele>1178.948</ele>
        <time>2020-12-05T14:08:56Z</time>
        <hdop>4.288</hdop>
      </trkpt>
      <trkpt lat="45.1258885" lon="2.7383384">
        <ele>1157.68</ele>
        <time>2020-12-05T14:09:26Z</time>
        <hdop>5.36</hdop>
      </trkpt>
      <trkpt lat="45.1256745" lon="2.738717">
        <ele>1157.696</ele>
        <time>2020-12-05T14:09:57Z</time>
        <hdop>5.36</hdop>
      </trkpt>
      <trkpt lat="45.1255066" lon="2.7386983">
        <ele>1150.661</ele>
        <time>2020-12-05T14:10:28Z</time>
        <hdop>4.288</hdop>
      </trkpt>
      <trkpt lat="45.1253902" lon="2.7389975">
        <ele>1157.759</ele>
        <time>2020-12-05T14:10:59Z</time>
        <hdop>3.216</hdop>
      </trkpt>
      <trkpt lat="45.1256049" lon="2.7392476">
        <ele>1154.645</ele>
        <time>2020-12-05T14:11:29Z</time>
        <hdop>3.216</hdop>
      </trkpt>
      <trkpt lat="45.1258024" lon="2.7392566">
        <ele>1152.866</ele>
        <time>2020-12-05T14:12:00Z</time>
        <hdop>4.288</hdop>
      </trkpt>
      <trkpt lat="45.1259422" lon="2.7393803">
        <ele>1152.975</ele>
        <time>2020-12-05T14:15:34Z</time>
        <hdop>3.216</hdop>
      </trkpt>
      <trkpt lat="45.126269" lon="2.7394994">
        <ele>1153.344</ele>
        <time>2020-12-05T14:16:05Z</time>
        <hdop>3.216</hdop>
      </trkpt>
      <trkpt lat="45.1266187" lon="2.739705">
        <ele>1145.725</ele>
        <time>2020-12-05T14:16:36Z</time>
        <hdop>4.288</hdop>
      </trkpt>
      <trkpt lat="45.1269372" lon="2.7400267">
        <ele>1141.288</ele>
        <time>2020-12-05T14:17:07Z</time>
        <hdop>4.288</hdop>
      </trkpt>
      <trkpt lat="45.1272038" lon="2.7403531">
        <ele>1143.884</ele>
        <time>2020-12-05T14:17:37Z</time>
        <hdop>3.216</hdop>
      </trkpt>
      <trkpt lat="45.1274774" lon="2.740773">
        <ele>1146.839</ele>
        <time>2020-12-05T14:18:08Z</time>
        <hdop>4.288</hdop>
      </trkpt>
      <trkpt lat="45.1277967" lon="2.7410934">
        <ele>1138.719</ele>
        <time>2020-12-05T14:18:39Z</time>
        <hdop>3.216</hdop>
      </trkpt>
      <trkpt lat="45.12818" lon="2.741283">
        <ele>1132.663</ele>
        <time>2020-12-05T14:19:10Z</time>
        <hdop>3.216</hdop>
      </trkpt>
      <trkpt lat="45.1285323" lon="2.7415645">
        <ele>1135.084</ele>
        <time>2020-12-05T14:19:41Z</time>
        <hdop>4.288</hdop>
      </trkpt>
      <trkpt lat="45.1288157" lon="2.7419207">
        <ele>1126.771</ele>
        <time>2020-12-05T14:20:11Z</time>
        <hdop>4.288</hdop>
      </trkpt>
      <trkpt lat="45.1290528" lon="2.7423697">
        <ele>1132.148</ele>
        <time>2020-12-05T14:20:42Z</time>
        <hdop>3.216</hdop>
      </trkpt>
      <trkpt lat="45.1293588" lon="2.7427059">
        <ele>1119.06</ele>
        <time>2020-12-05T14:21:12Z</time>
        <hdop>3.216</hdop>
      </trkpt>
      <trkpt lat="45.1296741" lon="2.7430327">
        <ele>1124.213</ele>
        <time>2020-12-05T14:21:43Z</time>
        <hdop>3.216</hdop>
      </trkpt>
      <trkpt lat="45.1300141" lon="2.743319">
        <ele>1116.37</ele>
        <time>2020-12-05T14:22:14Z</time>
        <hdop>3.216</hdop>
      </trkpt>
      <trkpt lat="45.1303191" lon="2.7436167">
        <ele>1119.182</ele>
        <time>2020-12-05T14:22:45Z</time>
        <hdop>4.288</hdop>
      </trkpt>
      <trkpt lat="45.1306492" lon="2.7438588">
        <ele>1116.443</ele>
        <time>2020-12-05T14:23:15Z</time>
        <hdop>3.216</hdop>
      </trkpt>
      <trkpt lat="45.1310183" lon="2.7439109">
        <ele>1120.84</ele>
        <time>2020-12-05T14:23:46Z</time>
        <hdop>3.216</hdop>
      </trkpt>
      <trkpt lat="45.1314041" lon="2.7438391">
        <ele>1124.492</ele>
        <time>2020-12-05T14:24:16Z</time>
        <hdop>3.216</hdop>
      </trkpt>
      <trkpt lat="45.1317768" lon="2.7437079">
        <ele>1126.737</ele>
        <time>2020-12-05T14:24:46Z</time>
        <hdop>3.216</hdop>
      </trkpt>
      <trkpt lat="45.1319418" lon="2.7441414">
        <ele>1125.564</ele>
        <time>2020-12-05T14:25:17Z</time>
        <hdop>3.216</hdop>
      </trkpt>
      <trkpt lat="45.132218" lon="2.7445122">
        <ele>1111.567</ele>
        <time>2020-12-05T14:25:48Z</time>
        <hdop>3.216</hdop>
      </trkpt>
      <trkpt lat="45.1324196" lon="2.7449548">
        <ele>1116.803</ele>
        <time>2020-12-05T14:26:18Z</time>
        <hdop>3.216</hdop>
      </trkpt>
      <trkpt lat="45.132807" lon="2.745131">
        <ele>1121.122</ele>
        <time>2020-12-05T14:26:48Z</time>
        <hdop>4.288</hdop>
      </trkpt>
      <trkpt lat="45.133172" lon="2.7453131">
        <ele>1108.023</ele>
        <time>2020-12-05T14:27:19Z</time>
        <hdop>4.288</hdop>
      </trkpt>
      <trkpt lat="45.1335797" lon="2.7454094">
        <ele>1116.96</ele>
        <time>2020-12-05T14:27:49Z</time>
        <hdop>5.36</hdop>
      </trkpt>
      <trkpt lat="45.1339257" lon="2.7454774">
        <ele>1114.566</ele>
        <time>2020-12-05T14:28:20Z</time>
        <hdop>4.288</hdop>
      </trkpt>
      <trkpt lat="45.1342996" lon="2.7453502">
        <ele>1116.241</ele>
        <time>2020-12-05T14:28:51Z</time>
        <hdop>3.216</hdop>
      </trkpt>
      <trkpt lat="45.1345662" lon="2.7455696">
        <ele>1122.277</ele>
        <time>2020-12-05T14:29:22Z</time>
        <hdop>4.288</hdop>
      </trkpt>
      <trkpt lat="45.1347594" lon="2.746023">
        <ele>1115.817</ele>
        <time>2020-12-05T14:29:52Z</time>
        <hdop>4.288</hdop>
      </trkpt>
      <trkpt lat="45.1351346" lon="2.7461978">
        <ele>1116.453</ele>
        <time>2020-12-05T14:30:22Z</time>
        <hdop>5.36</hdop>
      </trkpt>
      <trkpt lat="45.1354247" lon="2.746506">
        <ele>1118.658</ele>
        <time>2020-12-05T14:30:53Z</time>
        <hdop>4.288</hdop>
      </trkpt>
      <trkpt lat="45.1357418" lon="2.7466132">
        <ele>1116.293</ele>
        <time>2020-12-05T14:31:23Z</time>
        <hdop>5.36</hdop>
      </trkpt>
      <trkpt lat="45.1360879" lon="2.7466683">
        <ele>1122.042</ele>
        <time>2020-12-05T14:31:53Z</time>
        <hdop>4.288</hdop>
      </trkpt>
      <trkpt lat="45.1364345" lon="2.7468498">
        <ele>1131.551</ele>
        <time>2020-12-05T14:32:24Z</time>
        <hdop>4.288</hdop>
      </trkpt>
      <trkpt lat="45.1367747" lon="2.7470309">
        <ele>1128.239</ele>
        <time>2020-12-05T14:32:55Z</time>
        <hdop>3.216</hdop>
      </trkpt>
      <trkpt lat="45.1371069" lon="2.7473046">
        <ele>1131.143</ele>
        <time>2020-12-05T14:33:26Z</time>
        <hdop>3.216</hdop>
      </trkpt>
      <trkpt lat="45.1373975" lon="2.7475042">
        <ele>1133.002</ele>
        <time>2020-12-05T14:33:56Z</time>
        <hdop>5.36</hdop>
      </trkpt>
      <trkpt lat="45.137649" lon="2.7478426">
        <ele>1135.785</ele>
        <time>2020-12-05T14:34:27Z</time>
        <hdop>4.288</hdop>
      </trkpt>
      <trkpt lat="45.1378507" lon="2.7480793">
        <ele>1135.853</ele>
        <time>2020-12-05T14:34:57Z</time>
        <hdop>4.288</hdop>
      </trkpt>
      <trkpt lat="45.1379092" lon="2.7481339">
        <ele>1136.912</ele>
        <time>2020-12-05T14:35:28Z</time>
        <hdop>4.288</hdop>
      </trkpt>
    </trkseg>
  </trk>
</gpx>