<?xml version='1.0' encoding='UTF-8'?>
<gpx version="1.1" creator="JOSM GPX export" xmlns="http://www.topografix.com/GPX/1/1"
    xmlns:xsi="http://www.w3.org/2001/XMLSchema-instance"
    xsi:schemaLocation="http://www.topografix.com/GPX/1/1 http://www.topografix.com/GPX/1/1/gpx.xsd">
  <metadata>
    <author>
      <name>Grégory DAVID</name>
    </author>
    <copyright author="Grégory DAVID">
      <year>2021</year>
      <license>https://creativecommons.org/licenses/by-sa/3.0</license>
    </copyright>
  </metadata>
  <trk>
    <name>plan.chartreuse.joigny.gorgeat</name>
    <trkseg>
      <trkpt lat="45.478399" lon="5.8922338">
        <ele>1023.315</ele>
      </trkpt>
      <trkpt lat="45.4783614" lon="5.8924028">
        <ele>1027</ele>
      </trkpt>
      <trkpt lat="45.4783633" lon="5.8925745">
        <ele>1034</ele>
      </trkpt>
      <trkpt lat="45.4781207" lon="5.8926576">
        <ele>1032.5</ele>
      </trkpt>
      <trkpt lat="45.4778085" lon="5.8929017">
        <ele>1038.5</ele>
      </trkpt>
      <trkpt lat="45.4776223" lon="5.8931136">
        <ele>1045.5</ele>
      </trkpt>
      <trkpt lat="45.4772969" lon="5.8934328">
        <ele>1055.25</ele>
      </trkpt>
      <trkpt lat="45.4771032" lon="5.8936742">
        <ele>1060.75</ele>
      </trkpt>
      <trkpt lat="45.4769471" lon="5.8937761">
        <ele>1060.5</ele>
      </trkpt>
      <trkpt lat="45.4772668" lon="5.8941382">
        <ele>1074</ele>
      </trkpt>
      <trkpt lat="45.4774624" lon="5.8941275">
        <ele>1081.25</ele>
      </trkpt>
      <trkpt lat="45.4775978" lon="5.8941731">
        <ele>1086.25</ele>
      </trkpt>
      <trkpt lat="45.4776919" lon="5.8942133">
        <ele>1088.75</ele>
      </trkpt>
      <trkpt lat="45.4778367" lon="5.8941087">
        <ele>1090.75</ele>
      </trkpt>
      <trkpt lat="45.478194" lon="5.8941382">
        <ele>1096</ele>
      </trkpt>
      <trkpt lat="45.4784084" lon="5.8942026">
        <ele>1100.5</ele>
      </trkpt>
      <trkpt lat="45.4787545" lon="5.8943421">
        <ele>1109.25</ele>
      </trkpt>
      <trkpt lat="45.4790441" lon="5.8944252">
        <ele>1112.5</ele>
      </trkpt>
      <trkpt lat="45.4793431" lon="5.8944225">
        <ele>1116.25</ele>
      </trkpt>
      <trkpt lat="45.4795839" lon="5.894452">
        <ele>1119.5</ele>
      </trkpt>
      <trkpt lat="45.4797682" lon="5.8944038">
        <ele>1121.5</ele>
      </trkpt>
      <trkpt lat="45.4799355" lon="5.894393">
        <ele>1125.25</ele>
      </trkpt>
      <trkpt lat="45.4800108" lon="5.8944198">
        <ele>1128</ele>
      </trkpt>
      <trkpt lat="45.4800258" lon="5.8947632">
        <ele>1132</ele>
      </trkpt>
      <trkpt lat="45.480133" lon="5.895372">
        <ele>1138.25</ele>
      </trkpt>
      <trkpt lat="45.4803436" lon="5.8955759">
        <ele>1141.5</ele>
      </trkpt>
      <trkpt lat="45.4805844" lon="5.8956188">
        <ele>1147</ele>
      </trkpt>
      <trkpt lat="45.4807348" lon="5.8957154">
        <ele>1148.75</ele>
      </trkpt>
      <trkpt lat="45.480983" lon="5.8958334">
        <ele>1152</ele>
      </trkpt>
      <trkpt lat="45.4810808" lon="5.8960265">
        <ele>1148.25</ele>
      </trkpt>
      <trkpt lat="45.4813817" lon="5.8963805">
        <ele>1145.75</ele>
      </trkpt>
      <trkpt lat="45.4814946" lon="5.8965844">
        <ele>1144</ele>
      </trkpt>
      <trkpt lat="45.4816225" lon="5.8967239">
        <ele>1144.75</ele>
      </trkpt>
      <trkpt lat="45.4817729" lon="5.8967453">
        <ele>1149</ele>
      </trkpt>
      <trkpt lat="45.481976" lon="5.8966058">
        <ele>1155.5</ele>
      </trkpt>
      <trkpt lat="45.4820964" lon="5.8965522">
        <ele>1158</ele>
      </trkpt>
      <trkpt lat="45.4823954" lon="5.8966514">
        <ele>1158.5</ele>
      </trkpt>
      <trkpt lat="45.4825251" lon="5.8968741">
        <ele>1158.75</ele>
      </trkpt>
      <trkpt lat="45.4826323" lon="5.8969465">
        <ele>1159.5</ele>
      </trkpt>
      <trkpt lat="45.4827847" lon="5.8969867">
        <ele>1161.25</ele>
      </trkpt>
      <trkpt lat="45.4829765" lon="5.8970672">
        <ele>1163.75</ele>
      </trkpt>
      <trkpt lat="45.4833451" lon="5.8972174">
        <ele>1169.5</ele>
      </trkpt>
      <trkpt lat="45.4834729" lon="5.8974829">
        <ele>1173</ele>
      </trkpt>
      <trkpt lat="45.4836779" lon="5.8975902">
        <ele>1179</ele>
      </trkpt>
      <trkpt lat="45.4837719" lon="5.8978477">
        <ele>1184</ele>
      </trkpt>
      <trkpt lat="45.4837193" lon="5.8978692">
        <ele>1183.5</ele>
      </trkpt>
      <trkpt lat="45.4836817" lon="5.8978879">
        <ele>1183</ele>
      </trkpt>
      <trkpt lat="45.4836328" lon="5.8979389">
        <ele>1182.5</ele>
      </trkpt>
      <trkpt lat="45.483567" lon="5.898006">
        <ele>1182.25</ele>
      </trkpt>
      <trkpt lat="45.4834654" lon="5.8980864">
        <ele>1181.918</ele>
      </trkpt>
      <trkpt lat="45.4834184" lon="5.8981374">
        <ele>1181.75</ele>
      </trkpt>
      <trkpt lat="45.4833582" lon="5.8981991">
        <ele>1181.5</ele>
      </trkpt>
      <trkpt lat="45.4832755" lon="5.8983332">
        <ele>1181.25</ele>
      </trkpt>
      <trkpt lat="45.4832266" lon="5.8984083">
        <ele>1181</ele>
      </trkpt>
      <trkpt lat="45.4830705" lon="5.89858">
        <ele>1179</ele>
      </trkpt>
      <trkpt lat="45.4828505" lon="5.8987838">
        <ele>1177</ele>
      </trkpt>
      <trkpt lat="45.4826775" lon="5.8989689">
        <ele>1175.75</ele>
      </trkpt>
      <trkpt lat="45.4825797" lon="5.8990359">
        <ele>1174.5</ele>
      </trkpt>
      <trkpt lat="45.4822468" lon="5.8992049">
        <ele>1171.75</ele>
      </trkpt>
      <trkpt lat="45.4819459" lon="5.8994061">
        <ele>1173</ele>
      </trkpt>
      <trkpt lat="45.4817071" lon="5.8994973">
        <ele>1174</ele>
      </trkpt>
      <trkpt lat="45.4816149" lon="5.8994973">
        <ele>1173.77</ele>
      </trkpt>
      <trkpt lat="45.4815284" lon="5.8995295">
        <ele>1173.547</ele>
      </trkpt>
      <trkpt lat="45.4815284" lon="5.8995295">
        <ele>1173.547</ele>
      </trkpt>
      <trkpt lat="45.4815284" lon="5.8995295">
        <ele>1173.547</ele>
      </trkpt>
      <trkpt lat="45.4815096" lon="5.8995321">
        <ele>1173.5</ele>
      </trkpt>
      <trkpt lat="45.4812651" lon="5.8996662">
        <ele>1173.75</ele>
      </trkpt>
      <trkpt lat="45.4810508" lon="5.8997709">
        <ele>1173.25</ele>
      </trkpt>
      <trkpt lat="45.4809097" lon="5.8998245">
        <ele>1173.5</ele>
      </trkpt>
      <trkpt lat="45.4807875" lon="5.8998889">
        <ele>1174.25</ele>
      </trkpt>
      <trkpt lat="45.4806144" lon="5.8999988">
        <ele>1175.111</ele>
      </trkpt>
      <trkpt lat="45.4804753" lon="5.9000257">
        <ele>1175.75</ele>
      </trkpt>
      <trkpt lat="45.4803756" lon="5.9000337">
        <ele>1175.5</ele>
      </trkpt>
      <trkpt lat="45.4801669" lon="5.900133">
        <ele>1176.5</ele>
      </trkpt>
      <trkpt lat="45.4798791" lon="5.9003475">
        <ele>1180</ele>
      </trkpt>
      <trkpt lat="45.4794127" lon="5.9004655">
        <ele>1180.25</ele>
      </trkpt>
      <trkpt lat="45.4791682" lon="5.9005541">
        <ele>1182.75</ele>
      </trkpt>
      <trkpt lat="45.4790629" lon="5.9007525">
        <ele>1188.25</ele>
      </trkpt>
      <trkpt lat="45.4789275" lon="5.9012997">
        <ele>1195</ele>
      </trkpt>
      <trkpt lat="45.4789012" lon="5.9016028">
        <ele>1196.75</ele>
      </trkpt>
      <trkpt lat="45.478903" lon="5.9018576">
        <ele>1199</ele>
      </trkpt>
      <trkpt lat="45.4790817" lon="5.901635">
        <ele>1202.75</ele>
      </trkpt>
      <trkpt lat="45.4791889" lon="5.9015813">
        <ele>1205.5</ele>
      </trkpt>
      <trkpt lat="45.4792942" lon="5.9015921">
        <ele>1208.5</ele>
      </trkpt>
      <trkpt lat="45.4794089" lon="5.9015572">
        <ele>1211.5</ele>
      </trkpt>
      <trkpt lat="45.479535" lon="5.9016001">
        <ele>1215</ele>
      </trkpt>
      <trkpt lat="45.47977" lon="5.9017825">
        <ele>1220.75</ele>
      </trkpt>
      <trkpt lat="45.4798359" lon="5.9018576">
        <ele>1222.5</ele>
      </trkpt>
      <trkpt lat="45.4799261" lon="5.9019113">
        <ele>1224.25</ele>
      </trkpt>
      <trkpt lat="45.4801988" lon="5.9017852">
        <ele>1225.75</ele>
      </trkpt>
      <trkpt lat="45.4805204" lon="5.902099">
        <ele>1237.75</ele>
      </trkpt>
      <trkpt lat="45.4807818" lon="5.9023055">
        <ele>1248</ele>
      </trkpt>
      <trkpt lat="45.4810225" lon="5.9023404">
        <ele>1252.25</ele>
      </trkpt>
      <trkpt lat="45.4812087" lon="5.9024262">
        <ele>1256</ele>
      </trkpt>
      <trkpt lat="45.4815153" lon="5.902606">
        <ele>1268</ele>
      </trkpt>
      <trkpt lat="45.4819666" lon="5.9025791">
        <ele>1275</ele>
      </trkpt>
      <trkpt lat="45.4822431" lon="5.9025711">
        <ele>1279</ele>
      </trkpt>
      <trkpt lat="45.4824593" lon="5.9025282">
        <ele>1279.25</ele>
      </trkpt>
      <trkpt lat="45.4831815" lon="5.9024987">
        <ele>1281.5</ele>
      </trkpt>
      <trkpt lat="45.4837475" lon="5.9027508">
        <ele>1296.75</ele>
      </trkpt>
      <trkpt lat="45.4841518" lon="5.9028634">
        <ele>1306</ele>
      </trkpt>
      <trkpt lat="45.4845655" lon="5.9029707">
        <ele>1315.5</ele>
      </trkpt>
      <trkpt lat="45.4850338" lon="5.9030887">
        <ele>1329</ele>
      </trkpt>
      <trkpt lat="45.4850714" lon="5.9031639">
        <ele>1334</ele>
      </trkpt>
      <trkpt lat="45.4851297" lon="5.9032041">
        <ele>1337.5</ele>
      </trkpt>
      <trkpt lat="45.4850432" lon="5.9033597">
        <ele>1342</ele>
      </trkpt>
      <trkpt lat="45.484951" lon="5.9034267">
        <ele>1342.5</ele>
      </trkpt>
      <trkpt lat="45.4849021" lon="5.9034911">
        <ele>1344.25</ele>
      </trkpt>
      <trkpt lat="45.4850582" lon="5.9034428">
        <ele>1346.5</ele>
      </trkpt>
      <trkpt lat="45.4851616" lon="5.9034455">
        <ele>1349.75</ele>
      </trkpt>
      <trkpt lat="45.4852312" lon="5.9034455">
        <ele>1351.75</ele>
      </trkpt>
      <trkpt lat="45.4852594" lon="5.9036145">
        <ele>1359.25</ele>
      </trkpt>
      <trkpt lat="45.4852105" lon="5.9039176">
        <ele>1370.5</ele>
      </trkpt>
      <trkpt lat="45.4854399" lon="5.9039873">
        <ele>1379.5</ele>
      </trkpt>
      <trkpt lat="45.485769" lon="5.9038854">
        <ele>1388.25</ele>
      </trkpt>
      <trkpt lat="45.4859025" lon="5.9038237">
        <ele>1391</ele>
      </trkpt>
      <trkpt lat="45.4861432" lon="5.9038666">
        <ele>1404.5</ele>
      </trkpt>
      <trkpt lat="45.4863933" lon="5.9038451">
        <ele>1414</ele>
      </trkpt>
      <trkpt lat="45.4865927" lon="5.9039095">
        <ele>1425.75</ele>
      </trkpt>
      <trkpt lat="45.4867186" lon="5.9041241">
        <ele>1440.5</ele>
      </trkpt>
      <trkpt lat="45.4867186" lon="5.9041214">
        <ele>1440.523</ele>
      </trkpt>
      <trkpt lat="45.4867186" lon="5.9041241">
        <ele>1440.5</ele>
      </trkpt>
      <trkpt lat="45.4868954" lon="5.9039792">
        <ele>1443</ele>
      </trkpt>
      <trkpt lat="45.4871643" lon="5.9040838">
        <ele>1462.25</ele>
      </trkpt>
      <trkpt lat="45.4872" lon="5.9041965">
        <ele>1468</ele>
      </trkpt>
      <trkpt lat="45.4871474" lon="5.9045184">
        <ele>1476.25</ele>
      </trkpt>
      <trkpt lat="45.4871342" lon="5.9046283">
        <ele>1479.5</ele>
      </trkpt>
      <trkpt lat="45.487232" lon="5.9046847">
        <ele>1486</ele>
      </trkpt>
      <trkpt lat="45.4872677" lon="5.9047544">
        <ele>1489</ele>
      </trkpt>
      <trkpt lat="45.4874915" lon="5.9045345">
        <ele>1498</ele>
      </trkpt>
      <trkpt lat="45.4876457" lon="5.9042341">
        <ele>1501.75</ele>
      </trkpt>
      <trkpt lat="45.4876889" lon="5.9041241">
        <ele>1500.75</ele>
      </trkpt>
      <trkpt lat="45.4878995" lon="5.9037754">
        <ele>1497.75</ele>
      </trkpt>
      <trkpt lat="45.4882925" lon="5.9034026">
        <ele>1500.5</ele>
      </trkpt>
      <trkpt lat="45.4884956" lon="5.9031639">
        <ele>1503</ele>
      </trkpt>
      <trkpt lat="45.4886649" lon="5.9030217">
        <ele>1510.5</ele>
      </trkpt>
      <trkpt lat="45.4888867" lon="5.9028125">
        <ele>1519.5</ele>
      </trkpt>
      <trkpt lat="45.4889826" lon="5.9026998">
        <ele>1523</ele>
      </trkpt>
      <trkpt lat="45.4891124" lon="5.9025067">
        <ele>1525.5</ele>
      </trkpt>
      <trkpt lat="45.4892402" lon="5.9022599">
        <ele>1527.25</ele>
      </trkpt>
      <trkpt lat="45.4893568" lon="5.9020802">
        <ele>1530.75</ele>
      </trkpt>
      <trkpt lat="45.4895373" lon="5.9019434">
        <ele>1537.5</ele>
      </trkpt>
      <trkpt lat="45.4896539" lon="5.9018496">
        <ele>1540.5</ele>
      </trkpt>
      <trkpt lat="45.4898043" lon="5.901525">
        <ele>1539.75</ele>
      </trkpt>
      <trkpt lat="45.4898702" lon="5.9014741">
        <ele>1538.75</ele>
      </trkpt>
      <trkpt lat="45.4900902" lon="5.9014311">
        <ele>1544</ele>
      </trkpt>
      <trkpt lat="45.490203" lon="5.901356">
        <ele>1544.5</ele>
      </trkpt>
      <trkpt lat="45.4903346" lon="5.9011602">
        <ele>1543.75</ele>
      </trkpt>
      <trkpt lat="45.4903534" lon="5.9010959">
        <ele>1543.606</ele>
      </trkpt>
      <trkpt lat="45.490438" lon="5.9009725">
        <ele>1543.25</ele>
      </trkpt>
      <trkpt lat="45.4904343" lon="5.9008518">
        <ele>1541.75</ele>
      </trkpt>
      <trkpt lat="45.4904662" lon="5.9006828">
        <ele>1539.5</ele>
      </trkpt>
      <trkpt lat="45.4905565" lon="5.9004146">
        <ele>1536.25</ele>
      </trkpt>
      <trkpt lat="45.4906354" lon="5.9000632">
        <ele>1535.25</ele>
      </trkpt>
      <trkpt lat="45.4907107" lon="5.8998916">
        <ele>1534.5</ele>
      </trkpt>
      <trkpt lat="45.4908686" lon="5.8996314">
        <ele>1533.25</ele>
      </trkpt>
      <trkpt lat="45.4909739" lon="5.89939">
        <ele>1535.25</ele>
      </trkpt>
      <trkpt lat="45.4910435" lon="5.8990654">
        <ele>1539.25</ele>
      </trkpt>
      <trkpt lat="45.4911281" lon="5.898706">
        <ele>1540.75</ele>
      </trkpt>
      <trkpt lat="45.4912202" lon="5.8981749">
        <ele>1543.25</ele>
      </trkpt>
      <trkpt lat="45.4912334" lon="5.8979738">
        <ele>1540.5</ele>
      </trkpt>
      <trkpt lat="45.4912823" lon="5.8979174">
        <ele>1541.25</ele>
      </trkpt>
      <trkpt lat="45.4913857" lon="5.8978719">
        <ele>1542.747</ele>
      </trkpt>
      <trkpt lat="45.4914722" lon="5.897778">
        <ele>1544.25</ele>
      </trkpt>
      <trkpt lat="45.4915305" lon="5.8976975">
        <ele>1543</ele>
      </trkpt>
      <trkpt lat="45.4915399" lon="5.8976841">
        <ele>1542.601</ele>
      </trkpt>
      <trkpt lat="45.4915399" lon="5.8976841">
        <ele>1542.601</ele>
      </trkpt>
      <trkpt lat="45.4915887" lon="5.8975822">
        <ele>1540</ele>
      </trkpt>
      <trkpt lat="45.4916358" lon="5.8975312">
        <ele>1539</ele>
      </trkpt>
      <trkpt lat="45.4917147" lon="5.8975232">
        <ele>1539.25</ele>
      </trkpt>
      <trkpt lat="45.4917599" lon="5.8973891">
        <ele>1535.5</ele>
      </trkpt>
      <trkpt lat="45.4918313" lon="5.897314">
        <ele>1533.5</ele>
      </trkpt>
      <trkpt lat="45.4918727" lon="5.8973274">
        <ele>1534.25</ele>
      </trkpt>
      <trkpt lat="45.4918933" lon="5.897373">
        <ele>1536</ele>
      </trkpt>
      <trkpt lat="45.4920268" lon="5.897491">
        <ele>1538.75</ele>
      </trkpt>
      <trkpt lat="45.4921547" lon="5.8974132">
        <ele>1536.25</ele>
      </trkpt>
      <trkpt lat="45.4922074" lon="5.8973354">
        <ele>1533.5</ele>
      </trkpt>
      <trkpt lat="45.4923164" lon="5.8973274">
        <ele>1530.5</ele>
      </trkpt>
      <trkpt lat="45.4925157" lon="5.8972925">
        <ele>1518</ele>
      </trkpt>
      <trkpt lat="45.4925627" lon="5.8972925">
        <ele>1514.25</ele>
      </trkpt>
      <trkpt lat="45.4925872" lon="5.8972147">
        <ele>1509.25</ele>
      </trkpt>
      <trkpt lat="45.4925759" lon="5.8971557">
        <ele>1507.5</ele>
      </trkpt>
      <trkpt lat="45.4925608" lon="5.8970752">
        <ele>1504.75</ele>
      </trkpt>
      <trkpt lat="45.492653" lon="5.8970243">
        <ele>1494.5</ele>
      </trkpt>
      <trkpt lat="45.4927376" lon="5.8970994">
        <ele>1492</ele>
      </trkpt>
      <trkpt lat="45.4928034" lon="5.8971557">
        <ele>1489.5</ele>
      </trkpt>
      <trkpt lat="45.4929632" lon="5.8973971">
        <ele>1485</ele>
      </trkpt>
      <trkpt lat="45.492997" lon="5.8974373">
        <ele>1484.25</ele>
      </trkpt>
      <trkpt lat="45.4930347" lon="5.89755">
        <ele>1484.5</ele>
      </trkpt>
      <trkpt lat="45.4931174" lon="5.897499">
        <ele>1480.25</ele>
      </trkpt>
      <trkpt lat="45.4931964" lon="5.897499">
        <ele>1477.75</ele>
      </trkpt>
      <trkpt lat="45.4932152" lon="5.8973944">
        <ele>1476.25</ele>
      </trkpt>
      <trkpt lat="45.493264" lon="5.8972415">
        <ele>1472.25</ele>
      </trkpt>
      <trkpt lat="45.4933392" lon="5.8971557">
        <ele>1468.75</ele>
      </trkpt>
      <trkpt lat="45.4934652" lon="5.897035">
        <ele>1463.5</ele>
      </trkpt>
      <trkpt lat="45.4935442" lon="5.8969143">
        <ele>1459</ele>
      </trkpt>
      <trkpt lat="45.4937924" lon="5.8967829">
        <ele>1448.75</ele>
      </trkpt>
      <trkpt lat="45.4940199" lon="5.8967507">
        <ele>1444</ele>
      </trkpt>
      <trkpt lat="45.4942605" lon="5.8967775">
        <ele>1442.25</ele>
      </trkpt>
      <trkpt lat="45.4948622" lon="5.8968204">
        <ele>1438.75</ele>
      </trkpt>
      <trkpt lat="45.4952608" lon="5.8964181">
        <ele>1435</ele>
      </trkpt>
      <trkpt lat="45.4951705" lon="5.8961982">
        <ele>1433.5</ele>
      </trkpt>
      <trkpt lat="45.4949036" lon="5.8962357">
        <ele>1426.25</ele>
      </trkpt>
      <trkpt lat="45.4946629" lon="5.8961767">
        <ele>1423.75</ele>
      </trkpt>
      <trkpt lat="45.4943677" lon="5.8960399">
        <ele>1420</ele>
      </trkpt>
      <trkpt lat="45.4941308" lon="5.8957368">
        <ele>1412.25</ele>
      </trkpt>
      <trkpt lat="45.4938356" lon="5.8955276">
        <ele>1407.5</ele>
      </trkpt>
      <trkpt lat="45.4937002" lon="5.8953881">
        <ele>1402.75</ele>
      </trkpt>
      <trkpt lat="45.4934652" lon="5.8950529">
        <ele>1389.25</ele>
      </trkpt>
      <trkpt lat="45.4930497" lon="5.8946666">
        <ele>1375.5</ele>
      </trkpt>
      <trkpt lat="45.4929218" lon="5.8944815">
        <ele>1367</ele>
      </trkpt>
      <trkpt lat="45.492762" lon="5.8943313">
        <ele>1361.75</ele>
      </trkpt>
      <trkpt lat="45.4923766" lon="5.894047">
        <ele>1363.5</ele>
      </trkpt>
      <trkpt lat="45.4920569" lon="5.8939371">
        <ele>1364.75</ele>
      </trkpt>
      <trkpt lat="45.491758" lon="5.8938888">
        <ele>1359.75</ele>
      </trkpt>
      <trkpt lat="45.4915023" lon="5.8939612">
        <ele>1354.75</ele>
      </trkpt>
      <trkpt lat="45.4912014" lon="5.8940765">
        <ele>1346</ele>
      </trkpt>
      <trkpt lat="45.4907163" lon="5.8942106">
        <ele>1336.25</ele>
      </trkpt>
      <trkpt lat="45.4904079" lon="5.8941999">
        <ele>1327</ele>
      </trkpt>
      <trkpt lat="45.4901766" lon="5.8942884">
        <ele>1323</ele>
      </trkpt>
      <trkpt lat="45.4900037" lon="5.8944252">
        <ele>1321.25</ele>
      </trkpt>
      <trkpt lat="45.4897536" lon="5.894621">
        <ele>1316.25</ele>
      </trkpt>
      <trkpt lat="45.4896069" lon="5.8948436">
        <ele>1315.75</ele>
      </trkpt>
      <trkpt lat="45.4893662" lon="5.8949617">
        <ele>1310.5</ele>
      </trkpt>
      <trkpt lat="45.4890597" lon="5.895026">
        <ele>1302.75</ele>
      </trkpt>
      <trkpt lat="45.4886893" lon="5.8950931">
        <ele>1292</ele>
      </trkpt>
      <trkpt lat="45.4883621" lon="5.8950287">
        <ele>1282.25</ele>
      </trkpt>
      <trkpt lat="45.4879898" lon="5.8948383">
        <ele>1276</ele>
      </trkpt>
      <trkpt lat="45.4874069" lon="5.8947095">
        <ele>1281</ele>
      </trkpt>
      <trkpt lat="45.4872696" lon="5.8946747">
        <ele>1280.75</ele>
      </trkpt>
      <trkpt lat="45.486997" lon="5.8946666">
        <ele>1280.5</ele>
      </trkpt>
      <trkpt lat="45.4868108" lon="5.8946908">
        <ele>1279</ele>
      </trkpt>
      <trkpt lat="45.4864798" lon="5.8946881">
        <ele>1269.25</ele>
      </trkpt>
      <trkpt lat="45.4862485" lon="5.8948866">
        <ele>1258.25</ele>
      </trkpt>
      <trkpt lat="45.4859326" lon="5.8952674">
        <ele>1242.75</ele>
      </trkpt>
      <trkpt lat="45.4857145" lon="5.895423">
        <ele>1238</ele>
      </trkpt>
      <trkpt lat="45.4853252" lon="5.8956698">
        <ele>1223</ele>
      </trkpt>
      <trkpt lat="45.4850714" lon="5.8957475">
        <ele>1214</ele>
      </trkpt>
      <trkpt lat="45.4849473" lon="5.8957502">
        <ele>1211.25</ele>
      </trkpt>
      <trkpt lat="45.4848382" lon="5.8957717">
        <ele>1208</ele>
      </trkpt>
      <trkpt lat="45.4845824" lon="5.8957207">
        <ele>1208.5</ele>
      </trkpt>
      <trkpt lat="45.4844546" lon="5.8956107">
        <ele>1214.25</ele>
      </trkpt>
      <trkpt lat="45.4842063" lon="5.8952808">
        <ele>1217</ele>
      </trkpt>
      <trkpt lat="45.4841706" lon="5.895195">
        <ele>1214.75</ele>
      </trkpt>
      <trkpt lat="45.4841574" lon="5.8950958">
        <ele>1212.25</ele>
      </trkpt>
      <trkpt lat="45.4841763" lon="5.8950073">
        <ele>1210</ele>
      </trkpt>
      <trkpt lat="45.4842364" lon="5.8949214">
        <ele>1207.75</ele>
      </trkpt>
      <trkpt lat="45.4843305" lon="5.894849">
        <ele>1205.75</ele>
      </trkpt>
      <trkpt lat="45.4848213" lon="5.8945405">
        <ele>1199.5</ele>
      </trkpt>
      <trkpt lat="45.4851898" lon="5.8942536">
        <ele>1195.25</ele>
      </trkpt>
      <trkpt lat="45.4855246" lon="5.89387">
        <ele>1196.5</ele>
      </trkpt>
      <trkpt lat="45.4856223" lon="5.8937225">
        <ele>1197.75</ele>
      </trkpt>
      <trkpt lat="45.4857483" lon="5.8933496">
        <ele>1197.511</ele>
      </trkpt>
      <trkpt lat="45.4857483" lon="5.8933496">
        <ele>1197.511</ele>
      </trkpt>
      <trkpt lat="45.4857483" lon="5.8933496">
        <ele>1197.511</ele>
      </trkpt>
      <trkpt lat="45.4857559" lon="5.8933336">
        <ele>1197.5</ele>
      </trkpt>
      <trkpt lat="45.4858875" lon="5.8927086">
        <ele>1195.532</ele>
      </trkpt>
      <trkpt lat="45.4859834" lon="5.8923948">
        <ele>1194.5</ele>
      </trkpt>
      <trkpt lat="45.486162" lon="5.8919522">
        <ele>1192.75</ele>
      </trkpt>
      <trkpt lat="45.4864065" lon="5.891625">
        <ele>1187.25</ele>
      </trkpt>
      <trkpt lat="45.4864516" lon="5.8914426">
        <ele>1181.75</ele>
      </trkpt>
      <trkpt lat="45.4864516" lon="5.8913165">
        <ele>1178.75</ele>
      </trkpt>
      <trkpt lat="45.4863952" lon="5.8912548">
        <ele>1177.75</ele>
      </trkpt>
      <trkpt lat="45.4863313" lon="5.8912441">
        <ele>1178</ele>
      </trkpt>
      <trkpt lat="45.4862297" lon="5.8911824">
        <ele>1177.25</ele>
      </trkpt>
      <trkpt lat="45.4859533" lon="5.8912012">
        <ele>1177.5</ele>
      </trkpt>
      <trkpt lat="45.485707" lon="5.8912414">
        <ele>1172.75</ele>
      </trkpt>
      <trkpt lat="45.4855396" lon="5.8912227">
        <ele>1167.25</ele>
      </trkpt>
      <trkpt lat="45.48547" lon="5.8912414">
        <ele>1165.25</ele>
      </trkpt>
      <trkpt lat="45.4852557" lon="5.891389">
        <ele>1160</ele>
      </trkpt>
      <trkpt lat="45.4851447" lon="5.8914319">
        <ele>1157</ele>
      </trkpt>
      <trkpt lat="45.4850676" lon="5.8914238">
        <ele>1155</ele>
      </trkpt>
      <trkpt lat="45.4849717" lon="5.8913675">
        <ele>1151.25</ele>
      </trkpt>
      <trkpt lat="45.4848175" lon="5.8911717">
        <ele>1140.5</ele>
      </trkpt>
      <trkpt lat="45.4847103" lon="5.8910671">
        <ele>1134.25</ele>
      </trkpt>
      <trkpt lat="45.4845486" lon="5.8909678">
        <ele>1127.75</ele>
      </trkpt>
      <trkpt lat="45.4842985" lon="5.8909142">
        <ele>1121.5</ele>
      </trkpt>
      <trkpt lat="45.4841462" lon="5.8907881">
        <ele>1114</ele>
      </trkpt>
      <trkpt lat="45.4840916" lon="5.8907774">
        <ele>1112.25</ele>
      </trkpt>
      <trkpt lat="45.4840277" lon="5.8907989">
        <ele>1110.75</ele>
      </trkpt>
      <trkpt lat="45.4839374" lon="5.8908713">
        <ele>1108.75</ele>
      </trkpt>
      <trkpt lat="45.4838415" lon="5.8909974">
        <ele>1105</ele>
      </trkpt>
      <trkpt lat="45.4837494" lon="5.8911878">
        <ele>1096.25</ele>
      </trkpt>
      <trkpt lat="45.4836986" lon="5.8912548">
        <ele>1091.5</ele>
      </trkpt>
      <trkpt lat="45.4836441" lon="5.8912763">
        <ele>1088</ele>
      </trkpt>
      <trkpt lat="45.4835782" lon="5.8912146">
        <ele>1083.5</ele>
      </trkpt>
      <trkpt lat="45.4835726" lon="5.8911502">
        <ele>1083.75</ele>
      </trkpt>
      <trkpt lat="45.4835989" lon="5.8909947">
        <ele>1088.5</ele>
      </trkpt>
      <trkpt lat="45.4835895" lon="5.8908579">
        <ele>1089.5</ele>
      </trkpt>
      <trkpt lat="45.4835519" lon="5.8907613">
        <ele>1087.75</ele>
      </trkpt>
      <trkpt lat="45.4834692" lon="5.8906701">
        <ele>1083.5</ele>
      </trkpt>
      <trkpt lat="45.4833639" lon="5.8906004">
        <ele>1077.5</ele>
      </trkpt>
      <trkpt lat="45.4833131" lon="5.8905387">
        <ele>1074.25</ele>
      </trkpt>
      <trkpt lat="45.4832755" lon="5.8904421">
        <ele>1071.25</ele>
      </trkpt>
      <trkpt lat="45.4832021" lon="5.8901471">
        <ele>1062.75</ele>
      </trkpt>
      <trkpt lat="45.4830216" lon="5.8897099">
        <ele>1053.25</ele>
      </trkpt>
      <trkpt lat="45.4829727" lon="5.8894712">
        <ele>1050</ele>
      </trkpt>
      <trkpt lat="45.4828505" lon="5.8891654">
        <ele>1044.25</ele>
      </trkpt>
      <trkpt lat="45.4826248" lon="5.8889052">
        <ele>1039.25</ele>
      </trkpt>
      <trkpt lat="45.4825327" lon="5.8888274">
        <ele>1038.75</ele>
      </trkpt>
      <trkpt lat="45.4822957" lon="5.8887148">
        <ele>1038.5</ele>
      </trkpt>
      <trkpt lat="45.4822092" lon="5.8886531">
        <ele>1038.25</ele>
      </trkpt>
      <trkpt lat="45.4821565" lon="5.8885834">
        <ele>1037.5</ele>
      </trkpt>
      <trkpt lat="45.4821095" lon="5.8884385">
        <ele>1034</ele>
      </trkpt>
      <trkpt lat="45.4821114" lon="5.8883259">
        <ele>1029</ele>
      </trkpt>
      <trkpt lat="45.4821359" lon="5.8882454">
        <ele>1024.75</ele>
      </trkpt>
      <trkpt lat="45.4821866" lon="5.8881944">
        <ele>1021.5</ele>
      </trkpt>
      <trkpt lat="45.4824969" lon="5.8882052">
        <ele>1014.5</ele>
      </trkpt>
      <trkpt lat="45.4826474" lon="5.8881274">
        <ele>1014.5</ele>
      </trkpt>
      <trkpt lat="45.4826831" lon="5.8879691">
        <ele>1014</ele>
      </trkpt>
      <trkpt lat="45.4826361" lon="5.8877304">
        <ele>1020.75</ele>
      </trkpt>
      <trkpt lat="45.4825026" lon="5.8874676">
        <ele>1025.75</ele>
      </trkpt>
      <trkpt lat="45.4821697" lon="5.8870491">
        <ele>1031.25</ele>
      </trkpt>
      <trkpt lat="45.4816732" lon="5.8866495">
        <ele>1033.5</ele>
      </trkpt>
      <trkpt lat="45.4813065" lon="5.886569">
        <ele>1041.25</ele>
      </trkpt>
      <trkpt lat="45.4810996" lon="5.8864912">
        <ele>1045.5</ele>
      </trkpt>
      <trkpt lat="45.4810075" lon="5.8863008">
        <ele>1048</ele>
      </trkpt>
      <trkpt lat="45.4811015" lon="5.8861774">
        <ele>1050.25</ele>
      </trkpt>
      <trkpt lat="45.4810921" lon="5.8856544">
        <ele>1056.5</ele>
      </trkpt>
      <trkpt lat="45.481062" lon="5.8855981">
        <ele>1057</ele>
      </trkpt>
      <trkpt lat="45.4809906" lon="5.8855793">
        <ele>1057.125</ele>
      </trkpt>
      <trkpt lat="45.4809229" lon="5.8855417">
        <ele>1057.25</ele>
      </trkpt>
      <trkpt lat="45.4808834" lon="5.8854613">
        <ele>1058</ele>
      </trkpt>
      <trkpt lat="45.4808683" lon="5.8853057">
        <ele>1060</ele>
      </trkpt>
      <trkpt lat="45.4808796" lon="5.8848444">
        <ele>1068.25</ele>
      </trkpt>
      <trkpt lat="45.4809624" lon="5.8847076">
        <ele>1071.75</ele>
      </trkpt>
      <trkpt lat="45.4810357" lon="5.8846405">
        <ele>1075.318</ele>
      </trkpt>
      <trkpt lat="45.4810921" lon="5.8846244">
        <ele>1075.75</ele>
      </trkpt>
      <trkpt lat="45.4811448" lon="5.8845681">
        <ele>1077.5</ele>
      </trkpt>
      <trkpt lat="45.4812106" lon="5.8845922">
        <ele>1078</ele>
      </trkpt>
      <trkpt lat="45.481267" lon="5.8844957">
        <ele>1080.25</ele>
      </trkpt>
      <trkpt lat="45.4813347" lon="5.8843803">
        <ele>1082.25</ele>
      </trkpt>
      <trkpt lat="45.4813799" lon="5.8842838">
        <ele>1083.75</ele>
      </trkpt>
      <trkpt lat="45.48144" lon="5.8841228">
        <ele>1086</ele>
      </trkpt>
      <trkpt lat="45.4814382" lon="5.8840504">
        <ele>1087.25</ele>
      </trkpt>
      <trkpt lat="45.4814175" lon="5.8839619">
        <ele>1089</ele>
      </trkpt>
      <trkpt lat="45.48144" lon="5.8838198">
        <ele>1093.25</ele>
      </trkpt>
      <trkpt lat="45.4815905" lon="5.8836159">
        <ele>1101.25</ele>
      </trkpt>
      <trkpt lat="45.4818086" lon="5.883455">
        <ele>1110.25</ele>
      </trkpt>
      <trkpt lat="45.4820117" lon="5.8834764">
        <ele>1113.25</ele>
      </trkpt>
      <trkpt lat="45.4821321" lon="5.8834228">
        <ele>1116.75</ele>
      </trkpt>
      <trkpt lat="45.4825082" lon="5.8834228">
        <ele>1119</ele>
      </trkpt>
      <trkpt lat="45.4827264" lon="5.8830151">
        <ele>1124.25</ele>
      </trkpt>
      <trkpt lat="45.4828166" lon="5.8828971">
        <ele>1125.111</ele>
      </trkpt>
      <trkpt lat="45.4828994" lon="5.8825323">
        <ele>1127</ele>
      </trkpt>
      <trkpt lat="45.4829558" lon="5.8823714">
        <ele>1127.75</ele>
      </trkpt>
      <trkpt lat="45.4829972" lon="5.8821836">
        <ele>1129.5</ele>
      </trkpt>
      <trkpt lat="45.4830348" lon="5.8820227">
        <ele>1130.75</ele>
      </trkpt>
      <trkpt lat="45.4830573" lon="5.881733">
        <ele>1134</ele>
      </trkpt>
      <trkpt lat="45.4830555" lon="5.8814755">
        <ele>1137.75</ele>
      </trkpt>
      <trkpt lat="45.4831175" lon="5.8811188">
        <ele>1140.25</ele>
      </trkpt>
      <trkpt lat="45.4832097" lon="5.8806789">
        <ele>1145.25</ele>
      </trkpt>
      <trkpt lat="45.4834861" lon="5.8800486">
        <ele>1159.25</ele>
      </trkpt>
      <trkpt lat="45.4836083" lon="5.8795899">
        <ele>1170.75</ele>
      </trkpt>
      <trkpt lat="45.4837964" lon="5.8793136">
        <ele>1178.25</ele>
      </trkpt>
      <trkpt lat="45.484101" lon="5.8790401">
        <ele>1190.75</ele>
      </trkpt>
      <trkpt lat="45.4843079" lon="5.8789113">
        <ele>1199.75</ele>
      </trkpt>
      <trkpt lat="45.484417" lon="5.8787343">
        <ele>1204.25</ele>
      </trkpt>
      <trkpt lat="45.4842251" lon="5.8784661">
        <ele>1214.75</ele>
      </trkpt>
      <trkpt lat="45.4840935" lon="5.8782086">
        <ele>1222.25</ele>
      </trkpt>
      <trkpt lat="45.484118" lon="5.8781764">
        <ele>1223.25</ele>
      </trkpt>
      <trkpt lat="45.4843887" lon="5.8780906">
        <ele>1220.979</ele>
      </trkpt>
      <trkpt lat="45.4847122" lon="5.8777687">
        <ele>1217.75</ele>
      </trkpt>
      <trkpt lat="45.4847573" lon="5.8776829">
        <ele>1218</ele>
      </trkpt>
      <trkpt lat="45.4849078" lon="5.8775434">
        <ele>1217.75</ele>
      </trkpt>
      <trkpt lat="45.4850112" lon="5.8774924">
        <ele>1219.5</ele>
      </trkpt>
      <trkpt lat="45.485171" lon="5.8775648">
        <ele>1217.75</ele>
      </trkpt>
      <trkpt lat="45.4857201" lon="5.8774361">
        <ele>1229.5</ele>
      </trkpt>
      <trkpt lat="45.4860962" lon="5.8769962">
        <ele>1238.5</ele>
      </trkpt>
      <trkpt lat="45.4862579" lon="5.8765993">
        <ele>1243.25</ele>
      </trkpt>
      <trkpt lat="45.4865005" lon="5.8762801">
        <ele>1251.75</ele>
      </trkpt>
      <trkpt lat="45.4865833" lon="5.8760762">
        <ele>1257.5</ele>
      </trkpt>
      <trkpt lat="45.4867299" lon="5.8760092">
        <ele>1264.25</ele>
      </trkpt>
      <trkpt lat="45.4869405" lon="5.8757544">
        <ele>1275.5</ele>
      </trkpt>
      <trkpt lat="45.4870534" lon="5.8755827">
        <ele>1281.75</ele>
      </trkpt>
      <trkpt lat="45.4871267" lon="5.8754513">
        <ele>1286.5</ele>
      </trkpt>
      <trkpt lat="45.4874069" lon="5.8751965">
        <ele>1306</ele>
      </trkpt>
      <trkpt lat="45.4874332" lon="5.8751535">
        <ele>1307.657</ele>
      </trkpt>
      <trkpt lat="45.4874332" lon="5.8751535">
        <ele>1307.657</ele>
      </trkpt>
      <trkpt lat="45.4874332" lon="5.8751535">
        <ele>1307.657</ele>
      </trkpt>
      <trkpt lat="45.4875554" lon="5.8749256">
        <ele>1316</ele>
      </trkpt>
      <trkpt lat="45.4877228" lon="5.8745903">
        <ele>1321.75</ele>
      </trkpt>
      <trkpt lat="45.4877059" lon="5.8743703">
        <ele>1318.25</ele>
      </trkpt>
      <trkpt lat="45.4877792" lon="5.8742121">
        <ele>1309.5</ele>
      </trkpt>
      <trkpt lat="45.4878018" lon="5.8740404">
        <ele>1297.75</ele>
      </trkpt>
      <trkpt lat="45.4879616" lon="5.8740646">
        <ele>1294.75</ele>
      </trkpt>
      <trkpt lat="45.48827" lon="5.8742175">
        <ele>1295.5</ele>
      </trkpt>
      <trkpt lat="45.4883527" lon="5.8741638">
        <ele>1290.75</ele>
      </trkpt>
      <trkpt lat="45.4890221" lon="5.8738205">
        <ele>1260.75</ele>
      </trkpt>
      <trkpt lat="45.489165" lon="5.873917">
        <ele>1261.5</ele>
      </trkpt>
      <trkpt lat="45.489323" lon="5.8736703">
        <ele>1250.25</ele>
      </trkpt>
      <trkpt lat="45.4895411" lon="5.8735844">
        <ele>1244</ele>
      </trkpt>
      <trkpt lat="45.4896238" lon="5.8734557">
        <ele>1239.5</ele>
      </trkpt>
      <trkpt lat="45.4898495" lon="5.8732948">
        <ele>1234</ele>
      </trkpt>
      <trkpt lat="45.4899548" lon="5.8731768">
        <ele>1231.75</ele>
      </trkpt>
      <trkpt lat="45.4900225" lon="5.8729836">
        <ele>1228.75</ele>
      </trkpt>
      <trkpt lat="45.4900074" lon="5.8727047">
        <ele>1224</ele>
      </trkpt>
      <trkpt lat="45.489857" lon="5.8726081">
        <ele>1222.75</ele>
      </trkpt>
      <trkpt lat="45.4890973" lon="5.8726081">
        <ele>1226</ele>
      </trkpt>
      <trkpt lat="45.488819" lon="5.8726725">
        <ele>1229.75</ele>
      </trkpt>
      <trkpt lat="45.4882249" lon="5.8723506">
        <ele>1228.75</ele>
      </trkpt>
      <trkpt lat="45.4876457" lon="5.8718035">
        <ele>1231.25</ele>
      </trkpt>
      <trkpt lat="45.487578" lon="5.8716425">
        <ele>1233.25</ele>
      </trkpt>
      <trkpt lat="45.4866754" lon="5.8715352">
        <ele>1252.25</ele>
      </trkpt>
      <trkpt lat="45.48654" lon="5.8714065">
        <ele>1255.25</ele>
      </trkpt>
      <trkpt lat="45.4864648" lon="5.8712134">
        <ele>1255.5</ele>
      </trkpt>
      <trkpt lat="45.4863444" lon="5.8710632">
        <ele>1257.25</ele>
      </trkpt>
      <trkpt lat="45.4861714" lon="5.8706447">
        <ele>1258.25</ele>
      </trkpt>
      <trkpt lat="45.4860135" lon="5.8705911">
        <ele>1263.25</ele>
      </trkpt>
      <trkpt lat="45.4858029" lon="5.8703122">
        <ele>1267.25</ele>
      </trkpt>
      <trkpt lat="45.4856148" lon="5.8700976">
        <ele>1270.5</ele>
      </trkpt>
      <trkpt lat="45.4854418" lon="5.869883">
        <ele>1274.25</ele>
      </trkpt>
      <trkpt lat="45.485344" lon="5.8697113">
        <ele>1277</ele>
      </trkpt>
      <trkpt lat="45.4852162" lon="5.8693573">
        <ele>1280</ele>
      </trkpt>
      <trkpt lat="45.4850056" lon="5.8691213">
        <ele>1285.75</ele>
      </trkpt>
      <trkpt lat="45.4848175" lon="5.8690247">
        <ele>1290.5</ele>
      </trkpt>
      <trkpt lat="45.4844395" lon="5.8686841">
        <ele>1301.75</ele>
      </trkpt>
      <trkpt lat="45.4840954" lon="5.8681771">
        <ele>1309</ele>
      </trkpt>
      <trkpt lat="45.4838697" lon="5.8678874">
        <ele>1316.5</ele>
      </trkpt>
      <trkpt lat="45.4837644" lon="5.867638">
        <ele>1318.25</ele>
      </trkpt>
      <trkpt lat="45.483676" lon="5.8674771">
        <ele>1318.75</ele>
      </trkpt>
      <trkpt lat="45.4828599" lon="5.8674797">
        <ele>1325.75</ele>
      </trkpt>
      <trkpt lat="45.4809229" lon="5.8667582">
        <ele>1314.25</ele>
      </trkpt>
      <trkpt lat="45.4802741" lon="5.8667341">
        <ele>1305</ele>
      </trkpt>
      <trkpt lat="45.4792792" lon="5.8659911">
        <ele>1281.458</ele>
      </trkpt>
      <trkpt lat="45.4792792" lon="5.8659911">
        <ele>1281.458</ele>
      </trkpt>
      <trkpt lat="45.4792792" lon="5.8659911">
        <ele>1281.458</ele>
      </trkpt>
      <trkpt lat="45.4788297" lon="5.8656451">
        <ele>1270.75</ele>
      </trkpt>
      <trkpt lat="45.4777558" lon="5.8653662">
        <ele>1261</ele>
      </trkpt>
      <trkpt lat="45.4777107" lon="5.8654949">
        <ele>1261.75</ele>
      </trkpt>
      <trkpt lat="45.4776279" lon="5.8656344">
        <ele>1262.75</ele>
      </trkpt>
      <trkpt lat="45.4774737" lon="5.8657739">
        <ele>1263.25</ele>
      </trkpt>
      <trkpt lat="45.4772179" lon="5.8658704">
        <ele>1264.25</ele>
      </trkpt>
      <trkpt lat="45.4769208" lon="5.8659992">
        <ele>1267.25</ele>
      </trkpt>
      <trkpt lat="45.4764581" lon="5.8661279">
        <ele>1270.5</ele>
      </trkpt>
      <trkpt lat="45.4762813" lon="5.8662996">
        <ele>1274</ele>
      </trkpt>
      <trkpt lat="45.4759804" lon="5.8663747">
        <ele>1273.5</ele>
      </trkpt>
      <trkpt lat="45.4757998" lon="5.8664498">
        <ele>1274.25</ele>
      </trkpt>
      <trkpt lat="45.4755816" lon="5.8664712">
        <ele>1273</ele>
      </trkpt>
      <trkpt lat="45.4751453" lon="5.8666858">
        <ele>1272.5</ele>
      </trkpt>
      <trkpt lat="45.4748575" lon="5.8667931">
        <ele>1272</ele>
      </trkpt>
      <trkpt lat="45.4747127" lon="5.8668575">
        <ele>1273</ele>
      </trkpt>
      <trkpt lat="45.4745792" lon="5.8670184">
        <ele>1277.75</ele>
      </trkpt>
      <trkpt lat="45.4743083" lon="5.8670291">
        <ele>1274.25</ele>
      </trkpt>
      <trkpt lat="45.4740544" lon="5.8670399">
        <ele>1270</ele>
      </trkpt>
      <trkpt lat="45.4735127" lon="5.8673295">
        <ele>1275.25</ele>
      </trkpt>
      <trkpt lat="45.4733453" lon="5.8673832">
        <ele>1276</ele>
      </trkpt>
      <trkpt lat="45.4730387" lon="5.8674368">
        <ele>1278.5</ele>
      </trkpt>
      <trkpt lat="45.4728112" lon="5.8673832">
        <ele>1276.5</ele>
      </trkpt>
      <trkpt lat="45.472608" lon="5.8673617">
        <ele>1275.5</ele>
      </trkpt>
      <trkpt lat="45.4724594" lon="5.867469">
        <ele>1279.5</ele>
      </trkpt>
      <trkpt lat="45.4721792" lon="5.8675012">
        <ele>1278.5</ele>
      </trkpt>
      <trkpt lat="45.4720964" lon="5.8676085">
        <ele>1280</ele>
      </trkpt>
      <trkpt lat="45.4720513" lon="5.8679733">
        <ele>1287.25</ele>
      </trkpt>
      <trkpt lat="45.4718406" lon="5.8682093">
        <ele>1284.75</ele>
      </trkpt>
      <trkpt lat="45.4716017" lon="5.8683488">
        <ele>1283</ele>
      </trkpt>
      <trkpt lat="45.4713572" lon="5.8684883">
        <ele>1285.5</ele>
      </trkpt>
      <trkpt lat="45.4712782" lon="5.8686492">
        <ele>1286.494</ele>
      </trkpt>
      <trkpt lat="45.4712594" lon="5.8688959">
        <ele>1287.75</ele>
      </trkpt>
      <trkpt lat="45.4713422" lon="5.8690166">
        <ele>1287.133</ele>
      </trkpt>
      <trkpt lat="45.4713422" lon="5.8690166">
        <ele>1287.133</ele>
      </trkpt>
      <trkpt lat="45.4713422" lon="5.8690166">
        <ele>1287.133</ele>
      </trkpt>
      <trkpt lat="45.4713572" lon="5.8690462">
        <ele>1287</ele>
      </trkpt>
      <trkpt lat="45.4714795" lon="5.8691105">
        <ele>1287.5</ele>
      </trkpt>
      <trkpt lat="45.47166" lon="5.8689925">
        <ele>1289.5</ele>
      </trkpt>
      <trkpt lat="45.4717823" lon="5.8686814">
        <ele>1292.5</ele>
      </trkpt>
      <trkpt lat="45.4720231" lon="5.8685848">
        <ele>1298</ele>
      </trkpt>
      <trkpt lat="45.472292" lon="5.868499">
        <ele>1299</ele>
      </trkpt>
      <trkpt lat="45.4725554" lon="5.8684346">
        <ele>1298.75</ele>
      </trkpt>
      <trkpt lat="45.4728732" lon="5.8682522">
        <ele>1299.25</ele>
      </trkpt>
      <trkpt lat="45.4731591" lon="5.8680591">
        <ele>1304.25</ele>
      </trkpt>
      <trkpt lat="45.4734055" lon="5.8681557">
        <ele>1309</ele>
      </trkpt>
      <trkpt lat="45.4737366" lon="5.8682415">
        <ele>1317.25</ele>
      </trkpt>
      <trkpt lat="45.4737215" lon="5.8684453">
        <ele>1316.5</ele>
      </trkpt>
      <trkpt lat="45.4737685" lon="5.8685848">
        <ele>1318.75</ele>
      </trkpt>
      <trkpt lat="45.4739246" lon="5.8688959">
        <ele>1324.25</ele>
      </trkpt>
      <trkpt lat="45.4740525" lon="5.869132">
        <ele>1326.25</ele>
      </trkpt>
      <trkpt lat="45.4739547" lon="5.8692393">
        <ele>1323.25</ele>
      </trkpt>
      <trkpt lat="45.4738287" lon="5.8692393">
        <ele>1320.25</ele>
      </trkpt>
      <trkpt lat="45.4737441" lon="5.8692607">
        <ele>1318.75</ele>
      </trkpt>
      <trkpt lat="45.4735579" lon="5.8695075">
        <ele>1322</ele>
      </trkpt>
      <trkpt lat="45.4733604" lon="5.869765">
        <ele>1324.25</ele>
      </trkpt>
      <trkpt lat="45.4732193" lon="5.8701083">
        <ele>1328.25</ele>
      </trkpt>
      <trkpt lat="45.4731441" lon="5.870398">
        <ele>1330.5</ele>
      </trkpt>
      <trkpt lat="45.4731892" lon="5.8706126">
        <ele>1335.25</ele>
      </trkpt>
      <trkpt lat="45.4733077" lon="5.8707735">
        <ele>1338.25</ele>
      </trkpt>
      <trkpt lat="45.4735033" lon="5.8708486">
        <ele>1340.5</ele>
      </trkpt>
      <trkpt lat="45.4736312" lon="5.8709237">
        <ele>1341.5</ele>
      </trkpt>
      <trkpt lat="45.473682" lon="5.8711168">
        <ele>1340</ele>
      </trkpt>
      <trkpt lat="45.4737761" lon="5.8712563">
        <ele>1339.5</ele>
      </trkpt>
      <trkpt lat="45.4739246" lon="5.8712777">
        <ele>1341</ele>
      </trkpt>
      <trkpt lat="45.4742256" lon="5.8712134">
        <ele>1343.75</ele>
      </trkpt>
      <trkpt lat="45.4745491" lon="5.8711061">
        <ele>1347.75</ele>
      </trkpt>
      <trkpt lat="45.4748594" lon="5.871031">
        <ele>1348.25</ele>
      </trkpt>
      <trkpt lat="45.4752826" lon="5.8711866">
        <ele>1342.5</ele>
      </trkpt>
      <trkpt lat="45.4755741" lon="5.8710364">
        <ele>1344</ele>
      </trkpt>
      <trkpt lat="45.4760744" lon="5.8707869">
        <ele>1346</ele>
      </trkpt>
      <trkpt lat="45.4764976" lon="5.8707145">
        <ele>1344.25</ele>
      </trkpt>
      <trkpt lat="45.4767496" lon="5.8706474">
        <ele>1342.25</ele>
      </trkpt>
      <trkpt lat="45.4770731" lon="5.8704999">
        <ele>1337.5</ele>
      </trkpt>
      <trkpt lat="45.4775903" lon="5.870162">
        <ele>1340.5</ele>
      </trkpt>
      <trkpt lat="45.4785495" lon="5.8701834">
        <ele>1342.25</ele>
      </trkpt>
      <trkpt lat="45.4789707" lon="5.8703336">
        <ele>1339.5</ele>
      </trkpt>
      <trkpt lat="45.4791983" lon="5.8704382">
        <ele>1337.25</ele>
      </trkpt>
      <trkpt lat="45.4792491" lon="5.8704919">
        <ele>1336.5</ele>
      </trkpt>
      <trkpt lat="45.4792717" lon="5.8705965">
        <ele>1335.25</ele>
      </trkpt>
      <trkpt lat="45.479234" lon="5.870685">
        <ele>1334</ele>
      </trkpt>
      <trkpt lat="45.4792115" lon="5.8707118">
        <ele>1333.663</ele>
      </trkpt>
      <trkpt lat="45.4792115" lon="5.8707118">
        <ele>1333.663</ele>
      </trkpt>
      <trkpt lat="45.4792115" lon="5.8707118">
        <ele>1333.663</ele>
      </trkpt>
      <trkpt lat="45.478888" lon="5.8710632">
        <ele>1329</ele>
      </trkpt>
      <trkpt lat="45.4788052" lon="5.8711919">
        <ele>1327.75</ele>
      </trkpt>
      <trkpt lat="45.4787789" lon="5.8713314">
        <ele>1326.75</ele>
      </trkpt>
      <trkpt lat="45.4787808" lon="5.8714816">
        <ele>1326.5</ele>
      </trkpt>
      <trkpt lat="45.4788034" lon="5.8716184">
        <ele>1327.25</ele>
      </trkpt>
      <trkpt lat="45.4788598" lon="5.8716989">
        <ele>1329.25</ele>
      </trkpt>
      <trkpt lat="45.4797907" lon="5.8722433">
        <ele>1338.416</ele>
      </trkpt>
      <trkpt lat="45.479881" lon="5.8722648">
        <ele>1339.25</ele>
      </trkpt>
      <trkpt lat="45.4799167" lon="5.8723292">
        <ele>1338</ele>
      </trkpt>
      <trkpt lat="45.4798998" lon="5.8723935">
        <ele>1336.75</ele>
      </trkpt>
      <trkpt lat="45.4797719" lon="5.8724257">
        <ele>1335.25</ele>
      </trkpt>
      <trkpt lat="45.4793713" lon="5.8726591">
        <ele>1328.5</ele>
      </trkpt>
      <trkpt lat="45.4787695" lon="5.873048">
        <ele>1320.25</ele>
      </trkpt>
      <trkpt lat="45.4786792" lon="5.8731177">
        <ele>1319.75</ele>
      </trkpt>
      <trkpt lat="45.4786379" lon="5.8731902">
        <ele>1320.25</ele>
      </trkpt>
      <trkpt lat="45.4786604" lon="5.8732921">
        <ele>1322.25</ele>
      </trkpt>
      <trkpt lat="45.4788128" lon="5.873445">
        <ele>1327.25</ele>
      </trkpt>
      <trkpt lat="45.479014" lon="5.8737266">
        <ele>1329.833</ele>
      </trkpt>
      <trkpt lat="45.4790196" lon="5.873791">
        <ele>1330.25</ele>
      </trkpt>
      <trkpt lat="45.4790027" lon="5.8738366">
        <ele>1329.75</ele>
      </trkpt>
      <trkpt lat="45.4790046" lon="5.8739063">
        <ele>1329.25</ele>
      </trkpt>
      <trkpt lat="45.4790366" lon="5.8739734">
        <ele>1329</ele>
      </trkpt>
      <trkpt lat="45.4790986" lon="5.8740029">
        <ele>1329.25</ele>
      </trkpt>
      <trkpt lat="45.4793074" lon="5.874145">
        <ele>1327.75</ele>
      </trkpt>
      <trkpt lat="45.4794823" lon="5.8742604">
        <ele>1323.75</ele>
      </trkpt>
      <trkpt lat="45.4795632" lon="5.8743274">
        <ele>1321</ele>
      </trkpt>
      <trkpt lat="45.4796102" lon="5.8743677">
        <ele>1319.5</ele>
      </trkpt>
      <trkpt lat="45.4798283" lon="5.8743998">
        <ele>1315</ele>
      </trkpt>
      <trkpt lat="45.4799111" lon="5.8745286">
        <ele>1312</ele>
      </trkpt>
      <trkpt lat="45.4799374" lon="5.8748075">
        <ele>1308.25</ele>
      </trkpt>
      <trkpt lat="45.4799374" lon="5.8752045">
        <ele>1303.5</ele>
      </trkpt>
      <trkpt lat="45.4799337" lon="5.8754191">
        <ele>1302.5</ele>
      </trkpt>
      <trkpt lat="45.4798584" lon="5.8756551">
        <ele>1308.25</ele>
      </trkpt>
      <trkpt lat="45.4798584" lon="5.875816">
        <ele>1308</ele>
      </trkpt>
      <trkpt lat="45.4799412" lon="5.8761808">
        <ele>1306.25</ele>
      </trkpt>
      <trkpt lat="45.4801142" lon="5.8765671">
        <ele>1305</ele>
      </trkpt>
      <trkpt lat="45.4802045" lon="5.8767119">
        <ele>1304.25</ele>
      </trkpt>
      <trkpt lat="45.4802364" lon="5.8768219">
        <ele>1304</ele>
      </trkpt>
      <trkpt lat="45.4802082" lon="5.8769533">
        <ele>1305.5</ele>
      </trkpt>
      <trkpt lat="45.4800935" lon="5.8772108">
        <ele>1307</ele>
      </trkpt>
      <trkpt lat="45.479881" lon="5.8774468">
        <ele>1308.5</ele>
      </trkpt>
      <trkpt lat="45.4797456" lon="5.877479">
        <ele>1306</ele>
      </trkpt>
      <trkpt lat="45.4794973" lon="5.8773288">
        <ele>1303.5</ele>
      </trkpt>
      <trkpt lat="45.479219" lon="5.8772108">
        <ele>1301</ele>
      </trkpt>
      <trkpt lat="45.4788654" lon="5.877125">
        <ele>1296.25</ele>
      </trkpt>
      <trkpt lat="45.478525" lon="5.8770391">
        <ele>1299</ele>
      </trkpt>
      <trkpt lat="45.4784536" lon="5.8770525">
        <ele>1299.25</ele>
      </trkpt>
      <trkpt lat="45.478273" lon="5.8771679">
        <ele>1298.25</ele>
      </trkpt>
      <trkpt lat="45.4779702" lon="5.877361">
        <ele>1299</ele>
      </trkpt>
      <trkpt lat="45.4776054" lon="5.8775648">
        <ele>1294</ele>
      </trkpt>
      <trkpt lat="45.4774756" lon="5.877699">
        <ele>1291.171</ele>
      </trkpt>
      <trkpt lat="45.4773872" lon="5.8777472">
        <ele>1289.5</ele>
      </trkpt>
      <trkpt lat="45.4771991" lon="5.8777902">
        <ele>1291.75</ele>
      </trkpt>
      <trkpt lat="45.4769621" lon="5.8778438">
        <ele>1296</ele>
      </trkpt>
      <trkpt lat="45.4767778" lon="5.8778545">
        <ele>1297.75</ele>
      </trkpt>
      <trkpt lat="45.4766537" lon="5.8779833">
        <ele>1297.25</ele>
      </trkpt>
      <trkpt lat="45.4765559" lon="5.8781335">
        <ele>1295.5</ele>
      </trkpt>
      <trkpt lat="45.4764468" lon="5.8784124">
        <ele>1291.5</ele>
      </trkpt>
      <trkpt lat="45.4764355" lon="5.8784366">
        <ele>1291.286</ele>
      </trkpt>
      <trkpt lat="45.4764355" lon="5.8784366">
        <ele>1291.286</ele>
      </trkpt>
      <trkpt lat="45.4764355" lon="5.8784366">
        <ele>1291.286</ele>
      </trkpt>
      <trkpt lat="45.4763377" lon="5.8785412">
        <ele>1290</ele>
      </trkpt>
      <trkpt lat="45.4761572" lon="5.8785519">
        <ele>1291</ele>
      </trkpt>
      <trkpt lat="45.4761177" lon="5.8827737">
        <ele>1119</ele>
      </trkpt>
      <trkpt lat="45.4759635" lon="5.8833236">
        <ele>1108.25</ele>
      </trkpt>
      <trkpt lat="45.4759014" lon="5.8837795">
        <ele>1097.25</ele>
      </trkpt>
      <trkpt lat="45.4755459" lon="5.8841443">
        <ele>1088.5</ele>
      </trkpt>
      <trkpt lat="45.4752901" lon="5.8843374">
        <ele>1084.25</ele>
      </trkpt>
      <trkpt lat="45.4752262" lon="5.8845091">
        <ele>1080.5</ele>
      </trkpt>
      <trkpt lat="45.4755685" lon="5.8847103">
        <ele>1074.5</ele>
      </trkpt>
      <trkpt lat="45.4760857" lon="5.8847398">
        <ele>1067</ele>
      </trkpt>
      <trkpt lat="45.4766913" lon="5.8844098">
        <ele>1068.75</ele>
      </trkpt>
      <trkpt lat="45.4774906" lon="5.8853567">
        <ele>1055.5</ele>
      </trkpt>
      <trkpt lat="45.4784159" lon="5.8845761">
        <ele>1045.5</ele>
      </trkpt>
      <trkpt lat="45.4786247" lon="5.8838305">
        <ele>1053.75</ele>
      </trkpt>
      <trkpt lat="45.4790892" lon="5.8843669">
        <ele>1056.25</ele>
      </trkpt>
      <trkpt lat="45.4799412" lon="5.8840236">
        <ele>1067.75</ele>
      </trkpt>
      <trkpt lat="45.4802214" lon="5.8837983">
        <ele>1065.5</ele>
      </trkpt>
      <trkpt lat="45.4804151" lon="5.8837822">
        <ele>1063.221</ele>
      </trkpt>
      <trkpt lat="45.4804715" lon="5.8837849">
        <ele>1063.5</ele>
      </trkpt>
      <trkpt lat="45.4805054" lon="5.8838224">
        <ele>1063.75</ele>
      </trkpt>
      <trkpt lat="45.4805279" lon="5.8838627">
        <ele>1064</ele>
      </trkpt>
      <trkpt lat="45.4805655" lon="5.8839726">
        <ele>1064.25</ele>
      </trkpt>
      <trkpt lat="45.480605" lon="5.8841041">
        <ele>1064.75</ele>
      </trkpt>
      <trkpt lat="45.4806803" lon="5.884214">
        <ele>1066.75</ele>
      </trkpt>
      <trkpt lat="45.480874" lon="5.884316">
        <ele>1073.25</ele>
      </trkpt>
      <trkpt lat="45.4809417" lon="5.884383">
        <ele>1074.75</ele>
      </trkpt>
      <trkpt lat="45.4809774" lon="5.8845091">
        <ele>1074.5</ele>
      </trkpt>
      <trkpt lat="45.4810357" lon="5.8846405">
        <ele>1074</ele>
      </trkpt>
      <trkpt lat="45.4809624" lon="5.8847076">
        <ele>1071.75</ele>
      </trkpt>
      <trkpt lat="45.4808796" lon="5.8848444">
        <ele>1068.25</ele>
      </trkpt>
      <trkpt lat="45.4808683" lon="5.8853057">
        <ele>1060</ele>
      </trkpt>
      <trkpt lat="45.4808834" lon="5.8854613">
        <ele>1058</ele>
      </trkpt>
      <trkpt lat="45.4809229" lon="5.8855417">
        <ele>1057.25</ele>
      </trkpt>
      <trkpt lat="45.4809906" lon="5.8855793">
        <ele>1057.125</ele>
      </trkpt>
      <trkpt lat="45.481062" lon="5.8855981">
        <ele>1057</ele>
      </trkpt>
      <trkpt lat="45.4810921" lon="5.8856544">
        <ele>1056.5</ele>
      </trkpt>
      <trkpt lat="45.4811015" lon="5.8861774">
        <ele>1050.25</ele>
      </trkpt>
      <trkpt lat="45.4810075" lon="5.8863008">
        <ele>1048</ele>
      </trkpt>
      <trkpt lat="45.4809059" lon="5.8863491">
        <ele>1047.25</ele>
      </trkpt>
      <trkpt lat="45.4807799" lon="5.8864135">
        <ele>1046.5</ele>
      </trkpt>
      <trkpt lat="45.4806144" lon="5.8864456">
        <ele>1045.5</ele>
      </trkpt>
      <trkpt lat="45.4804189" lon="5.8866602">
        <ele>1042</ele>
      </trkpt>
      <trkpt lat="45.4802759" lon="5.8867997">
        <ele>1038.75</ele>
      </trkpt>
      <trkpt lat="45.480148" lon="5.8870035">
        <ele>1034.25</ele>
      </trkpt>
      <trkpt lat="45.4800051" lon="5.8873469">
        <ele>1030</ele>
      </trkpt>
      <trkpt lat="45.4797945" lon="5.8876365">
        <ele>1027.5</ele>
      </trkpt>
      <trkpt lat="45.4795538" lon="5.8878082">
        <ele>1024</ele>
      </trkpt>
      <trkpt lat="45.4792829" lon="5.8880228">
        <ele>1020</ele>
      </trkpt>
      <trkpt lat="45.4790723" lon="5.8881837">
        <ele>1018.5</ele>
      </trkpt>
      <trkpt lat="45.4789294" lon="5.8883017">
        <ele>1016.25</ele>
      </trkpt>
      <trkpt lat="45.4788673" lon="5.8883849">
        <ele>1015</ele>
      </trkpt>
      <trkpt lat="45.4788692" lon="5.8884734">
        <ele>1014.672</ele>
      </trkpt>
      <trkpt lat="45.4789294" lon="5.8885485">
        <ele>1014.25</ele>
      </trkpt>
      <trkpt lat="45.4791099" lon="5.888688">
        <ele>1008.25</ele>
      </trkpt>
      <trkpt lat="45.4791851" lon="5.8887202">
        <ele>1006.25</ele>
      </trkpt>
      <trkpt lat="45.4793055" lon="5.8887631">
        <ele>1004.25</ele>
      </trkpt>
      <trkpt lat="45.4795613" lon="5.8889991">
        <ele>1000</ele>
      </trkpt>
      <trkpt lat="45.479802" lon="5.8892673">
        <ele>997</ele>
      </trkpt>
      <trkpt lat="45.4798923" lon="5.8893585">
        <ele>994.75</ele>
      </trkpt>
      <trkpt lat="45.4798848" lon="5.8894175">
        <ele>994.75</ele>
      </trkpt>
      <trkpt lat="45.4798697" lon="5.8895114">
        <ele>994.75</ele>
      </trkpt>
      <trkpt lat="45.4798565" lon="5.8895785">
        <ele>990</ele>
      </trkpt>
      <trkpt lat="45.4797813" lon="5.8895919">
        <ele>990.477</ele>
      </trkpt>
      <trkpt lat="45.4796233" lon="5.8896482">
        <ele>991.5</ele>
      </trkpt>
      <trkpt lat="45.4795538" lon="5.8897313">
        <ele>994.5</ele>
      </trkpt>
      <trkpt lat="45.4794785" lon="5.8899111">
        <ele>1002.5</ele>
      </trkpt>
      <trkpt lat="45.4793958" lon="5.8901981">
        <ele>1013.25</ele>
      </trkpt>
      <trkpt lat="45.4793582" lon="5.8905065">
        <ele>1017.5</ele>
      </trkpt>
      <trkpt lat="45.47933" lon="5.8908364">
        <ele>1020</ele>
      </trkpt>
      <trkpt lat="45.4793093" lon="5.8909357">
        <ele>1020.5</ele>
      </trkpt>
      <trkpt lat="45.4792303" lon="5.8911127">
        <ele>1020.75</ele>
      </trkpt>
      <trkpt lat="45.4792529" lon="5.8911985">
        <ele>1022.75</ele>
      </trkpt>
      <trkpt lat="45.4792434" lon="5.8912978">
        <ele>1023</ele>
      </trkpt>
      <trkpt lat="45.4791645" lon="5.8915472">
        <ele>1025.5</ele>
      </trkpt>
      <trkpt lat="45.4789219" lon="5.8918852">
        <ele>1026.25</ele>
      </trkpt>
      <trkpt lat="45.4785438" lon="5.8920649">
        <ele>1022</ele>
      </trkpt>
      <trkpt lat="45.4784366" lon="5.8920836">
        <ele>1020</ele>
      </trkpt>
      <trkpt lat="45.478399" lon="5.8922338">
        <ele>1023.315</ele>
      </trkpt>
    </trkseg>
  </trk>
</gpx>
