<?xml version='1.0' encoding='UTF-8'?>
<gpx version="1.1" creator="JOSM GPX export" xmlns="http://www.topografix.com/GPX/1/1"
    xmlns:xsi="http://www.w3.org/2001/XMLSchema-instance"
    xsi:schemaLocation="http://www.topografix.com/GPX/1/1 http://www.topografix.com/GPX/1/1/gpx.xsd">
  <trk>
    <trkseg>
      <trkpt lat="45.1579952" lon="2.7032728">
        <ele>1100.061</ele>
        <time>2020-12-28T08:12:58Z</time>
        <hdop>3.216</hdop>
      </trkpt>
      <trkpt lat="45.1579653" lon="2.7034907">
        <ele>1099.219</ele>
        <time>2020-12-28T08:13:28Z</time>
        <hdop>5.36</hdop>
      </trkpt>
      <trkpt lat="45.1578596" lon="2.7037516">
        <ele>1090.601</ele>
        <time>2020-12-28T08:13:59Z</time>
        <hdop>3.216</hdop>
      </trkpt>
      <trkpt lat="45.1579046" lon="2.7037851">
        <ele>1087.328</ele>
        <time>2020-12-28T08:14:29Z</time>
        <hdop>3.216</hdop>
      </trkpt>
      <trkpt lat="45.1580247" lon="2.7039575">
        <ele>1086.388</ele>
        <time>2020-12-28T08:15:00Z</time>
        <hdop>4.288</hdop>
      </trkpt>
      <trkpt lat="45.1581332" lon="2.7041911">
        <ele>1091.961</ele>
        <time>2020-12-28T08:15:31Z</time>
        <hdop>3.216</hdop>
      </trkpt>
      <trkpt lat="45.1581453" lon="2.7044834">
        <ele>1093.45</ele>
        <time>2020-12-28T08:16:02Z</time>
        <hdop>3.216</hdop>
      </trkpt>
      <trkpt lat="45.1583079" lon="2.7048515">
        <ele>1093.879</ele>
        <time>2020-12-28T08:16:32Z</time>
        <hdop>4.288</hdop>
      </trkpt>
      <trkpt lat="45.1585947" lon="2.7051049">
        <ele>1093.533</ele>
        <time>2020-12-28T08:17:03Z</time>
        <hdop>4.288</hdop>
      </trkpt>
      <trkpt lat="45.1589266" lon="2.7051371">
        <ele>1099.704</ele>
        <time>2020-12-28T08:17:33Z</time>
        <hdop>4.288</hdop>
      </trkpt>
      <trkpt lat="45.159031" lon="2.7053078">
        <ele>1097.387</ele>
        <time>2020-12-28T08:18:04Z</time>
        <hdop>3.216</hdop>
      </trkpt>
      <trkpt lat="45.1590644" lon="2.7056082">
        <ele>1095.411</ele>
        <time>2020-12-28T08:18:35Z</time>
        <hdop>4.288</hdop>
      </trkpt>
      <trkpt lat="45.1590856" lon="2.7058995">
        <ele>1094.148</ele>
        <time>2020-12-28T08:19:06Z</time>
        <hdop>3.216</hdop>
      </trkpt>
      <trkpt lat="45.1593135" lon="2.705977">
        <ele>1090.904</ele>
        <time>2020-12-28T08:19:37Z</time>
        <hdop>3.216</hdop>
      </trkpt>
      <trkpt lat="45.1596131" lon="2.7060281">
        <ele>1094.179</ele>
        <time>2020-12-28T08:20:08Z</time>
        <hdop>4.288</hdop>
      </trkpt>
      <trkpt lat="45.1598789" lon="2.7061121">
        <ele>1089.953</ele>
        <time>2020-12-28T08:20:38Z</time>
        <hdop>3.216</hdop>
      </trkpt>
      <trkpt lat="45.1601808" lon="2.7062366">
        <ele>1087.923</ele>
        <time>2020-12-28T08:21:09Z</time>
        <hdop>3.216</hdop>
      </trkpt>
      <trkpt lat="45.1603358" lon="2.7062774">
        <ele>1084.415</ele>
        <time>2020-12-28T08:21:39Z</time>
        <hdop>3.216</hdop>
      </trkpt>
      <trkpt lat="45.1605762" lon="2.7064468">
        <ele>1087.35</ele>
        <time>2020-12-28T08:22:10Z</time>
        <hdop>3.216</hdop>
      </trkpt>
      <trkpt lat="45.1608455" lon="2.7066198">
        <ele>1092.369</ele>
        <time>2020-12-28T08:22:40Z</time>
        <hdop>5.36</hdop>
      </trkpt>
      <trkpt lat="45.1610747" lon="2.7064965">
        <ele>1096.945</ele>
        <time>2020-12-28T08:23:11Z</time>
        <hdop>5.36</hdop>
      </trkpt>
      <trkpt lat="45.1612492" lon="2.7065303">
        <ele>1094.442</ele>
        <time>2020-12-28T08:23:42Z</time>
        <hdop>4.288</hdop>
      </trkpt>
      <trkpt lat="45.1613899" lon="2.7064748">
        <ele>1093.877</ele>
        <time>2020-12-28T08:24:13Z</time>
        <hdop>3.216</hdop>
      </trkpt>
      <trkpt lat="45.1615275" lon="2.7063763">
        <ele>1095.974</ele>
        <time>2020-12-28T08:24:43Z</time>
        <hdop>3.216</hdop>
      </trkpt>
      <trkpt lat="45.161847" lon="2.7063466">
        <ele>1097.662</ele>
        <time>2020-12-28T08:25:14Z</time>
        <hdop>3.216</hdop>
      </trkpt>
      <trkpt lat="45.161939" lon="2.7063679">
        <ele>1094.49</ele>
        <time>2020-12-28T08:25:44Z</time>
        <hdop>9.648</hdop>
      </trkpt>
      <trkpt lat="45.1621048" lon="2.7063502">
        <ele>1086.755</ele>
        <time>2020-12-28T08:26:15Z</time>
        <hdop>3.216</hdop>
      </trkpt>
      <trkpt lat="45.1623234" lon="2.7063559">
        <ele>1092.041</ele>
        <time>2020-12-28T08:26:46Z</time>
        <hdop>3.216</hdop>
      </trkpt>
      <trkpt lat="45.1624632" lon="2.7065691">
        <ele>1087.974</ele>
        <time>2020-12-28T08:27:17Z</time>
        <hdop>4.288</hdop>
      </trkpt>
      <trkpt lat="45.1624315" lon="2.7069416">
        <ele>1079.438</ele>
        <time>2020-12-28T08:27:47Z</time>
        <hdop>3.216</hdop>
      </trkpt>
      <trkpt lat="45.162509" lon="2.7073387">
        <ele>1084.519</ele>
        <time>2020-12-28T08:28:18Z</time>
        <hdop>3.216</hdop>
      </trkpt>
      <trkpt lat="45.162789" lon="2.707399">
        <ele>1088.388</ele>
        <time>2020-12-28T08:28:48Z</time>
        <hdop>3.216</hdop>
      </trkpt>
      <trkpt lat="45.1628562" lon="2.7073928">
        <ele>1084.974</ele>
        <time>2020-12-28T08:29:18Z</time>
        <hdop>4.288</hdop>
      </trkpt>
      <trkpt lat="45.1630915" lon="2.7074915">
        <ele>1086.065</ele>
        <time>2020-12-28T08:29:49Z</time>
        <hdop>3.216</hdop>
      </trkpt>
      <trkpt lat="45.1633474" lon="2.7076944">
        <ele>1085.767</ele>
        <time>2020-12-28T08:30:19Z</time>
        <hdop>4.288</hdop>
      </trkpt>
      <trkpt lat="45.1636165" lon="2.7078743">
        <ele>1083.851</ele>
        <time>2020-12-28T08:30:50Z</time>
        <hdop>3.216</hdop>
      </trkpt>
      <trkpt lat="45.163925" lon="2.707982">
        <ele>1086.421</ele>
        <time>2020-12-28T08:31:21Z</time>
        <hdop>5.36</hdop>
      </trkpt>
      <trkpt lat="45.1641735" lon="2.7081564">
        <ele>1081.521</ele>
        <time>2020-12-28T08:31:51Z</time>
        <hdop>4.288</hdop>
      </trkpt>
      <trkpt lat="45.1644717" lon="2.7083104">
        <ele>1087.68</ele>
        <time>2020-12-28T08:32:22Z</time>
        <hdop>4.288</hdop>
      </trkpt>
      <trkpt lat="45.1646974" lon="2.7084116">
        <ele>1087.174</ele>
        <time>2020-12-28T08:32:53Z</time>
        <hdop>6.432</hdop>
      </trkpt>
      <trkpt lat="45.1649389" lon="2.7085991">
        <ele>1079.959</ele>
        <time>2020-12-28T08:33:23Z</time>
        <hdop>3.216</hdop>
      </trkpt>
      <trkpt lat="45.1652194" lon="2.7087819">
        <ele>1078.621</ele>
        <time>2020-12-28T08:33:54Z</time>
        <hdop>3.216</hdop>
      </trkpt>
      <trkpt lat="45.1653196" lon="2.7090892">
        <ele>1076.493</ele>
        <time>2020-12-28T08:34:24Z</time>
        <hdop>3.216</hdop>
      </trkpt>
      <trkpt lat="45.1653519" lon="2.7094948">
        <ele>1072.787</ele>
        <time>2020-12-28T08:34:55Z</time>
        <hdop>3.216</hdop>
      </trkpt>
      <trkpt lat="45.1654634" lon="2.7098473">
        <ele>1067.472</ele>
        <time>2020-12-28T08:35:26Z</time>
        <hdop>3.216</hdop>
      </trkpt>
      <trkpt lat="45.1655555" lon="2.7102522">
        <ele>1072.208</ele>
        <time>2020-12-28T08:35:57Z</time>
        <hdop>4.288</hdop>
      </trkpt>
      <trkpt lat="45.1657144" lon="2.710536">
        <ele>1071.28</ele>
        <time>2020-12-28T08:36:27Z</time>
        <hdop>3.216</hdop>
      </trkpt>
      <trkpt lat="45.1659882" lon="2.7107558">
        <ele>1068.487</ele>
        <time>2020-12-28T08:36:58Z</time>
        <hdop>3.216</hdop>
      </trkpt>
      <trkpt lat="45.1662203" lon="2.7109646">
        <ele>1066.874</ele>
        <time>2020-12-28T08:37:29Z</time>
        <hdop>3.216</hdop>
      </trkpt>
      <trkpt lat="45.1664125" lon="2.711203">
        <ele>1069.46</ele>
        <time>2020-12-28T08:37:59Z</time>
        <hdop>4.288</hdop>
      </trkpt>
      <trkpt lat="45.1666141" lon="2.7113649">
        <ele>1065.115</ele>
        <time>2020-12-28T08:38:30Z</time>
        <hdop>4.288</hdop>
      </trkpt>
      <trkpt lat="45.166669" lon="2.7113345">
        <ele>1063.197</ele>
        <time>2020-12-28T08:39:00Z</time>
        <hdop>3.216</hdop>
      </trkpt>
      <trkpt lat="45.16676" lon="2.7112224">
        <ele>1070.42</ele>
        <time>2020-12-28T08:39:31Z</time>
        <hdop>9.648</hdop>
      </trkpt>
      <trkpt lat="45.1669336" lon="2.7110453">
        <ele>1072.505</ele>
        <time>2020-12-28T08:43:06Z</time>
        <hdop>7.504</hdop>
      </trkpt>
      <trkpt lat="45.1670632" lon="2.7106971">
        <ele>1073.236</ele>
        <time>2020-12-28T08:43:37Z</time>
        <hdop>4.288</hdop>
      </trkpt>
      <trkpt lat="45.167292" lon="2.7104933">
        <ele>1071.613</ele>
        <time>2020-12-28T08:44:08Z</time>
        <hdop>4.288</hdop>
      </trkpt>
      <trkpt lat="45.1675855" lon="2.7105168">
        <ele>1075.622</ele>
        <time>2020-12-28T08:44:38Z</time>
        <hdop>5.36</hdop>
      </trkpt>
      <trkpt lat="45.1678937" lon="2.7105347">
        <ele>1073.76</ele>
        <time>2020-12-28T08:45:08Z</time>
        <hdop>4.288</hdop>
      </trkpt>
      <trkpt lat="45.1682142" lon="2.710538">
        <ele>1079.505</ele>
        <time>2020-12-28T08:45:39Z</time>
        <hdop>5.36</hdop>
      </trkpt>
      <trkpt lat="45.1684744" lon="2.7105712">
        <ele>1074.846</ele>
        <time>2020-12-28T08:46:10Z</time>
        <hdop>4.288</hdop>
      </trkpt>
      <trkpt lat="45.1687872" lon="2.710643">
        <ele>1074.336</ele>
        <time>2020-12-28T08:46:41Z</time>
        <hdop>4.288</hdop>
      </trkpt>
      <trkpt lat="45.16908" lon="2.7107156">
        <ele>1076.74</ele>
        <time>2020-12-28T08:47:12Z</time>
        <hdop>3.216</hdop>
      </trkpt>
      <trkpt lat="45.1693502" lon="2.7107793">
        <ele>1074.254</ele>
        <time>2020-12-28T08:47:42Z</time>
        <hdop>3.216</hdop>
      </trkpt>
      <trkpt lat="45.1696263" lon="2.710676">
        <ele>1074.774</ele>
        <time>2020-12-28T08:48:13Z</time>
        <hdop>5.36</hdop>
      </trkpt>
      <trkpt lat="45.1699067" lon="2.7104837">
        <ele>1075.799</ele>
        <time>2020-12-28T08:48:43Z</time>
        <hdop>7.504</hdop>
      </trkpt>
      <trkpt lat="45.1701937" lon="2.7105346">
        <ele>1076.894</ele>
        <time>2020-12-28T08:49:14Z</time>
        <hdop>4.288</hdop>
      </trkpt>
      <trkpt lat="45.1705169" lon="2.7104774">
        <ele>1078.299</ele>
        <time>2020-12-28T08:49:45Z</time>
        <hdop>6.432</hdop>
      </trkpt>
      <trkpt lat="45.1707686" lon="2.7102916">
        <ele>1078.232</ele>
        <time>2020-12-28T08:50:15Z</time>
        <hdop>6.432</hdop>
      </trkpt>
      <trkpt lat="45.1709591" lon="2.7102241">
        <ele>1081.352</ele>
        <time>2020-12-28T08:50:46Z</time>
        <hdop>4.288</hdop>
      </trkpt>
      <trkpt lat="45.1711276" lon="2.7102213">
        <ele>1085.84</ele>
        <time>2020-12-28T08:51:17Z</time>
        <hdop>5.36</hdop>
      </trkpt>
      <trkpt lat="45.17133" lon="2.710286">
        <ele>1084.007</ele>
        <time>2020-12-28T08:51:47Z</time>
        <hdop>3.216</hdop>
      </trkpt>
      <trkpt lat="45.1715527" lon="2.7103427">
        <ele>1077.739</ele>
        <time>2020-12-28T08:52:18Z</time>
        <hdop>3.216</hdop>
      </trkpt>
      <trkpt lat="45.1717646" lon="2.7104122">
        <ele>1079.164</ele>
        <time>2020-12-28T08:52:49Z</time>
        <hdop>3.216</hdop>
      </trkpt>
      <trkpt lat="45.1718832" lon="2.7104545">
        <ele>1080.747</ele>
        <time>2020-12-28T08:53:20Z</time>
        <hdop>5.36</hdop>
      </trkpt>
      <trkpt lat="45.1720138" lon="2.7105482">
        <ele>1083.48</ele>
        <time>2020-12-28T08:54:22Z</time>
        <hdop>4.288</hdop>
      </trkpt>
      <trkpt lat="45.1721287" lon="2.7105714">
        <ele>1083.241</ele>
        <time>2020-12-28T08:55:24Z</time>
        <hdop>4.288</hdop>
      </trkpt>
      <trkpt lat="45.1723468" lon="2.7106235">
        <ele>1088.986</ele>
        <time>2020-12-28T08:55:54Z</time>
        <hdop>4.288</hdop>
      </trkpt>
      <trkpt lat="45.172531" lon="2.710617">
        <ele>1086.469</ele>
        <time>2020-12-28T08:56:24Z</time>
        <hdop>5.36</hdop>
      </trkpt>
      <trkpt lat="45.1727141" lon="2.7107014">
        <ele>1082.5</ele>
        <time>2020-12-28T08:56:55Z</time>
        <hdop>4.288</hdop>
      </trkpt>
      <trkpt lat="45.1728846" lon="2.7108655">
        <ele>1082.731</ele>
        <time>2020-12-28T08:57:26Z</time>
        <hdop>5.36</hdop>
      </trkpt>
      <trkpt lat="45.1730926" lon="2.7110345">
        <ele>1092.668</ele>
        <time>2020-12-28T08:57:57Z</time>
        <hdop>4.288</hdop>
      </trkpt>
      <trkpt lat="45.1732428" lon="2.711068">
        <ele>1089.976</ele>
        <time>2020-12-28T08:58:27Z</time>
        <hdop>4.288</hdop>
      </trkpt>
      <trkpt lat="45.1733116" lon="2.7111783">
        <ele>1091.647</ele>
        <time>2020-12-28T08:58:58Z</time>
        <hdop>3.216</hdop>
      </trkpt>
      <trkpt lat="45.1734235" lon="2.7111175">
        <ele>1096.251</ele>
        <time>2020-12-28T08:59:29Z</time>
        <hdop>4.288</hdop>
      </trkpt>
      <trkpt lat="45.1735615" lon="2.7109882">
        <ele>1098.817</ele>
        <time>2020-12-28T09:00:00Z</time>
        <hdop>3.216</hdop>
      </trkpt>
      <trkpt lat="45.173596" lon="2.7108751">
        <ele>1099.92</ele>
        <time>2020-12-28T09:00:30Z</time>
        <hdop>3.216</hdop>
      </trkpt>
      <trkpt lat="45.1736611" lon="2.7106517">
        <ele>1100.192</ele>
        <time>2020-12-28T09:01:01Z</time>
        <hdop>4.288</hdop>
      </trkpt>
      <trkpt lat="45.1737769" lon="2.7104672">
        <ele>1099.769</ele>
        <time>2020-12-28T09:01:31Z</time>
        <hdop>5.36</hdop>
      </trkpt>
      <trkpt lat="45.1738836" lon="2.7103121">
        <ele>1100.849</ele>
        <time>2020-12-28T09:02:01Z</time>
        <hdop>3.216</hdop>
      </trkpt>
      <trkpt lat="45.1739846" lon="2.7102285">
        <ele>1105.427</ele>
        <time>2020-12-28T09:02:32Z</time>
        <hdop>3.216</hdop>
      </trkpt>
      <trkpt lat="45.1741805" lon="2.7101808">
        <ele>1109.33</ele>
        <time>2020-12-28T09:03:02Z</time>
        <hdop>3.216</hdop>
      </trkpt>
      <trkpt lat="45.1743474" lon="2.7101289">
        <ele>1112.05</ele>
        <time>2020-12-28T09:03:33Z</time>
        <hdop>3.216</hdop>
      </trkpt>
      <trkpt lat="45.1745428" lon="2.7100515">
        <ele>1109.446</ele>
        <time>2020-12-28T09:04:03Z</time>
        <hdop>3.216</hdop>
      </trkpt>
      <trkpt lat="45.1747024" lon="2.7099788">
        <ele>1112.838</ele>
        <time>2020-12-28T09:04:34Z</time>
        <hdop>3.216</hdop>
      </trkpt>
      <trkpt lat="45.1746482" lon="2.7101002">
        <ele>1112.353</ele>
        <time>2020-12-28T09:05:04Z</time>
        <hdop>5.36</hdop>
      </trkpt>
      <trkpt lat="45.1746264" lon="2.7101909">
        <ele>1107.025</ele>
        <time>2020-12-28T09:05:34Z</time>
        <hdop>4.288</hdop>
      </trkpt>
      <trkpt lat="45.1745673" lon="2.710399">
        <ele>1101.592</ele>
        <time>2020-12-28T09:06:05Z</time>
        <hdop>4.288</hdop>
      </trkpt>
      <trkpt lat="45.1745366" lon="2.7105789">
        <ele>1106.441</ele>
        <time>2020-12-28T09:06:36Z</time>
        <hdop>3.216</hdop>
      </trkpt>
      <trkpt lat="45.174676" lon="2.7107058">
        <ele>1118.909</ele>
        <time>2020-12-28T09:07:06Z</time>
        <hdop>5.36</hdop>
      </trkpt>
      <trkpt lat="45.1748337" lon="2.7107826">
        <ele>1127.891</ele>
        <time>2020-12-28T09:07:36Z</time>
        <hdop>4.288</hdop>
      </trkpt>
      <trkpt lat="45.1750066" lon="2.7108149">
        <ele>1131.957</ele>
        <time>2020-12-28T09:08:07Z</time>
        <hdop>4.288</hdop>
      </trkpt>
      <trkpt lat="45.1751908" lon="2.7108018">
        <ele>1132.652</ele>
        <time>2020-12-28T09:08:37Z</time>
        <hdop>4.288</hdop>
      </trkpt>
      <trkpt lat="45.1754117" lon="2.7107982">
        <ele>1135.51</ele>
        <time>2020-12-28T09:09:08Z</time>
        <hdop>4.288</hdop>
      </trkpt>
      <trkpt lat="45.1755936" lon="2.710892">
        <ele>1136.63</ele>
        <time>2020-12-28T09:09:38Z</time>
        <hdop>4.288</hdop>
      </trkpt>
      <trkpt lat="45.1758022" lon="2.7109082">
        <ele>1141.979</ele>
        <time>2020-12-28T09:10:09Z</time>
        <hdop>4.288</hdop>
      </trkpt>
      <trkpt lat="45.1760014" lon="2.710932">
        <ele>1148.673</ele>
        <time>2020-12-28T09:10:39Z</time>
        <hdop>5.36</hdop>
      </trkpt>
      <trkpt lat="45.1762011" lon="2.7108993">
        <ele>1145.78</ele>
        <time>2020-12-28T09:11:10Z</time>
        <hdop>5.36</hdop>
      </trkpt>
      <trkpt lat="45.1763677" lon="2.7109726">
        <ele>1147.281</ele>
        <time>2020-12-28T09:11:41Z</time>
        <hdop>4.288</hdop>
      </trkpt>
      <trkpt lat="45.1765864" lon="2.71104">
        <ele>1150.055</ele>
        <time>2020-12-28T09:12:12Z</time>
        <hdop>4.288</hdop>
      </trkpt>
      <trkpt lat="45.1767342" lon="2.7111082">
        <ele>1142.47</ele>
        <time>2020-12-28T09:12:43Z</time>
        <hdop>5.36</hdop>
      </trkpt>
      <trkpt lat="45.1767978" lon="2.7111496">
        <ele>1143.188</ele>
        <time>2020-12-28T09:13:13Z</time>
        <hdop>4.288</hdop>
      </trkpt>
      <trkpt lat="45.1770005" lon="2.7113038">
        <ele>1145.869</ele>
        <time>2020-12-28T09:13:44Z</time>
        <hdop>4.288</hdop>
      </trkpt>
      <trkpt lat="45.1772186" lon="2.7113749">
        <ele>1142.409</ele>
        <time>2020-12-28T09:14:14Z</time>
        <hdop>5.36</hdop>
      </trkpt>
      <trkpt lat="45.1773434" lon="2.7114452">
        <ele>1142.489</ele>
        <time>2020-12-28T09:14:45Z</time>
        <hdop>3.216</hdop>
      </trkpt>
      <trkpt lat="45.1773858" lon="2.7115447">
        <ele>1141.12</ele>
        <time>2020-12-28T09:15:16Z</time>
        <hdop>5.36</hdop>
      </trkpt>
      <trkpt lat="45.1774621" lon="2.7116539">
        <ele>1147.52</ele>
        <time>2020-12-28T09:15:47Z</time>
        <hdop>5.36</hdop>
      </trkpt>
      <trkpt lat="45.1775139" lon="2.7116994">
        <ele>1143.843</ele>
        <time>2020-12-28T09:16:48Z</time>
        <hdop>4.288</hdop>
      </trkpt>
      <trkpt lat="45.177608" lon="2.7116772">
        <ele>1139.976</ele>
        <time>2020-12-28T09:17:19Z</time>
        <hdop>4.288</hdop>
      </trkpt>
      <trkpt lat="45.1778259" lon="2.7116806">
        <ele>1136.282</ele>
        <time>2020-12-28T09:17:50Z</time>
        <hdop>5.36</hdop>
      </trkpt>
      <trkpt lat="45.1780584" lon="2.7116633">
        <ele>1127.331</ele>
        <time>2020-12-28T09:18:21Z</time>
        <hdop>4.288</hdop>
      </trkpt>
      <trkpt lat="45.1782309" lon="2.7117222">
        <ele>1124.463</ele>
        <time>2020-12-28T09:18:52Z</time>
        <hdop>3.216</hdop>
      </trkpt>
      <trkpt lat="45.1784821" lon="2.7117062">
        <ele>1117.145</ele>
        <time>2020-12-28T09:19:23Z</time>
        <hdop>4.288</hdop>
      </trkpt>
      <trkpt lat="45.178691" lon="2.7117357">
        <ele>1113.354</ele>
        <time>2020-12-28T09:19:53Z</time>
        <hdop>4.288</hdop>
      </trkpt>
      <trkpt lat="45.1789262" lon="2.7117538">
        <ele>1113.622</ele>
        <time>2020-12-28T09:20:24Z</time>
        <hdop>4.288</hdop>
      </trkpt>
      <trkpt lat="45.1790946" lon="2.7118463">
        <ele>1105.543</ele>
        <time>2020-12-28T09:20:54Z</time>
        <hdop>4.288</hdop>
      </trkpt>
      <trkpt lat="45.1791959" lon="2.7119478">
        <ele>1106.566</ele>
        <time>2020-12-28T09:21:25Z</time>
        <hdop>5.36</hdop>
      </trkpt>
      <trkpt lat="45.1792305" lon="2.7120954">
        <ele>1106.222</ele>
        <time>2020-12-28T09:21:55Z</time>
        <hdop>4.288</hdop>
      </trkpt>
      <trkpt lat="45.1792435" lon="2.712341">
        <ele>1088.543</ele>
        <time>2020-12-28T09:22:26Z</time>
        <hdop>3.216</hdop>
      </trkpt>
      <trkpt lat="45.179239" lon="2.7126267">
        <ele>1089.433</ele>
        <time>2020-12-28T09:22:56Z</time>
        <hdop>5.36</hdop>
      </trkpt>
      <trkpt lat="45.1792524" lon="2.7128308">
        <ele>1088.164</ele>
        <time>2020-12-28T09:38:07Z</time>
        <hdop>4.288</hdop>
      </trkpt>
      <trkpt lat="45.179317" lon="2.7129741">
        <ele>1089.927</ele>
        <time>2020-12-28T09:38:38Z</time>
        <hdop>3.216</hdop>
      </trkpt>
      <trkpt lat="45.179278" lon="2.7132681">
        <ele>1082.25</ele>
        <time>2020-12-28T09:39:09Z</time>
        <hdop>4.288</hdop>
      </trkpt>
      <trkpt lat="45.1795264" lon="2.7133428">
        <ele>1082.466</ele>
        <time>2020-12-28T09:39:39Z</time>
        <hdop>5.36</hdop>
      </trkpt>
      <trkpt lat="45.1797741" lon="2.7133878">
        <ele>1075.558</ele>
        <time>2020-12-28T09:40:10Z</time>
        <hdop>4.288</hdop>
      </trkpt>
      <trkpt lat="45.1799873" lon="2.7133802">
        <ele>1074.379</ele>
        <time>2020-12-28T09:40:41Z</time>
        <hdop>3.216</hdop>
      </trkpt>
      <trkpt lat="45.1802057" lon="2.7133096">
        <ele>1068.9</ele>
        <time>2020-12-28T09:41:11Z</time>
        <hdop>3.216</hdop>
      </trkpt>
      <trkpt lat="45.1803998" lon="2.7132025">
        <ele>1069.493</ele>
        <time>2020-12-28T09:41:42Z</time>
        <hdop>3.216</hdop>
      </trkpt>
      <trkpt lat="45.1803732" lon="2.7128997">
        <ele>1074.332</ele>
        <time>2020-12-28T09:42:12Z</time>
        <hdop>3.216</hdop>
      </trkpt>
      <trkpt lat="45.1803642" lon="2.7126141">
        <ele>1070.282</ele>
        <time>2020-12-28T09:42:43Z</time>
        <hdop>4.288</hdop>
      </trkpt>
      <trkpt lat="45.1805422" lon="2.7124207">
        <ele>1071.832</ele>
        <time>2020-12-28T09:43:14Z</time>
        <hdop>6.432</hdop>
      </trkpt>
      <trkpt lat="45.1807405" lon="2.712115">
        <ele>1063.42</ele>
        <time>2020-12-28T09:43:44Z</time>
        <hdop>4.288</hdop>
      </trkpt>
      <trkpt lat="45.1808986" lon="2.7119104">
        <ele>1061.806</ele>
        <time>2020-12-28T09:44:15Z</time>
        <hdop>7.504</hdop>
      </trkpt>
      <trkpt lat="45.1811818" lon="2.7116997">
        <ele>1062.61</ele>
        <time>2020-12-28T09:44:46Z</time>
        <hdop>3.216</hdop>
      </trkpt>
      <trkpt lat="45.1814228" lon="2.7114858">
        <ele>1061.975</ele>
        <time>2020-12-28T09:45:16Z</time>
        <hdop>3.216</hdop>
      </trkpt>
      <trkpt lat="45.1815445" lon="2.7113014">
        <ele>1061.406</ele>
        <time>2020-12-28T09:45:46Z</time>
        <hdop>3.216</hdop>
      </trkpt>
      <trkpt lat="45.1817804" lon="2.7110898">
        <ele>1064.299</ele>
        <time>2020-12-28T09:46:16Z</time>
        <hdop>3.216</hdop>
      </trkpt>
      <trkpt lat="45.1819492" lon="2.7108818">
        <ele>1068.664</ele>
        <time>2020-12-28T09:46:47Z</time>
        <hdop>5.36</hdop>
      </trkpt>
      <trkpt lat="45.182197" lon="2.7107401">
        <ele>1075.041</ele>
        <time>2020-12-28T09:47:18Z</time>
        <hdop>10.72</hdop>
      </trkpt>
      <trkpt lat="45.1823866" lon="2.7106551">
        <ele>1088.974</ele>
        <time>2020-12-28T09:47:48Z</time>
        <hdop>11.792</hdop>
      </trkpt>
      <trkpt lat="45.1825588" lon="2.7103556">
        <ele>1088.284</ele>
        <time>2020-12-28T09:48:18Z</time>
        <hdop>9.648</hdop>
      </trkpt>
      <trkpt lat="45.1828884" lon="2.7101218">
        <ele>1088.206</ele>
        <time>2020-12-28T09:48:48Z</time>
        <hdop>9.648</hdop>
      </trkpt>
      <trkpt lat="45.1830815" lon="2.7098384">
        <ele>1087.912</ele>
        <time>2020-12-28T09:49:18Z</time>
        <hdop>9.648</hdop>
      </trkpt>
      <trkpt lat="45.183192" lon="2.7097399">
        <ele>1088.681</ele>
        <time>2020-12-28T09:49:48Z</time>
        <hdop>10.72</hdop>
      </trkpt>
      <trkpt lat="45.1833934" lon="2.7094608">
        <ele>1088.448</ele>
        <time>2020-12-28T09:50:19Z</time>
        <hdop>4.288</hdop>
      </trkpt>
      <trkpt lat="45.1835478" lon="2.7091145">
        <ele>1084.029</ele>
        <time>2020-12-28T09:50:50Z</time>
        <hdop>3.216</hdop>
      </trkpt>
      <trkpt lat="45.1835695" lon="2.7087701">
        <ele>1074.641</ele>
        <time>2020-12-28T09:51:20Z</time>
        <hdop>4.288</hdop>
      </trkpt>
      <trkpt lat="45.1835969" lon="2.7083989">
        <ele>1083.525</ele>
        <time>2020-12-28T09:51:51Z</time>
        <hdop>4.288</hdop>
      </trkpt>
      <trkpt lat="45.1835363" lon="2.7080222">
        <ele>1084.131</ele>
        <time>2020-12-28T09:52:21Z</time>
        <hdop>3.216</hdop>
      </trkpt>
      <trkpt lat="45.1834902" lon="2.7079085">
        <ele>1082.26</ele>
        <time>2020-12-28T09:52:51Z</time>
        <hdop>3.216</hdop>
      </trkpt>
      <trkpt lat="45.1834582" lon="2.7076552">
        <ele>1078.611</ele>
        <time>2020-12-28T09:53:22Z</time>
        <hdop>5.36</hdop>
      </trkpt>
      <trkpt lat="45.183417" lon="2.70737">
        <ele>1070.595</ele>
        <time>2020-12-28T09:53:53Z</time>
        <hdop>3.216</hdop>
      </trkpt>
      <trkpt lat="45.183315" lon="2.7070552">
        <ele>1076.035</ele>
        <time>2020-12-28T09:54:23Z</time>
        <hdop>3.216</hdop>
      </trkpt>
      <trkpt lat="45.1831368" lon="2.7066978">
        <ele>1074.467</ele>
        <time>2020-12-28T09:54:54Z</time>
        <hdop>5.36</hdop>
      </trkpt>
      <trkpt lat="45.1830948" lon="2.7065748">
        <ele>1073.813</ele>
        <time>2020-12-28T09:55:24Z</time>
        <hdop>3.216</hdop>
      </trkpt>
      <trkpt lat="45.1828838" lon="2.7062738">
        <ele>1070.697</ele>
        <time>2020-12-28T09:55:54Z</time>
        <hdop>3.216</hdop>
      </trkpt>
      <trkpt lat="45.1826981" lon="2.7060027">
        <ele>1072.723</ele>
        <time>2020-12-28T09:56:25Z</time>
        <hdop>4.288</hdop>
      </trkpt>
      <trkpt lat="45.182481" lon="2.7057658">
        <ele>1068.174</ele>
        <time>2020-12-28T09:56:56Z</time>
        <hdop>5.36</hdop>
      </trkpt>
      <trkpt lat="45.1822604" lon="2.7054385">
        <ele>1065.005</ele>
        <time>2020-12-28T09:57:26Z</time>
        <hdop>3.216</hdop>
      </trkpt>
      <trkpt lat="45.1821217" lon="2.7052121">
        <ele>1061.377</ele>
        <time>2020-12-28T09:57:57Z</time>
        <hdop>4.288</hdop>
      </trkpt>
      <trkpt lat="45.1820384" lon="2.704947">
        <ele>1060.645</ele>
        <time>2020-12-28T09:58:28Z</time>
        <hdop>5.36</hdop>
      </trkpt>
      <trkpt lat="45.1819866" lon="2.7048527">
        <ele>1055.003</ele>
        <time>2020-12-28T09:58:59Z</time>
        <hdop>3.216</hdop>
      </trkpt>
      <trkpt lat="45.1818322" lon="2.7044926">
        <ele>1051.665</ele>
        <time>2020-12-28T09:59:29Z</time>
        <hdop>4.288</hdop>
      </trkpt>
      <trkpt lat="45.1816935" lon="2.7041063">
        <ele>1051.784</ele>
        <time>2020-12-28T09:59:59Z</time>
        <hdop>5.36</hdop>
      </trkpt>
      <trkpt lat="45.1815615" lon="2.7037651">
        <ele>1050.053</ele>
        <time>2020-12-28T10:00:30Z</time>
        <hdop>3.216</hdop>
      </trkpt>
      <trkpt lat="45.1814586" lon="2.7033512">
        <ele>1051.088</ele>
        <time>2020-12-28T10:01:01Z</time>
        <hdop>5.36</hdop>
      </trkpt>
      <trkpt lat="45.1813834" lon="2.7029533">
        <ele>1049.964</ele>
        <time>2020-12-28T10:01:32Z</time>
        <hdop>3.216</hdop>
      </trkpt>
      <trkpt lat="45.181197" lon="2.702624">
        <ele>1050.831</ele>
        <time>2020-12-28T10:02:02Z</time>
        <hdop>3.216</hdop>
      </trkpt>
      <trkpt lat="45.1810281" lon="2.7022551">
        <ele>1047.87</ele>
        <time>2020-12-28T10:02:33Z</time>
        <hdop>4.288</hdop>
      </trkpt>
      <trkpt lat="45.1808937" lon="2.7018816">
        <ele>1047.714</ele>
        <time>2020-12-28T10:03:03Z</time>
        <hdop>4.288</hdop>
      </trkpt>
      <trkpt lat="45.1808343" lon="2.7015038">
        <ele>1042.308</ele>
        <time>2020-12-28T10:03:33Z</time>
        <hdop>5.36</hdop>
      </trkpt>
      <trkpt lat="45.1807496" lon="2.7011084">
        <ele>1039.576</ele>
        <time>2020-12-28T10:04:04Z</time>
        <hdop>4.288</hdop>
      </trkpt>
      <trkpt lat="45.1806768" lon="2.7007452">
        <ele>1039.395</ele>
        <time>2020-12-28T10:04:34Z</time>
        <hdop>3.216</hdop>
      </trkpt>
      <trkpt lat="45.1806783" lon="2.7003849">
        <ele>1035.979</ele>
        <time>2020-12-28T10:05:05Z</time>
        <hdop>3.216</hdop>
      </trkpt>
      <trkpt lat="45.1805581" lon="2.7000498">
        <ele>1034.86</ele>
        <time>2020-12-28T10:05:35Z</time>
        <hdop>3.216</hdop>
      </trkpt>
      <trkpt lat="45.1803892" lon="2.7002749">
        <ele>1030.83</ele>
        <time>2020-12-28T10:06:06Z</time>
        <hdop>3.216</hdop>
      </trkpt>
      <trkpt lat="45.1802151" lon="2.7005635">
        <ele>1028.106</ele>
        <time>2020-12-28T10:06:36Z</time>
        <hdop>3.216</hdop>
      </trkpt>
      <trkpt lat="45.179977" lon="2.7005694">
        <ele>1033.929</ele>
        <time>2020-12-28T10:07:06Z</time>
        <hdop>3.216</hdop>
      </trkpt>
      <trkpt lat="45.1797107" lon="2.7005836">
        <ele>1036.679</ele>
        <time>2020-12-28T10:07:37Z</time>
        <hdop>3.216</hdop>
      </trkpt>
      <trkpt lat="45.1794839" lon="2.7005514">
        <ele>1039.156</ele>
        <time>2020-12-28T10:08:08Z</time>
        <hdop>3.216</hdop>
      </trkpt>
      <trkpt lat="45.1792506" lon="2.7005208">
        <ele>1040.294</ele>
        <time>2020-12-28T10:08:38Z</time>
        <hdop>3.216</hdop>
      </trkpt>
      <trkpt lat="45.1789858" lon="2.7004621">
        <ele>1039.007</ele>
        <time>2020-12-28T10:09:08Z</time>
        <hdop>4.288</hdop>
      </trkpt>
      <trkpt lat="45.1787137" lon="2.7002784">
        <ele>1039.601</ele>
        <time>2020-12-28T10:09:39Z</time>
        <hdop>4.288</hdop>
      </trkpt>
      <trkpt lat="45.1784401" lon="2.7001953">
        <ele>1037.114</ele>
        <time>2020-12-28T10:10:10Z</time>
        <hdop>4.288</hdop>
      </trkpt>
      <trkpt lat="45.1781678" lon="2.7001643">
        <ele>1030.373</ele>
        <time>2020-12-28T10:10:40Z</time>
        <hdop>3.216</hdop>
      </trkpt>
      <trkpt lat="45.1778538" lon="2.7001207">
        <ele>1032.211</ele>
        <time>2020-12-28T10:11:11Z</time>
        <hdop>4.288</hdop>
      </trkpt>
      <trkpt lat="45.1775597" lon="2.7001496">
        <ele>1032.612</ele>
        <time>2020-12-28T10:11:41Z</time>
        <hdop>3.216</hdop>
      </trkpt>
      <trkpt lat="45.177252" lon="2.7001656">
        <ele>1035.43</ele>
        <time>2020-12-28T10:12:12Z</time>
        <hdop>5.36</hdop>
      </trkpt>
      <trkpt lat="45.1769675" lon="2.7000898">
        <ele>1033.783</ele>
        <time>2020-12-28T10:12:42Z</time>
        <hdop>5.36</hdop>
      </trkpt>
      <trkpt lat="45.1766901" lon="2.6999434">
        <ele>1035.084</ele>
        <time>2020-12-28T10:13:12Z</time>
        <hdop>3.216</hdop>
      </trkpt>
      <trkpt lat="45.1764348" lon="2.6997972">
        <ele>1033.003</ele>
        <time>2020-12-28T10:13:42Z</time>
        <hdop>5.36</hdop>
      </trkpt>
      <trkpt lat="45.1761828" lon="2.6994829">
        <ele>1038.366</ele>
        <time>2020-12-28T10:14:13Z</time>
        <hdop>5.36</hdop>
      </trkpt>
      <trkpt lat="45.1760581" lon="2.6992653">
        <ele>1040.017</ele>
        <time>2020-12-28T10:14:44Z</time>
        <hdop>3.216</hdop>
      </trkpt>
      <trkpt lat="45.175773" lon="2.6991038">
        <ele>1035.826</ele>
        <time>2020-12-28T10:15:14Z</time>
        <hdop>6.432</hdop>
      </trkpt>
      <trkpt lat="45.1755215" lon="2.6989311">
        <ele>1035.107</ele>
        <time>2020-12-28T10:15:44Z</time>
        <hdop>6.432</hdop>
      </trkpt>
      <trkpt lat="45.175212" lon="2.6987782">
        <ele>1038.17</ele>
        <time>2020-12-28T10:16:15Z</time>
        <hdop>4.288</hdop>
      </trkpt>
      <trkpt lat="45.1749862" lon="2.6986067">
        <ele>1036.782</ele>
        <time>2020-12-28T10:16:45Z</time>
        <hdop>4.288</hdop>
      </trkpt>
      <trkpt lat="45.174759" lon="2.6983813">
        <ele>1039.243</ele>
        <time>2020-12-28T10:17:16Z</time>
        <hdop>4.288</hdop>
      </trkpt>
      <trkpt lat="45.1745537" lon="2.6982164">
        <ele>1040.204</ele>
        <time>2020-12-28T10:17:46Z</time>
        <hdop>4.288</hdop>
      </trkpt>
      <trkpt lat="45.1743082" lon="2.6980146">
        <ele>1039.977</ele>
        <time>2020-12-28T10:18:16Z</time>
        <hdop>4.288</hdop>
      </trkpt>
      <trkpt lat="45.1740693" lon="2.69781">
        <ele>1034.035</ele>
        <time>2020-12-28T10:18:47Z</time>
        <hdop>3.216</hdop>
      </trkpt>
      <trkpt lat="45.1737597" lon="2.6976811">
        <ele>1036.079</ele>
        <time>2020-12-28T10:19:18Z</time>
        <hdop>5.36</hdop>
      </trkpt>
      <trkpt lat="45.173459" lon="2.6976612">
        <ele>1034.944</ele>
        <time>2020-12-28T10:19:48Z</time>
        <hdop>4.288</hdop>
      </trkpt>
      <trkpt lat="45.1731894" lon="2.697653">
        <ele>1036.051</ele>
        <time>2020-12-28T10:20:19Z</time>
        <hdop>4.288</hdop>
      </trkpt>
      <trkpt lat="45.1729" lon="2.6976104">
        <ele>1038.174</ele>
        <time>2020-12-28T10:20:49Z</time>
        <hdop>4.288</hdop>
      </trkpt>
      <trkpt lat="45.17278" lon="2.697496">
        <ele>1038.847</ele>
        <time>2020-12-28T10:21:19Z</time>
        <hdop>4.288</hdop>
      </trkpt>
      <trkpt lat="45.1725783" lon="2.6975096">
        <ele>1040.852</ele>
        <time>2020-12-28T10:21:50Z</time>
        <hdop>4.288</hdop>
      </trkpt>
      <trkpt lat="45.1723268" lon="2.6974817">
        <ele>1041.873</ele>
        <time>2020-12-28T10:22:20Z</time>
        <hdop>3.216</hdop>
      </trkpt>
      <trkpt lat="45.1720401" lon="2.6974964">
        <ele>1036.861</ele>
        <time>2020-12-28T10:22:51Z</time>
        <hdop>3.216</hdop>
      </trkpt>
      <trkpt lat="45.1717763" lon="2.6974374">
        <ele>1038.428</ele>
        <time>2020-12-28T10:23:22Z</time>
        <hdop>4.288</hdop>
      </trkpt>
      <trkpt lat="45.1715339" lon="2.6973658">
        <ele>1039.524</ele>
        <time>2020-12-28T10:23:53Z</time>
        <hdop>3.216</hdop>
      </trkpt>
      <trkpt lat="45.171266" lon="2.6973914">
        <ele>1037.49</ele>
        <time>2020-12-28T10:24:24Z</time>
        <hdop>3.216</hdop>
      </trkpt>
      <trkpt lat="45.1710727" lon="2.6973263">
        <ele>1042.211</ele>
        <time>2020-12-28T10:24:54Z</time>
        <hdop>5.36</hdop>
      </trkpt>
      <trkpt lat="45.1708274" lon="2.6973179">
        <ele>1037.356</ele>
        <time>2020-12-28T10:25:24Z</time>
        <hdop>3.216</hdop>
      </trkpt>
      <trkpt lat="45.1705445" lon="2.6972454">
        <ele>1042.604</ele>
        <time>2020-12-28T10:25:55Z</time>
        <hdop>5.36</hdop>
      </trkpt>
      <trkpt lat="45.170267" lon="2.6971858">
        <ele>1039.906</ele>
        <time>2020-12-28T10:26:25Z</time>
        <hdop>4.288</hdop>
      </trkpt>
      <trkpt lat="45.1699785" lon="2.6970468">
        <ele>1042.591</ele>
        <time>2020-12-28T10:26:56Z</time>
        <hdop>4.288</hdop>
      </trkpt>
      <trkpt lat="45.1697532" lon="2.6970029">
        <ele>1048.077</ele>
        <time>2020-12-28T10:27:26Z</time>
        <hdop>5.36</hdop>
      </trkpt>
      <trkpt lat="45.1694733" lon="2.6968415">
        <ele>1042.88</ele>
        <time>2020-12-28T10:47:42Z</time>
        <hdop>3.216</hdop>
      </trkpt>
      <trkpt lat="45.1692902" lon="2.6967069">
        <ele>1040.361</ele>
        <time>2020-12-28T10:48:13Z</time>
        <hdop>3.216</hdop>
      </trkpt>
      <trkpt lat="45.1690083" lon="2.6965517">
        <ele>1042.291</ele>
        <time>2020-12-28T10:48:44Z</time>
        <hdop>3.216</hdop>
      </trkpt>
      <trkpt lat="45.1687502" lon="2.6964092">
        <ele>1041.008</ele>
        <time>2020-12-28T10:49:14Z</time>
        <hdop>3.216</hdop>
      </trkpt>
      <trkpt lat="45.1684924" lon="2.6962593">
        <ele>1044.93</ele>
        <time>2020-12-28T10:49:45Z</time>
        <hdop>4.288</hdop>
      </trkpt>
      <trkpt lat="45.1682406" lon="2.6961345">
        <ele>1043.589</ele>
        <time>2020-12-28T10:50:16Z</time>
        <hdop>6.432</hdop>
      </trkpt>
      <trkpt lat="45.1679894" lon="2.695956">
        <ele>1041.377</ele>
        <time>2020-12-28T10:50:46Z</time>
        <hdop>3.216</hdop>
      </trkpt>
      <trkpt lat="45.1677216" lon="2.6957862">
        <ele>1044.906</ele>
        <time>2020-12-28T10:51:17Z</time>
        <hdop>3.216</hdop>
      </trkpt>
      <trkpt lat="45.1674251" lon="2.6956052">
        <ele>1044.612</ele>
        <time>2020-12-28T10:51:48Z</time>
        <hdop>3.216</hdop>
      </trkpt>
      <trkpt lat="45.167155" lon="2.6954604">
        <ele>1045.848</ele>
        <time>2020-12-28T10:52:18Z</time>
        <hdop>3.216</hdop>
      </trkpt>
      <trkpt lat="45.1668493" lon="2.695279">
        <ele>1051.329</ele>
        <time>2020-12-28T10:52:49Z</time>
        <hdop>4.288</hdop>
      </trkpt>
      <trkpt lat="45.1665589" lon="2.6951385">
        <ele>1052.13</ele>
        <time>2020-12-28T10:53:20Z</time>
        <hdop>3.216</hdop>
      </trkpt>
      <trkpt lat="45.1663128" lon="2.6948977">
        <ele>1052.826</ele>
        <time>2020-12-28T10:53:51Z</time>
        <hdop>9.648</hdop>
      </trkpt>
      <trkpt lat="45.166205" lon="2.6945666">
        <ele>1049.401</ele>
        <time>2020-12-28T10:54:21Z</time>
        <hdop>9.648</hdop>
      </trkpt>
      <trkpt lat="45.1661244" lon="2.694129">
        <ele>1051.26</ele>
        <time>2020-12-28T10:54:51Z</time>
        <hdop>9.648</hdop>
      </trkpt>
      <trkpt lat="45.1659756" lon="2.6937613">
        <ele>1054.245</ele>
        <time>2020-12-28T10:55:22Z</time>
        <hdop>10.72</hdop>
      </trkpt>
      <trkpt lat="45.1656714" lon="2.6936288">
        <ele>1058.858</ele>
        <time>2020-12-28T10:55:52Z</time>
        <hdop>9.648</hdop>
      </trkpt>
      <trkpt lat="45.1653878" lon="2.693586">
        <ele>1058.565</ele>
        <time>2020-12-28T10:56:23Z</time>
        <hdop>4.288</hdop>
      </trkpt>
      <trkpt lat="45.1650975" lon="2.693564">
        <ele>1061.777</ele>
        <time>2020-12-28T10:56:54Z</time>
        <hdop>5.36</hdop>
      </trkpt>
      <trkpt lat="45.1647879" lon="2.6934777">
        <ele>1067.006</ele>
        <time>2020-12-28T10:57:25Z</time>
        <hdop>4.288</hdop>
      </trkpt>
      <trkpt lat="45.1644887" lon="2.6933898">
        <ele>1069.055</ele>
        <time>2020-12-28T10:57:56Z</time>
        <hdop>3.216</hdop>
      </trkpt>
      <trkpt lat="45.1642028" lon="2.6933732">
        <ele>1067.781</ele>
        <time>2020-12-28T10:58:26Z</time>
        <hdop>4.288</hdop>
      </trkpt>
      <trkpt lat="45.1640941" lon="2.6932356">
        <ele>1068.438</ele>
        <time>2020-12-28T10:58:56Z</time>
        <hdop>4.288</hdop>
      </trkpt>
      <trkpt lat="45.1642068" lon="2.6929056">
        <ele>1073.537</ele>
        <time>2020-12-28T11:00:58Z</time>
        <hdop>3.216</hdop>
      </trkpt>
      <trkpt lat="45.1643466" lon="2.6925863">
        <ele>1067.644</ele>
        <time>2020-12-28T11:01:29Z</time>
        <hdop>3.216</hdop>
      </trkpt>
      <trkpt lat="45.164488" lon="2.6922426">
        <ele>1064.015</ele>
        <time>2020-12-28T11:02:00Z</time>
        <hdop>3.216</hdop>
      </trkpt>
      <trkpt lat="45.164768" lon="2.6922523">
        <ele>1065.791</ele>
        <time>2020-12-28T11:02:31Z</time>
        <hdop>3.216</hdop>
      </trkpt>
      <trkpt lat="45.1650342" lon="2.6923374">
        <ele>1071.321</ele>
        <time>2020-12-28T11:03:02Z</time>
        <hdop>3.216</hdop>
      </trkpt>
      <trkpt lat="45.1652106" lon="2.6925097">
        <ele>1069.816</ele>
        <time>2020-12-28T11:03:33Z</time>
        <hdop>3.216</hdop>
      </trkpt>
      <trkpt lat="45.1654852" lon="2.692603">
        <ele>1072.17</ele>
        <time>2020-12-28T11:04:04Z</time>
        <hdop>3.216</hdop>
      </trkpt>
      <trkpt lat="45.1657236" lon="2.6923699">
        <ele>1074.498</ele>
        <time>2020-12-28T11:04:34Z</time>
        <hdop>3.216</hdop>
      </trkpt>
      <trkpt lat="45.1659201" lon="2.6921293">
        <ele>1075.282</ele>
        <time>2020-12-28T11:05:05Z</time>
        <hdop>5.36</hdop>
      </trkpt>
      <trkpt lat="45.1661395" lon="2.6919779">
        <ele>1075.396</ele>
        <time>2020-12-28T11:05:35Z</time>
        <hdop>5.36</hdop>
      </trkpt>
      <trkpt lat="45.1663992" lon="2.6917736">
        <ele>1078.987</ele>
        <time>2020-12-28T11:06:06Z</time>
        <hdop>4.288</hdop>
      </trkpt>
      <trkpt lat="45.1665686" lon="2.6914582">
        <ele>1082.642</ele>
        <time>2020-12-28T11:06:36Z</time>
        <hdop>7.504</hdop>
      </trkpt>
      <trkpt lat="45.1665784" lon="2.6911405">
        <ele>1084.574</ele>
        <time>2020-12-28T11:07:07Z</time>
        <hdop>4.288</hdop>
      </trkpt>
      <trkpt lat="45.1663987" lon="2.6908648">
        <ele>1087.471</ele>
        <time>2020-12-28T11:07:37Z</time>
        <hdop>4.288</hdop>
      </trkpt>
      <trkpt lat="45.1662574" lon="2.69064">
        <ele>1096.918</ele>
        <time>2020-12-28T11:08:08Z</time>
        <hdop>9.648</hdop>
      </trkpt>
      <trkpt lat="45.1661735" lon="2.6903145">
        <ele>1094.069</ele>
        <time>2020-12-28T11:08:39Z</time>
        <hdop>9.648</hdop>
      </trkpt>
      <trkpt lat="45.1660588" lon="2.690041">
        <ele>1097.985</ele>
        <time>2020-12-28T11:09:09Z</time>
        <hdop>3.216</hdop>
      </trkpt>
      <trkpt lat="45.1658577" lon="2.6898116">
        <ele>1099.959</ele>
        <time>2020-12-28T11:09:39Z</time>
        <hdop>4.288</hdop>
      </trkpt>
      <trkpt lat="45.16578" lon="2.6898026">
        <ele>1105.638</ele>
        <time>2020-12-28T11:17:21Z</time>
        <hdop>9.648</hdop>
      </trkpt>
      <trkpt lat="45.1655259" lon="2.6897284">
        <ele>1096.344</ele>
        <time>2020-12-28T11:17:52Z</time>
        <hdop>3.216</hdop>
      </trkpt>
      <trkpt lat="45.1652762" lon="2.6896045">
        <ele>1106.234</ele>
        <time>2020-12-28T11:18:23Z</time>
        <hdop>3.216</hdop>
      </trkpt>
      <trkpt lat="45.165136" lon="2.6893776">
        <ele>1110.933</ele>
        <time>2020-12-28T11:18:53Z</time>
        <hdop>4.288</hdop>
      </trkpt>
      <trkpt lat="45.1649391" lon="2.6891409">
        <ele>1109.933</ele>
        <time>2020-12-28T11:19:24Z</time>
        <hdop>3.216</hdop>
      </trkpt>
      <trkpt lat="45.1648297" lon="2.6888924">
        <ele>1104.02</ele>
        <time>2020-12-28T11:19:54Z</time>
        <hdop>3.216</hdop>
      </trkpt>
      <trkpt lat="45.1647227" lon="2.688566">
        <ele>1099.058</ele>
        <time>2020-12-28T11:20:24Z</time>
        <hdop>3.216</hdop>
      </trkpt>
      <trkpt lat="45.1644825" lon="2.6884189">
        <ele>1101.017</ele>
        <time>2020-12-28T11:20:55Z</time>
        <hdop>3.216</hdop>
      </trkpt>
      <trkpt lat="45.164176" lon="2.688351">
        <ele>1098.941</ele>
        <time>2020-12-28T11:21:25Z</time>
        <hdop>3.216</hdop>
      </trkpt>
      <trkpt lat="45.1639705" lon="2.6881563">
        <ele>1098.444</ele>
        <time>2020-12-28T11:21:56Z</time>
        <hdop>3.216</hdop>
      </trkpt>
      <trkpt lat="45.163678" lon="2.6879807">
        <ele>1100.347</ele>
        <time>2020-12-28T11:22:27Z</time>
        <hdop>3.216</hdop>
      </trkpt>
      <trkpt lat="45.1634837" lon="2.6877369">
        <ele>1106.949</ele>
        <time>2020-12-28T11:22:57Z</time>
        <hdop>3.216</hdop>
      </trkpt>
      <trkpt lat="45.1633501" lon="2.6875543">
        <ele>1109.766</ele>
        <time>2020-12-28T11:26:03Z</time>
        <hdop>3.216</hdop>
      </trkpt>
      <trkpt lat="45.1632417" lon="2.6874629">
        <ele>1108.548</ele>
        <time>2020-12-28T11:26:34Z</time>
        <hdop>3.216</hdop>
      </trkpt>
      <trkpt lat="45.1629888" lon="2.6872095">
        <ele>1114.46</ele>
        <time>2020-12-28T11:27:04Z</time>
        <hdop>4.288</hdop>
      </trkpt>
      <trkpt lat="45.1627563" lon="2.6868995">
        <ele>1107.701</ele>
        <time>2020-12-28T11:27:34Z</time>
        <hdop>4.288</hdop>
      </trkpt>
      <trkpt lat="45.1625474" lon="2.6865693">
        <ele>1108.335</ele>
        <time>2020-12-28T11:28:04Z</time>
        <hdop>9.648</hdop>
      </trkpt>
      <trkpt lat="45.162397" lon="2.6862038">
        <ele>1110.298</ele>
        <time>2020-12-28T11:28:35Z</time>
        <hdop>3.216</hdop>
      </trkpt>
      <trkpt lat="45.1622014" lon="2.6859197">
        <ele>1116.302</ele>
        <time>2020-12-28T11:29:05Z</time>
        <hdop>3.216</hdop>
      </trkpt>
      <trkpt lat="45.1620975" lon="2.685601">
        <ele>1105.671</ele>
        <time>2020-12-28T11:29:36Z</time>
        <hdop>3.216</hdop>
      </trkpt>
      <trkpt lat="45.1619652" lon="2.6853073">
        <ele>1110.602</ele>
        <time>2020-12-28T11:30:06Z</time>
        <hdop>3.216</hdop>
      </trkpt>
      <trkpt lat="45.1617006" lon="2.6852854">
        <ele>1115.008</ele>
        <time>2020-12-28T11:30:36Z</time>
        <hdop>3.216</hdop>
      </trkpt>
      <trkpt lat="45.1614732" lon="2.6853719">
        <ele>1123.637</ele>
        <time>2020-12-28T11:31:07Z</time>
        <hdop>3.216</hdop>
      </trkpt>
      <trkpt lat="45.1612651" lon="2.6853532">
        <ele>1125.233</ele>
        <time>2020-12-28T11:31:37Z</time>
        <hdop>4.288</hdop>
      </trkpt>
      <trkpt lat="45.1609828" lon="2.685325">
        <ele>1125.649</ele>
        <time>2020-12-28T11:32:08Z</time>
        <hdop>3.216</hdop>
      </trkpt>
      <trkpt lat="45.1608512" lon="2.6852522">
        <ele>1119.013</ele>
        <time>2020-12-28T11:36:12Z</time>
        <hdop>3.216</hdop>
      </trkpt>
      <trkpt lat="45.1606815" lon="2.6852254">
        <ele>1122.62</ele>
        <time>2020-12-28T11:36:43Z</time>
        <hdop>3.216</hdop>
      </trkpt>
      <trkpt lat="45.1605342" lon="2.6852085">
        <ele>1133.468</ele>
        <time>2020-12-28T11:37:13Z</time>
        <hdop>9.648</hdop>
      </trkpt>
      <trkpt lat="45.1603898" lon="2.6850481">
        <ele>1132.445</ele>
        <time>2020-12-28T11:37:44Z</time>
        <hdop>10.72</hdop>
      </trkpt>
      <trkpt lat="45.1601755" lon="2.6849324">
        <ele>1147.415</ele>
        <time>2020-12-28T11:43:22Z</time>
        <hdop>4.288</hdop>
      </trkpt>
      <trkpt lat="45.1600543" lon="2.6847449">
        <ele>1149.424</ele>
        <time>2020-12-28T11:43:53Z</time>
        <hdop>3.216</hdop>
      </trkpt>
      <trkpt lat="45.159853" lon="2.6845453">
        <ele>1155.937</ele>
        <time>2020-12-28T11:44:24Z</time>
        <hdop>3.216</hdop>
      </trkpt>
      <trkpt lat="45.1596737" lon="2.6844663">
        <ele>1158.687</ele>
        <time>2020-12-28T11:44:55Z</time>
        <hdop>4.288</hdop>
      </trkpt>
      <trkpt lat="45.1594822" lon="2.684319">
        <ele>1157.495</ele>
        <time>2020-12-28T11:45:26Z</time>
        <hdop>4.288</hdop>
      </trkpt>
      <trkpt lat="45.159272" lon="2.6841925">
        <ele>1168.004</ele>
        <time>2020-12-28T11:45:57Z</time>
        <hdop>3.216</hdop>
      </trkpt>
      <trkpt lat="45.1589962" lon="2.6840949">
        <ele>1168.543</ele>
        <time>2020-12-28T11:46:28Z</time>
        <hdop>3.216</hdop>
      </trkpt>
      <trkpt lat="45.158744" lon="2.6840967">
        <ele>1162.991</ele>
        <time>2020-12-28T11:46:59Z</time>
        <hdop>3.216</hdop>
      </trkpt>
      <trkpt lat="45.1585114" lon="2.6841792">
        <ele>1170.188</ele>
        <time>2020-12-28T11:47:29Z</time>
        <hdop>3.216</hdop>
      </trkpt>
      <trkpt lat="45.1582211" lon="2.6841634">
        <ele>1171.83</ele>
        <time>2020-12-28T11:48:00Z</time>
        <hdop>3.216</hdop>
      </trkpt>
      <trkpt lat="45.1579656" lon="2.6842549">
        <ele>1173.396</ele>
        <time>2020-12-28T11:48:30Z</time>
        <hdop>3.216</hdop>
      </trkpt>
      <trkpt lat="45.1577164" lon="2.6843002">
        <ele>1174.365</ele>
        <time>2020-12-28T11:49:01Z</time>
        <hdop>3.216</hdop>
      </trkpt>
      <trkpt lat="45.1574627" lon="2.6843247">
        <ele>1178.147</ele>
        <time>2020-12-28T11:49:31Z</time>
        <hdop>3.216</hdop>
      </trkpt>
      <trkpt lat="45.1572928" lon="2.6843549">
        <ele>1177.681</ele>
        <time>2020-12-28T11:50:02Z</time>
        <hdop>3.216</hdop>
      </trkpt>
      <trkpt lat="45.1571077" lon="2.6843194">
        <ele>1175.692</ele>
        <time>2020-12-28T11:50:33Z</time>
        <hdop>3.216</hdop>
      </trkpt>
      <trkpt lat="45.157014" lon="2.6842417">
        <ele>1181.172</ele>
        <time>2020-12-28T11:51:04Z</time>
        <hdop>3.216</hdop>
      </trkpt>
      <trkpt lat="45.1569195" lon="2.6841918">
        <ele>1184.343</ele>
        <time>2020-12-28T11:51:35Z</time>
        <hdop>6.432</hdop>
      </trkpt>
      <trkpt lat="45.1567356" lon="2.6841578">
        <ele>1182.964</ele>
        <time>2020-12-28T11:52:05Z</time>
        <hdop>3.216</hdop>
      </trkpt>
      <trkpt lat="45.156479" lon="2.6841254">
        <ele>1186.138</ele>
        <time>2020-12-28T11:52:36Z</time>
        <hdop>3.216</hdop>
      </trkpt>
      <trkpt lat="45.1560926" lon="2.6840094">
        <ele>1193.839</ele>
        <time>2020-12-28T12:30:43Z</time>
        <hdop>3.216</hdop>
      </trkpt>
      <trkpt lat="45.1559423" lon="2.6839964">
        <ele>1194.348</ele>
        <time>2020-12-28T12:31:13Z</time>
        <hdop>3.216</hdop>
      </trkpt>
      <trkpt lat="45.1557827" lon="2.6839478">
        <ele>1194.728</ele>
        <time>2020-12-28T12:31:44Z</time>
        <hdop>3.216</hdop>
      </trkpt>
      <trkpt lat="45.1556085" lon="2.6838636">
        <ele>1196.216</ele>
        <time>2020-12-28T12:32:14Z</time>
        <hdop>3.216</hdop>
      </trkpt>
      <trkpt lat="45.1555487" lon="2.6838533">
        <ele>1200.963</ele>
        <time>2020-12-28T12:32:44Z</time>
        <hdop>3.216</hdop>
      </trkpt>
      <trkpt lat="45.1553532" lon="2.6837668">
        <ele>1195.918</ele>
        <time>2020-12-28T12:33:15Z</time>
        <hdop>3.216</hdop>
      </trkpt>
      <trkpt lat="45.1551632" lon="2.6836924">
        <ele>1200.435</ele>
        <time>2020-12-28T12:33:45Z</time>
        <hdop>3.216</hdop>
      </trkpt>
      <trkpt lat="45.1549867" lon="2.683592">
        <ele>1201.151</ele>
        <time>2020-12-28T12:34:16Z</time>
        <hdop>3.216</hdop>
      </trkpt>
      <trkpt lat="45.1548079" lon="2.6834848">
        <ele>1200.634</ele>
        <time>2020-12-28T12:34:47Z</time>
        <hdop>3.216</hdop>
      </trkpt>
      <trkpt lat="45.1546406" lon="2.6833342">
        <ele>1202.688</ele>
        <time>2020-12-28T12:35:18Z</time>
        <hdop>3.216</hdop>
      </trkpt>
      <trkpt lat="45.1544853" lon="2.6832375">
        <ele>1198.711</ele>
        <time>2020-12-28T12:35:49Z</time>
        <hdop>3.216</hdop>
      </trkpt>
      <trkpt lat="45.154367" lon="2.6831604">
        <ele>1201.691</ele>
        <time>2020-12-28T12:36:19Z</time>
        <hdop>3.216</hdop>
      </trkpt>
      <trkpt lat="45.1542189" lon="2.6830939">
        <ele>1202.346</ele>
        <time>2020-12-28T12:36:49Z</time>
        <hdop>3.216</hdop>
      </trkpt>
      <trkpt lat="45.1540219" lon="2.6831054">
        <ele>1208.274</ele>
        <time>2020-12-28T12:37:19Z</time>
        <hdop>3.216</hdop>
      </trkpt>
      <trkpt lat="45.1538358" lon="2.6831046">
        <ele>1206.859</ele>
        <time>2020-12-28T12:37:50Z</time>
        <hdop>3.216</hdop>
      </trkpt>
      <trkpt lat="45.1536089" lon="2.6831414">
        <ele>1207.781</ele>
        <time>2020-12-28T12:38:21Z</time>
        <hdop>3.216</hdop>
      </trkpt>
      <trkpt lat="45.1533642" lon="2.6830133">
        <ele>1210.59</ele>
        <time>2020-12-28T12:39:23Z</time>
        <hdop>3.216</hdop>
      </trkpt>
      <trkpt lat="45.1532481" lon="2.6828948">
        <ele>1209.939</ele>
        <time>2020-12-28T12:39:54Z</time>
        <hdop>3.216</hdop>
      </trkpt>
      <trkpt lat="45.1530879" lon="2.6827564">
        <ele>1214.009</ele>
        <time>2020-12-28T12:40:25Z</time>
        <hdop>3.216</hdop>
      </trkpt>
      <trkpt lat="45.1529271" lon="2.6825925">
        <ele>1211.766</ele>
        <time>2020-12-28T12:40:56Z</time>
        <hdop>9.648</hdop>
      </trkpt>
      <trkpt lat="45.1527597" lon="2.6823841">
        <ele>1217.224</ele>
        <time>2020-12-28T12:41:26Z</time>
        <hdop>3.216</hdop>
      </trkpt>
      <trkpt lat="45.1526074" lon="2.6822399">
        <ele>1215.828</ele>
        <time>2020-12-28T12:41:56Z</time>
        <hdop>3.216</hdop>
      </trkpt>
      <trkpt lat="45.1525313" lon="2.6820474">
        <ele>1221.837</ele>
        <time>2020-12-28T12:42:27Z</time>
        <hdop>3.216</hdop>
      </trkpt>
      <trkpt lat="45.1524198" lon="2.6818851">
        <ele>1223.149</ele>
        <time>2020-12-28T12:42:57Z</time>
        <hdop>4.288</hdop>
      </trkpt>
      <trkpt lat="45.1524353" lon="2.6817792">
        <ele>1221.13</ele>
        <time>2020-12-28T12:43:28Z</time>
        <hdop>3.216</hdop>
      </trkpt>
      <trkpt lat="45.1523517" lon="2.6816525">
        <ele>1223.119</ele>
        <time>2020-12-28T12:43:58Z</time>
        <hdop>10.72</hdop>
      </trkpt>
      <trkpt lat="45.1523321" lon="2.6815068">
        <ele>1224</ele>
        <time>2020-12-28T12:44:28Z</time>
        <hdop>10.72</hdop>
      </trkpt>
      <trkpt lat="45.1522866" lon="2.681406">
        <ele>1226.262</ele>
        <time>2020-12-28T12:44:59Z</time>
        <hdop>9.648</hdop>
      </trkpt>
      <trkpt lat="45.1522218" lon="2.6812798">
        <ele>1226.887</ele>
        <time>2020-12-28T12:45:30Z</time>
        <hdop>9.648</hdop>
      </trkpt>
      <trkpt lat="45.1521596" lon="2.6811187">
        <ele>1229.908</ele>
        <time>2020-12-28T12:46:01Z</time>
        <hdop>9.648</hdop>
      </trkpt>
      <trkpt lat="45.1520774" lon="2.6809781">
        <ele>1227.032</ele>
        <time>2020-12-28T12:46:32Z</time>
        <hdop>9.648</hdop>
      </trkpt>
      <trkpt lat="45.1520102" lon="2.6807924">
        <ele>1236.561</ele>
        <time>2020-12-28T12:47:02Z</time>
        <hdop>9.648</hdop>
      </trkpt>
      <trkpt lat="45.151885" lon="2.6805649">
        <ele>1237.802</ele>
        <time>2020-12-28T12:47:32Z</time>
        <hdop>9.648</hdop>
      </trkpt>
      <trkpt lat="45.1516814" lon="2.6804775">
        <ele>1235.388</ele>
        <time>2020-12-28T12:48:03Z</time>
        <hdop>9.648</hdop>
      </trkpt>
      <trkpt lat="45.1516223" lon="2.6804596">
        <ele>1237.092</ele>
        <time>2020-12-28T12:50:07Z</time>
        <hdop>10.72</hdop>
      </trkpt>
      <trkpt lat="45.1514289" lon="2.6803529">
        <ele>1243.194</ele>
        <time>2020-12-28T12:50:38Z</time>
        <hdop>10.72</hdop>
      </trkpt>
      <trkpt lat="45.1513096" lon="2.6803575">
        <ele>1244.051</ele>
        <time>2020-12-28T12:51:08Z</time>
        <hdop>9.648</hdop>
      </trkpt>
      <trkpt lat="45.151203" lon="2.6802758">
        <ele>1241.83</ele>
        <time>2020-12-28T12:51:39Z</time>
        <hdop>9.648</hdop>
      </trkpt>
      <trkpt lat="45.1511041" lon="2.6801326">
        <ele>1247.955</ele>
        <time>2020-12-28T12:52:09Z</time>
        <hdop>9.648</hdop>
      </trkpt>
      <trkpt lat="45.150919" lon="2.6801014">
        <ele>1247.93</ele>
        <time>2020-12-28T12:52:40Z</time>
        <hdop>10.72</hdop>
      </trkpt>
      <trkpt lat="45.1508692" lon="2.6799364">
        <ele>1250.153</ele>
        <time>2020-12-28T12:53:11Z</time>
        <hdop>10.72</hdop>
      </trkpt>
      <trkpt lat="45.1507308" lon="2.6799005">
        <ele>1252.005</ele>
        <time>2020-12-28T12:53:41Z</time>
        <hdop>9.648</hdop>
      </trkpt>
      <trkpt lat="45.1506332" lon="2.6798601">
        <ele>1251.949</ele>
        <time>2020-12-28T12:58:47Z</time>
        <hdop>9.648</hdop>
      </trkpt>
      <trkpt lat="45.1505457" lon="2.6797831">
        <ele>1250.447</ele>
        <time>2020-12-28T12:59:17Z</time>
        <hdop>9.648</hdop>
      </trkpt>
      <trkpt lat="45.1504179" lon="2.679733">
        <ele>1250.628</ele>
        <time>2020-12-28T12:59:47Z</time>
        <hdop>10.72</hdop>
      </trkpt>
      <trkpt lat="45.1503722" lon="2.679669">
        <ele>1257.293</ele>
        <time>2020-12-28T13:00:18Z</time>
        <hdop>10.72</hdop>
      </trkpt>
      <trkpt lat="45.1502053" lon="2.6795685">
        <ele>1250.311</ele>
        <time>2020-12-28T13:00:49Z</time>
        <hdop>10.72</hdop>
      </trkpt>
      <trkpt lat="45.1501132" lon="2.6795602">
        <ele>1262.21</ele>
        <time>2020-12-28T13:01:19Z</time>
        <hdop>10.72</hdop>
      </trkpt>
      <trkpt lat="45.1500155" lon="2.6796133">
        <ele>1273.853</ele>
        <time>2020-12-28T13:01:49Z</time>
        <hdop>9.648</hdop>
      </trkpt>
      <trkpt lat="45.1498688" lon="2.6795962">
        <ele>1271.947</ele>
        <time>2020-12-28T13:02:20Z</time>
        <hdop>10.72</hdop>
      </trkpt>
      <trkpt lat="45.1497466" lon="2.679615">
        <ele>1270.576</ele>
        <time>2020-12-28T13:02:50Z</time>
        <hdop>10.72</hdop>
      </trkpt>
      <trkpt lat="45.1496319" lon="2.6795435">
        <ele>1273.564</ele>
        <time>2020-12-28T13:03:20Z</time>
        <hdop>10.72</hdop>
      </trkpt>
      <trkpt lat="45.1495042" lon="2.6795334">
        <ele>1270.943</ele>
        <time>2020-12-28T13:03:51Z</time>
        <hdop>9.648</hdop>
      </trkpt>
      <trkpt lat="45.1493877" lon="2.6794615">
        <ele>1270.304</ele>
        <time>2020-12-28T13:04:22Z</time>
        <hdop>10.72</hdop>
      </trkpt>
      <trkpt lat="45.1492521" lon="2.6794342">
        <ele>1274.705</ele>
        <time>2020-12-28T13:04:52Z</time>
        <hdop>9.648</hdop>
      </trkpt>
      <trkpt lat="45.1491634" lon="2.6794594">
        <ele>1281.769</ele>
        <time>2020-12-28T13:05:23Z</time>
        <hdop>9.648</hdop>
      </trkpt>
      <trkpt lat="45.1490941" lon="2.67948">
        <ele>1280.252</ele>
        <time>2020-12-28T13:06:24Z</time>
        <hdop>10.72</hdop>
      </trkpt>
      <trkpt lat="45.1489848" lon="2.6795296">
        <ele>1279.484</ele>
        <time>2020-12-28T13:07:25Z</time>
        <hdop>9.648</hdop>
      </trkpt>
      <trkpt lat="45.1487892" lon="2.679611">
        <ele>1273.806</ele>
        <time>2020-12-28T13:07:55Z</time>
        <hdop>9.648</hdop>
      </trkpt>
      <trkpt lat="45.1486662" lon="2.6797191">
        <ele>1270.732</ele>
        <time>2020-12-28T13:08:26Z</time>
        <hdop>9.648</hdop>
      </trkpt>
      <trkpt lat="45.1484752" lon="2.679726">
        <ele>1271.274</ele>
        <time>2020-12-28T13:08:57Z</time>
        <hdop>10.72</hdop>
      </trkpt>
      <trkpt lat="45.1482617" lon="2.6797085">
        <ele>1266.73</ele>
        <time>2020-12-28T13:09:28Z</time>
        <hdop>9.648</hdop>
      </trkpt>
      <trkpt lat="45.1481205" lon="2.679703">
        <ele>1258.016</ele>
        <time>2020-12-28T13:09:59Z</time>
        <hdop>9.648</hdop>
      </trkpt>
      <trkpt lat="45.147881" lon="2.6796963">
        <ele>1268.45</ele>
        <time>2020-12-28T13:10:30Z</time>
        <hdop>10.72</hdop>
      </trkpt>
      <trkpt lat="45.147721" lon="2.6798166">
        <ele>1267.601</ele>
        <time>2020-12-28T13:11:01Z</time>
        <hdop>10.72</hdop>
      </trkpt>
      <trkpt lat="45.1475687" lon="2.6798232">
        <ele>1265.056</ele>
        <time>2020-12-28T13:11:31Z</time>
        <hdop>10.72</hdop>
      </trkpt>
      <trkpt lat="45.1474434" lon="2.6798881">
        <ele>1268.053</ele>
        <time>2020-12-28T13:12:01Z</time>
        <hdop>9.648</hdop>
      </trkpt>
      <trkpt lat="45.1471977" lon="2.6800678">
        <ele>1264.105</ele>
        <time>2020-12-28T13:12:32Z</time>
        <hdop>9.648</hdop>
      </trkpt>
      <trkpt lat="45.1469922" lon="2.680119">
        <ele>1261.687</ele>
        <time>2020-12-28T13:13:03Z</time>
        <hdop>9.648</hdop>
      </trkpt>
      <trkpt lat="45.1467824" lon="2.6802668">
        <ele>1257.033</ele>
        <time>2020-12-28T13:13:34Z</time>
        <hdop>4.288</hdop>
      </trkpt>
      <trkpt lat="45.1465151" lon="2.6802625">
        <ele>1253.307</ele>
        <time>2020-12-28T13:14:04Z</time>
        <hdop>3.216</hdop>
      </trkpt>
      <trkpt lat="45.1462569" lon="2.6802997">
        <ele>1257.601</ele>
        <time>2020-12-28T13:14:34Z</time>
        <hdop>4.288</hdop>
      </trkpt>
      <trkpt lat="45.1462839" lon="2.6804413">
        <ele>1254.812</ele>
        <time>2020-12-28T13:15:05Z</time>
        <hdop>3.216</hdop>
      </trkpt>
      <trkpt lat="45.146203" lon="2.6805708">
        <ele>1254.841</ele>
        <time>2020-12-28T13:15:35Z</time>
        <hdop>4.288</hdop>
      </trkpt>
      <trkpt lat="45.1462102" lon="2.6810028">
        <ele>1254.862</ele>
        <time>2020-12-28T13:16:05Z</time>
        <hdop>3.216</hdop>
      </trkpt>
      <trkpt lat="45.1460522" lon="2.681225">
        <ele>1259.796</ele>
        <time>2020-12-28T13:16:36Z</time>
        <hdop>3.216</hdop>
      </trkpt>
      <trkpt lat="45.1458404" lon="2.6813205">
        <ele>1254.89</ele>
        <time>2020-12-28T13:17:06Z</time>
        <hdop>3.216</hdop>
      </trkpt>
      <trkpt lat="45.1456188" lon="2.6813155">
        <ele>1257.056</ele>
        <time>2020-12-28T13:17:37Z</time>
        <hdop>4.288</hdop>
      </trkpt>
      <trkpt lat="45.1453802" lon="2.6812282">
        <ele>1262.069</ele>
        <time>2020-12-28T13:18:08Z</time>
        <hdop>3.216</hdop>
      </trkpt>
      <trkpt lat="45.1451271" lon="2.6812913">
        <ele>1263.292</ele>
        <time>2020-12-28T13:18:38Z</time>
        <hdop>3.216</hdop>
      </trkpt>
      <trkpt lat="45.1448923" lon="2.6815236">
        <ele>1262.148</ele>
        <time>2020-12-28T13:19:09Z</time>
        <hdop>3.216</hdop>
      </trkpt>
      <trkpt lat="45.1446997" lon="2.6816345">
        <ele>1267.234</ele>
        <time>2020-12-28T13:19:39Z</time>
        <hdop>3.216</hdop>
      </trkpt>
      <trkpt lat="45.1444408" lon="2.6818409">
        <ele>1262.859</ele>
        <time>2020-12-28T13:20:10Z</time>
        <hdop>4.288</hdop>
      </trkpt>
      <trkpt lat="45.1441885" lon="2.6820166">
        <ele>1266.977</ele>
        <time>2020-12-28T13:20:41Z</time>
        <hdop>9.648</hdop>
      </trkpt>
      <trkpt lat="45.1439067" lon="2.6821646">
        <ele>1265.589</ele>
        <time>2020-12-28T13:21:11Z</time>
        <hdop>9.648</hdop>
      </trkpt>
      <trkpt lat="45.1437187" lon="2.6823973">
        <ele>1268.286</ele>
        <time>2020-12-28T13:21:42Z</time>
        <hdop>3.216</hdop>
      </trkpt>
      <trkpt lat="45.1434847" lon="2.6826192">
        <ele>1261.644</ele>
        <time>2020-12-28T13:22:13Z</time>
        <hdop>3.216</hdop>
      </trkpt>
      <trkpt lat="45.1433705" lon="2.6830029">
        <ele>1269.138</ele>
        <time>2020-12-28T13:22:43Z</time>
        <hdop>3.216</hdop>
      </trkpt>
      <trkpt lat="45.1432302" lon="2.6833753">
        <ele>1265.78</ele>
        <time>2020-12-28T13:23:14Z</time>
        <hdop>3.216</hdop>
      </trkpt>
      <trkpt lat="45.1433185" lon="2.6837876">
        <ele>1264.781</ele>
        <time>2020-12-28T13:23:44Z</time>
        <hdop>3.216</hdop>
      </trkpt>
      <trkpt lat="45.1434292" lon="2.6841887">
        <ele>1255.354</ele>
        <time>2020-12-28T13:24:15Z</time>
        <hdop>9.648</hdop>
      </trkpt>
      <trkpt lat="45.1436188" lon="2.6844344">
        <ele>1260.921</ele>
        <time>2020-12-28T13:24:46Z</time>
        <hdop>9.648</hdop>
      </trkpt>
      <trkpt lat="45.1437316" lon="2.6847322">
        <ele>1260.351</ele>
        <time>2020-12-28T13:25:17Z</time>
        <hdop>9.648</hdop>
      </trkpt>
      <trkpt lat="45.1438292" lon="2.6850404">
        <ele>1257.011</ele>
        <time>2020-12-28T13:25:48Z</time>
        <hdop>3.216</hdop>
      </trkpt>
      <trkpt lat="45.1439232" lon="2.6854286">
        <ele>1255.286</ele>
        <time>2020-12-28T13:26:19Z</time>
        <hdop>3.216</hdop>
      </trkpt>
      <trkpt lat="45.1440647" lon="2.6857341">
        <ele>1253.285</ele>
        <time>2020-12-28T13:26:49Z</time>
        <hdop>9.648</hdop>
      </trkpt>
      <trkpt lat="45.1442674" lon="2.6860158">
        <ele>1253.109</ele>
        <time>2020-12-28T13:27:19Z</time>
        <hdop>9.648</hdop>
      </trkpt>
      <trkpt lat="45.1444612" lon="2.6862308">
        <ele>1252.986</ele>
        <time>2020-12-28T13:27:49Z</time>
        <hdop>9.648</hdop>
      </trkpt>
      <trkpt lat="45.1446518" lon="2.6865333">
        <ele>1256.984</ele>
        <time>2020-12-28T13:28:19Z</time>
        <hdop>9.648</hdop>
      </trkpt>
      <trkpt lat="45.1448646" lon="2.6867278">
        <ele>1259.458</ele>
        <time>2020-12-28T13:28:50Z</time>
        <hdop>9.648</hdop>
      </trkpt>
      <trkpt lat="45.1450925" lon="2.6869621">
        <ele>1253.691</ele>
        <time>2020-12-28T13:29:21Z</time>
        <hdop>9.648</hdop>
      </trkpt>
      <trkpt lat="45.1452055" lon="2.6872632">
        <ele>1251.723</ele>
        <time>2020-12-28T13:29:52Z</time>
        <hdop>9.648</hdop>
      </trkpt>
      <trkpt lat="45.1453107" lon="2.6875097">
        <ele>1250.973</ele>
        <time>2020-12-28T13:30:22Z</time>
        <hdop>4.288</hdop>
      </trkpt>
      <trkpt lat="45.1454178" lon="2.6876481">
        <ele>1248.138</ele>
        <time>2020-12-28T13:30:53Z</time>
        <hdop>3.216</hdop>
      </trkpt>
      <trkpt lat="45.1455415" lon="2.6878058">
        <ele>1250.827</ele>
        <time>2020-12-28T13:31:23Z</time>
        <hdop>4.288</hdop>
      </trkpt>
      <trkpt lat="45.1456269" lon="2.6878952">
        <ele>1250.949</ele>
        <time>2020-12-28T13:31:54Z</time>
        <hdop>3.216</hdop>
      </trkpt>
      <trkpt lat="45.14581" lon="2.6880258">
        <ele>1252.541</ele>
        <time>2020-12-28T13:32:24Z</time>
        <hdop>3.216</hdop>
      </trkpt>
      <trkpt lat="45.1460609" lon="2.688087">
        <ele>1249.325</ele>
        <time>2020-12-28T13:32:55Z</time>
        <hdop>3.216</hdop>
      </trkpt>
      <trkpt lat="45.1463144" lon="2.6882141">
        <ele>1246.851</ele>
        <time>2020-12-28T13:33:26Z</time>
        <hdop>3.216</hdop>
      </trkpt>
      <trkpt lat="45.1465486" lon="2.6883846">
        <ele>1249.175</ele>
        <time>2020-12-28T13:33:56Z</time>
        <hdop>3.216</hdop>
      </trkpt>
      <trkpt lat="45.1468128" lon="2.6885054">
        <ele>1247.159</ele>
        <time>2020-12-28T13:34:26Z</time>
        <hdop>3.216</hdop>
      </trkpt>
      <trkpt lat="45.1470729" lon="2.6886916">
        <ele>1247.913</ele>
        <time>2020-12-28T13:34:57Z</time>
        <hdop>3.216</hdop>
      </trkpt>
      <trkpt lat="45.147303" lon="2.68893">
        <ele>1249.495</ele>
        <time>2020-12-28T13:35:28Z</time>
        <hdop>3.216</hdop>
      </trkpt>
      <trkpt lat="45.1475295" lon="2.6891812">
        <ele>1249.035</ele>
        <time>2020-12-28T13:35:59Z</time>
        <hdop>9.648</hdop>
      </trkpt>
      <trkpt lat="45.1477491" lon="2.689434">
        <ele>1246.072</ele>
        <time>2020-12-28T13:36:29Z</time>
        <hdop>3.216</hdop>
      </trkpt>
      <trkpt lat="45.147972" lon="2.68973">
        <ele>1245.428</ele>
        <time>2020-12-28T13:37:00Z</time>
        <hdop>3.216</hdop>
      </trkpt>
      <trkpt lat="45.1481993" lon="2.68999">
        <ele>1237.844</ele>
        <time>2020-12-28T13:37:31Z</time>
        <hdop>3.216</hdop>
      </trkpt>
      <trkpt lat="45.1484509" lon="2.6902568">
        <ele>1238.773</ele>
        <time>2020-12-28T13:38:02Z</time>
        <hdop>3.216</hdop>
      </trkpt>
      <trkpt lat="45.1486754" lon="2.690519">
        <ele>1240.567</ele>
        <time>2020-12-28T13:38:33Z</time>
        <hdop>3.216</hdop>
      </trkpt>
      <trkpt lat="45.1489036" lon="2.6908379">
        <ele>1236.788</ele>
        <time>2020-12-28T13:39:03Z</time>
        <hdop>3.216</hdop>
      </trkpt>
      <trkpt lat="45.1491001" lon="2.6910964">
        <ele>1236.757</ele>
        <time>2020-12-28T13:39:33Z</time>
        <hdop>3.216</hdop>
      </trkpt>
      <trkpt lat="45.1492956" lon="2.691302">
        <ele>1237.712</ele>
        <time>2020-12-28T13:40:03Z</time>
        <hdop>3.216</hdop>
      </trkpt>
      <trkpt lat="45.149503" lon="2.6915734">
        <ele>1235.101</ele>
        <time>2020-12-28T13:40:33Z</time>
        <hdop>3.216</hdop>
      </trkpt>
      <trkpt lat="45.1497376" lon="2.6918047">
        <ele>1243.221</ele>
        <time>2020-12-28T13:41:03Z</time>
        <hdop>3.216</hdop>
      </trkpt>
      <trkpt lat="45.1499516" lon="2.6920746">
        <ele>1236.566</ele>
        <time>2020-12-28T13:41:33Z</time>
        <hdop>3.216</hdop>
      </trkpt>
      <trkpt lat="45.1501768" lon="2.6922787">
        <ele>1233.799</ele>
        <time>2020-12-28T13:42:04Z</time>
        <hdop>3.216</hdop>
      </trkpt>
      <trkpt lat="45.1504118" lon="2.6924912">
        <ele>1238.275</ele>
        <time>2020-12-28T13:42:35Z</time>
        <hdop>3.216</hdop>
      </trkpt>
      <trkpt lat="45.1505962" lon="2.6926061">
        <ele>1235.765</ele>
        <time>2020-12-28T13:43:05Z</time>
        <hdop>3.216</hdop>
      </trkpt>
      <trkpt lat="45.1508169" lon="2.6928415">
        <ele>1237.498</ele>
        <time>2020-12-28T13:43:35Z</time>
        <hdop>3.216</hdop>
      </trkpt>
      <trkpt lat="45.1510607" lon="2.6930427">
        <ele>1234.982</ele>
        <time>2020-12-28T13:44:05Z</time>
        <hdop>3.216</hdop>
      </trkpt>
      <trkpt lat="45.1512824" lon="2.6933102">
        <ele>1233.812</ele>
        <time>2020-12-28T13:44:36Z</time>
        <hdop>3.216</hdop>
      </trkpt>
      <trkpt lat="45.1514859" lon="2.6934971">
        <ele>1227.268</ele>
        <time>2020-12-28T13:45:06Z</time>
        <hdop>4.288</hdop>
      </trkpt>
      <trkpt lat="45.1515423" lon="2.6937666">
        <ele>1224.093</ele>
        <time>2020-12-28T13:45:37Z</time>
        <hdop>3.216</hdop>
      </trkpt>
      <trkpt lat="45.1516726" lon="2.6939863">
        <ele>1225.716</ele>
        <time>2020-12-28T13:47:09Z</time>
        <hdop>3.216</hdop>
      </trkpt>
      <trkpt lat="45.1517904" lon="2.694244">
        <ele>1226.342</ele>
        <time>2020-12-28T13:47:39Z</time>
        <hdop>3.216</hdop>
      </trkpt>
      <trkpt lat="45.1519211" lon="2.6944908">
        <ele>1224.728</ele>
        <time>2020-12-28T13:48:10Z</time>
        <hdop>3.216</hdop>
      </trkpt>
      <trkpt lat="45.15206" lon="2.6947374">
        <ele>1224.474</ele>
        <time>2020-12-28T13:48:41Z</time>
        <hdop>3.216</hdop>
      </trkpt>
      <trkpt lat="45.1521736" lon="2.6950097">
        <ele>1221.177</ele>
        <time>2020-12-28T13:49:12Z</time>
        <hdop>3.216</hdop>
      </trkpt>
      <trkpt lat="45.1523329" lon="2.6952965">
        <ele>1219.317</ele>
        <time>2020-12-28T13:49:43Z</time>
        <hdop>3.216</hdop>
      </trkpt>
      <trkpt lat="45.1524101" lon="2.6954511">
        <ele>1219.114</ele>
        <time>2020-12-28T13:50:13Z</time>
        <hdop>4.288</hdop>
      </trkpt>
      <trkpt lat="45.152471" lon="2.6957002">
        <ele>1211.865</ele>
        <time>2020-12-28T13:50:43Z</time>
        <hdop>3.216</hdop>
      </trkpt>
      <trkpt lat="45.1526126" lon="2.6959568">
        <ele>1220.486</ele>
        <time>2020-12-28T13:51:14Z</time>
        <hdop>3.216</hdop>
      </trkpt>
      <trkpt lat="45.1527411" lon="2.6961997">
        <ele>1218.578</ele>
        <time>2020-12-28T13:51:44Z</time>
        <hdop>3.216</hdop>
      </trkpt>
      <trkpt lat="45.1528206" lon="2.6964275">
        <ele>1215.216</ele>
        <time>2020-12-28T13:52:14Z</time>
        <hdop>3.216</hdop>
      </trkpt>
      <trkpt lat="45.1528584" lon="2.6966784">
        <ele>1217.329</ele>
        <time>2020-12-28T13:52:44Z</time>
        <hdop>3.216</hdop>
      </trkpt>
      <trkpt lat="45.1529738" lon="2.6969034">
        <ele>1214.195</ele>
        <time>2020-12-28T13:53:15Z</time>
        <hdop>3.216</hdop>
      </trkpt>
      <trkpt lat="45.1530201" lon="2.6970622">
        <ele>1212.712</ele>
        <time>2020-12-28T13:54:47Z</time>
        <hdop>3.216</hdop>
      </trkpt>
      <trkpt lat="45.1531285" lon="2.6971857">
        <ele>1211.349</ele>
        <time>2020-12-28T13:55:17Z</time>
        <hdop>3.216</hdop>
      </trkpt>
      <trkpt lat="45.1532512" lon="2.6974084">
        <ele>1210.286</ele>
        <time>2020-12-28T13:55:48Z</time>
        <hdop>3.216</hdop>
      </trkpt>
      <trkpt lat="45.153279" lon="2.697654">
        <ele>1210.068</ele>
        <time>2020-12-28T13:59:53Z</time>
        <hdop>9.648</hdop>
      </trkpt>
      <trkpt lat="45.1532706" lon="2.6978091">
        <ele>1210.704</ele>
        <time>2020-12-28T14:00:24Z</time>
        <hdop>9.648</hdop>
      </trkpt>
      <trkpt lat="45.1533398" lon="2.6979514">
        <ele>1204.135</ele>
        <time>2020-12-28T14:00:55Z</time>
        <hdop>9.648</hdop>
      </trkpt>
      <trkpt lat="45.1533953" lon="2.6981054">
        <ele>1201.246</ele>
        <time>2020-12-28T14:01:26Z</time>
        <hdop>9.648</hdop>
      </trkpt>
      <trkpt lat="45.1533605" lon="2.6981595">
        <ele>1201.847</ele>
        <time>2020-12-28T14:01:56Z</time>
        <hdop>3.216</hdop>
      </trkpt>
      <trkpt lat="45.1533227" lon="2.6982044">
        <ele>1203.475</ele>
        <time>2020-12-28T14:02:27Z</time>
        <hdop>3.216</hdop>
      </trkpt>
      <trkpt lat="45.1534335" lon="2.6982913">
        <ele>1201.221</ele>
        <time>2020-12-28T14:02:58Z</time>
        <hdop>9.648</hdop>
      </trkpt>
      <trkpt lat="45.1535157" lon="2.6984337">
        <ele>1198.533</ele>
        <time>2020-12-28T14:03:28Z</time>
        <hdop>9.648</hdop>
      </trkpt>
      <trkpt lat="45.1535227" lon="2.6985059">
        <ele>1193.911</ele>
        <time>2020-12-28T14:04:29Z</time>
        <hdop>3.216</hdop>
      </trkpt>
      <trkpt lat="45.1535511" lon="2.6985354">
        <ele>1192.697</ele>
        <time>2020-12-28T14:05:00Z</time>
        <hdop>3.216</hdop>
      </trkpt>
      <trkpt lat="45.1535589" lon="2.6986561">
        <ele>1194.229</ele>
        <time>2020-12-28T14:05:31Z</time>
        <hdop>3.216</hdop>
      </trkpt>
      <trkpt lat="45.1536975" lon="2.6988028">
        <ele>1192.902</ele>
        <time>2020-12-28T14:08:04Z</time>
        <hdop>4.288</hdop>
      </trkpt>
      <trkpt lat="45.1537172" lon="2.6988187">
        <ele>1196.916</ele>
        <time>2020-12-28T14:08:35Z</time>
        <hdop>3.216</hdop>
      </trkpt>
      <trkpt lat="45.1537592" lon="2.6988271">
        <ele>1194.893</ele>
        <time>2020-12-28T14:09:05Z</time>
        <hdop>3.216</hdop>
      </trkpt>
      <trkpt lat="45.1537946" lon="2.6989042">
        <ele>1196.026</ele>
        <time>2020-12-28T14:09:36Z</time>
        <hdop>3.216</hdop>
      </trkpt>
      <trkpt lat="45.1537937" lon="2.6989242">
        <ele>1195.249</ele>
        <time>2020-12-28T14:10:07Z</time>
        <hdop>3.216</hdop>
      </trkpt>
      <trkpt lat="45.1538384" lon="2.6990398">
        <ele>1195.099</ele>
        <time>2020-12-28T14:10:38Z</time>
        <hdop>3.216</hdop>
      </trkpt>
      <trkpt lat="45.1538258" lon="2.699042">
        <ele>1186.335</ele>
        <time>2020-12-28T14:11:39Z</time>
        <hdop>3.216</hdop>
      </trkpt>
      <trkpt lat="45.1537875" lon="2.6990132">
        <ele>1183.79</ele>
        <time>2020-12-28T14:12:10Z</time>
        <hdop>3.216</hdop>
      </trkpt>
      <trkpt lat="45.1538405" lon="2.6991089">
        <ele>1186.846</ele>
        <time>2020-12-28T14:12:40Z</time>
        <hdop>4.288</hdop>
      </trkpt>
      <trkpt lat="45.1538112" lon="2.6990911">
        <ele>1188.396</ele>
        <time>2020-12-28T14:13:11Z</time>
        <hdop>3.216</hdop>
      </trkpt>
      <trkpt lat="45.1538178" lon="2.6991165">
        <ele>1189.145</ele>
        <time>2020-12-28T14:13:41Z</time>
        <hdop>4.288</hdop>
      </trkpt>
      <trkpt lat="45.153822" lon="2.6991268">
        <ele>1189.14</ele>
        <time>2020-12-28T14:14:42Z</time>
        <hdop>9.648</hdop>
      </trkpt>
      <trkpt lat="45.1539324" lon="2.6993122">
        <ele>1183.139</ele>
        <time>2020-12-28T14:15:13Z</time>
        <hdop>3.216</hdop>
      </trkpt>
      <trkpt lat="45.1539548" lon="2.6993196">
        <ele>1178.01</ele>
        <time>2020-12-28T14:15:43Z</time>
        <hdop>3.216</hdop>
      </trkpt>
      <trkpt lat="45.1540074" lon="2.699367">
        <ele>1172.875</ele>
        <time>2020-12-28T14:16:14Z</time>
        <hdop>3.216</hdop>
      </trkpt>
      <trkpt lat="45.15404" lon="2.6994317">
        <ele>1174.41</ele>
        <time>2020-12-28T14:16:45Z</time>
        <hdop>4.288</hdop>
      </trkpt>
      <trkpt lat="45.1540479" lon="2.6993974">
        <ele>1173.402</ele>
        <time>2020-12-28T14:17:15Z</time>
        <hdop>9.648</hdop>
      </trkpt>
      <trkpt lat="45.1541394" lon="2.6994174">
        <ele>1182.921</ele>
        <time>2020-12-28T14:17:46Z</time>
        <hdop>4.288</hdop>
      </trkpt>
      <trkpt lat="45.1541318" lon="2.69945">
        <ele>1178.266</ele>
        <time>2020-12-28T14:18:17Z</time>
        <hdop>3.216</hdop>
      </trkpt>
      <trkpt lat="45.1542114" lon="2.6994832">
        <ele>1173.474</ele>
        <time>2020-12-28T14:18:48Z</time>
        <hdop>10.72</hdop>
      </trkpt>
      <trkpt lat="45.1542307" lon="2.6994592">
        <ele>1172.687</ele>
        <time>2020-12-28T14:19:19Z</time>
        <hdop>4.288</hdop>
      </trkpt>
      <trkpt lat="45.154231" lon="2.6994815">
        <ele>1180.285</ele>
        <time>2020-12-28T14:19:50Z</time>
        <hdop>7.504</hdop>
      </trkpt>
      <trkpt lat="45.1542757" lon="2.6993588">
        <ele>1181.754</ele>
        <time>2020-12-28T14:20:21Z</time>
        <hdop>4.288</hdop>
      </trkpt>
      <trkpt lat="45.154314" lon="2.6993302">
        <ele>1181.064</ele>
        <time>2020-12-28T14:20:51Z</time>
        <hdop>4.288</hdop>
      </trkpt>
      <trkpt lat="45.1542738" lon="2.699378">
        <ele>1182.317</ele>
        <time>2020-12-28T14:21:22Z</time>
        <hdop>3.216</hdop>
      </trkpt>
      <trkpt lat="45.1542862" lon="2.6993612">
        <ele>1184.609</ele>
        <time>2020-12-28T14:21:53Z</time>
        <hdop>4.288</hdop>
      </trkpt>
      <trkpt lat="45.1542903" lon="2.6993929">
        <ele>1185.578</ele>
        <time>2020-12-28T14:22:23Z</time>
        <hdop>4.288</hdop>
      </trkpt>
      <trkpt lat="45.1542889" lon="2.699373">
        <ele>1184.134</ele>
        <time>2020-12-28T14:22:53Z</time>
        <hdop>9.648</hdop>
      </trkpt>
      <trkpt lat="45.1542855" lon="2.6993882">
        <ele>1184.38</ele>
        <time>2020-12-28T14:23:23Z</time>
        <hdop>4.288</hdop>
      </trkpt>
      <trkpt lat="45.1542798" lon="2.6993874">
        <ele>1186.86</ele>
        <time>2020-12-28T14:23:54Z</time>
        <hdop>4.288</hdop>
      </trkpt>
      <trkpt lat="45.1543361" lon="2.6994502">
        <ele>1189.437</ele>
        <time>2020-12-28T14:24:24Z</time>
        <hdop>5.36</hdop>
      </trkpt>
      <trkpt lat="45.1543486" lon="2.6994251">
        <ele>1187.645</ele>
        <time>2020-12-28T14:24:54Z</time>
        <hdop>4.288</hdop>
      </trkpt>
      <trkpt lat="45.1543549" lon="2.6993682">
        <ele>1183.657</ele>
        <time>2020-12-28T14:25:25Z</time>
        <hdop>4.288</hdop>
      </trkpt>
      <trkpt lat="45.1543477" lon="2.6993143">
        <ele>1182.297</ele>
        <time>2020-12-28T14:25:55Z</time>
        <hdop>4.288</hdop>
      </trkpt>
      <trkpt lat="45.1543667" lon="2.6993955">
        <ele>1187.07</ele>
        <time>2020-12-28T14:26:26Z</time>
        <hdop>10.72</hdop>
      </trkpt>
      <trkpt lat="45.1543905" lon="2.6993832">
        <ele>1188.878</ele>
        <time>2020-12-28T14:26:56Z</time>
        <hdop>3.216</hdop>
      </trkpt>
      <trkpt lat="45.1543882" lon="2.6993818">
        <ele>1189.423</ele>
        <time>2020-12-28T14:27:26Z</time>
        <hdop>3.216</hdop>
      </trkpt>
      <trkpt lat="45.1543927" lon="2.6993684">
        <ele>1187.26</ele>
        <time>2020-12-28T14:27:56Z</time>
        <hdop>3.216</hdop>
      </trkpt>
      <trkpt lat="45.1543785" lon="2.6994037">
        <ele>1185.417</ele>
        <time>2020-12-28T14:28:27Z</time>
        <hdop>3.216</hdop>
      </trkpt>
      <trkpt lat="45.1543793" lon="2.6994032">
        <ele>1185.465</ele>
        <time>2020-12-28T14:28:58Z</time>
        <hdop>3.216</hdop>
      </trkpt>
      <trkpt lat="45.1543656" lon="2.6993697">
        <ele>1183.794</ele>
        <time>2020-12-28T14:29:29Z</time>
        <hdop>3.216</hdop>
      </trkpt>
      <trkpt lat="45.1543608" lon="2.6993862">
        <ele>1184.626</ele>
        <time>2020-12-28T14:30:00Z</time>
        <hdop>3.216</hdop>
      </trkpt>
      <trkpt lat="45.1543588" lon="2.6993961">
        <ele>1184.554</ele>
        <time>2020-12-28T14:30:31Z</time>
        <hdop>3.216</hdop>
      </trkpt>
      <trkpt lat="45.154359" lon="2.6993961">
        <ele>1184.648</ele>
        <time>2020-12-28T14:31:01Z</time>
        <hdop>9.648</hdop>
      </trkpt>
      <trkpt lat="45.1543702" lon="2.6994077">
        <ele>1185.85</ele>
        <time>2020-12-28T14:31:32Z</time>
        <hdop>3.216</hdop>
      </trkpt>
      <trkpt lat="45.1543711" lon="2.6994074">
        <ele>1185.929</ele>
        <time>2020-12-28T14:32:02Z</time>
        <hdop>3.216</hdop>
      </trkpt>
      <trkpt lat="45.1543778" lon="2.6994101">
        <ele>1187.166</ele>
        <time>2020-12-28T14:32:33Z</time>
        <hdop>3.216</hdop>
      </trkpt>
      <trkpt lat="45.154379" lon="2.6994078">
        <ele>1187.574</ele>
        <time>2020-12-28T14:33:04Z</time>
        <hdop>3.216</hdop>
      </trkpt>
      <trkpt lat="45.1543661" lon="2.6994">
        <ele>1187.746</ele>
        <time>2020-12-28T14:33:35Z</time>
        <hdop>3.216</hdop>
      </trkpt>
      <trkpt lat="45.154353" lon="2.6993875">
        <ele>1186.935</ele>
        <time>2020-12-28T14:34:05Z</time>
        <hdop>3.216</hdop>
      </trkpt>
      <trkpt lat="45.1543623" lon="2.6993765">
        <ele>1187</ele>
        <time>2020-12-28T14:34:36Z</time>
        <hdop>3.216</hdop>
      </trkpt>
      <trkpt lat="45.1543809" lon="2.6993994">
        <ele>1190.017</ele>
        <time>2020-12-28T14:35:07Z</time>
        <hdop>3.216</hdop>
      </trkpt>
      <trkpt lat="45.1543553" lon="2.6993864">
        <ele>1187.906</ele>
        <time>2020-12-28T14:35:38Z</time>
        <hdop>9.648</hdop>
      </trkpt>
      <trkpt lat="45.154325" lon="2.6993675">
        <ele>1190.165</ele>
        <time>2020-12-28T14:36:08Z</time>
        <hdop>4.288</hdop>
      </trkpt>
      <trkpt lat="45.1543204" lon="2.6993462">
        <ele>1189.932</ele>
        <time>2020-12-28T14:36:38Z</time>
        <hdop>4.288</hdop>
      </trkpt>
      <trkpt lat="45.154326" lon="2.6993409">
        <ele>1192.523</ele>
        <time>2020-12-28T14:37:09Z</time>
        <hdop>5.36</hdop>
      </trkpt>
      <trkpt lat="45.1543353" lon="2.699314">
        <ele>1194.885</ele>
        <time>2020-12-28T14:37:40Z</time>
        <hdop>5.36</hdop>
      </trkpt>
      <trkpt lat="45.1543471" lon="2.6993237">
        <ele>1195.549</ele>
        <time>2020-12-28T14:38:11Z</time>
        <hdop>4.288</hdop>
      </trkpt>
      <trkpt lat="45.1543432" lon="2.6993475">
        <ele>1195.654</ele>
        <time>2020-12-28T14:38:41Z</time>
        <hdop>9.648</hdop>
      </trkpt>
      <trkpt lat="45.1543403" lon="2.6993541">
        <ele>1194.584</ele>
        <time>2020-12-28T14:39:12Z</time>
        <hdop>9.648</hdop>
      </trkpt>
      <trkpt lat="45.1543416" lon="2.6993696">
        <ele>1194.166</ele>
        <time>2020-12-28T14:39:43Z</time>
        <hdop>9.648</hdop>
      </trkpt>
      <trkpt lat="45.1543208" lon="2.6994257">
        <ele>1195.425</ele>
        <time>2020-12-28T14:40:14Z</time>
        <hdop>6.432</hdop>
      </trkpt>
      <trkpt lat="45.1543402" lon="2.6994384">
        <ele>1196.125</ele>
        <time>2020-12-28T14:40:45Z</time>
        <hdop>7.504</hdop>
      </trkpt>
      <trkpt lat="45.1543412" lon="2.6994361">
        <ele>1195.659</ele>
        <time>2020-12-28T14:41:16Z</time>
        <hdop>6.432</hdop>
      </trkpt>
      <trkpt lat="45.1543363" lon="2.6994509">
        <ele>1195.583</ele>
        <time>2020-12-28T14:41:47Z</time>
        <hdop>4.288</hdop>
      </trkpt>
      <trkpt lat="45.1543356" lon="2.6994482">
        <ele>1195.391</ele>
        <time>2020-12-28T14:42:17Z</time>
        <hdop>9.648</hdop>
      </trkpt>
      <trkpt lat="45.1543356" lon="2.6994478">
        <ele>1195.424</ele>
        <time>2020-12-28T14:42:48Z</time>
        <hdop>9.648</hdop>
      </trkpt>
      <trkpt lat="45.1543201" lon="2.6994349">
        <ele>1194.576</ele>
        <time>2020-12-28T14:43:19Z</time>
        <hdop>11.792</hdop>
      </trkpt>
      <trkpt lat="45.1543307" lon="2.6994274">
        <ele>1194.136</ele>
        <time>2020-12-28T14:43:50Z</time>
        <hdop>9.648</hdop>
      </trkpt>
      <trkpt lat="45.154333" lon="2.6994329">
        <ele>1194.52</ele>
        <time>2020-12-28T14:44:20Z</time>
        <hdop>9.648</hdop>
      </trkpt>
      <trkpt lat="45.1543714" lon="2.6993814">
        <ele>1196.954</ele>
        <time>2020-12-28T14:44:51Z</time>
        <hdop>6.432</hdop>
      </trkpt>
      <trkpt lat="45.1543763" lon="2.6993504">
        <ele>1199.203</ele>
        <time>2020-12-28T14:45:21Z</time>
        <hdop>5.36</hdop>
      </trkpt>
      <trkpt lat="45.1543161" lon="2.6992361">
        <ele>1191.415</ele>
        <time>2020-12-28T14:45:51Z</time>
        <hdop>5.36</hdop>
      </trkpt>
      <trkpt lat="45.1542661" lon="2.6992354">
        <ele>1195.094</ele>
        <time>2020-12-28T14:46:21Z</time>
        <hdop>4.288</hdop>
      </trkpt>
      <trkpt lat="45.154257" lon="2.6992171">
        <ele>1193.591</ele>
        <time>2020-12-28T14:46:52Z</time>
        <hdop>3.216</hdop>
      </trkpt>
      <trkpt lat="45.1542195" lon="2.6991898">
        <ele>1195.751</ele>
        <time>2020-12-28T14:47:22Z</time>
        <hdop>3.216</hdop>
      </trkpt>
      <trkpt lat="45.1542573" lon="2.6991217">
        <ele>1203.954</ele>
        <time>2020-12-28T14:48:22Z</time>
        <hdop>3.216</hdop>
      </trkpt>
      <trkpt lat="45.1542558" lon="2.6990872">
        <ele>1204.944</ele>
        <time>2020-12-28T14:48:53Z</time>
        <hdop>3.216</hdop>
      </trkpt>
      <trkpt lat="45.1543092" lon="2.6990744">
        <ele>1203.571</ele>
        <time>2020-12-28T14:49:24Z</time>
        <hdop>3.216</hdop>
      </trkpt>
      <trkpt lat="45.1543737" lon="2.6990844">
        <ele>1205.575</ele>
        <time>2020-12-28T14:49:54Z</time>
        <hdop>3.216</hdop>
      </trkpt>
      <trkpt lat="45.1544892" lon="2.6990979">
        <ele>1203.964</ele>
        <time>2020-12-28T14:50:25Z</time>
        <hdop>3.216</hdop>
      </trkpt>
      <trkpt lat="45.1547331" lon="2.6991554">
        <ele>1197.31</ele>
        <time>2020-12-28T14:50:56Z</time>
        <hdop>3.216</hdop>
      </trkpt>
      <trkpt lat="45.1549724" lon="2.6991645">
        <ele>1188.76</ele>
        <time>2020-12-28T14:51:26Z</time>
        <hdop>3.216</hdop>
      </trkpt>
      <trkpt lat="45.1552031" lon="2.69918">
        <ele>1193.506</ele>
        <time>2020-12-28T14:51:57Z</time>
        <hdop>3.216</hdop>
      </trkpt>
      <trkpt lat="45.1552343" lon="2.6991422">
        <ele>1188.478</ele>
        <time>2020-12-28T14:52:28Z</time>
        <hdop>4.288</hdop>
      </trkpt>
      <trkpt lat="45.1553133" lon="2.6991408">
        <ele>1192.518</ele>
        <time>2020-12-28T14:52:58Z</time>
        <hdop>4.288</hdop>
      </trkpt>
      <trkpt lat="45.1554058" lon="2.6991718">
        <ele>1183.193</ele>
        <time>2020-12-28T14:53:28Z</time>
        <hdop>3.216</hdop>
      </trkpt>
      <trkpt lat="45.1555708" lon="2.6992096">
        <ele>1177.348</ele>
        <time>2020-12-28T14:53:59Z</time>
        <hdop>3.216</hdop>
      </trkpt>
      <trkpt lat="45.1557521" lon="2.6992747">
        <ele>1177.696</ele>
        <time>2020-12-28T14:54:30Z</time>
        <hdop>3.216</hdop>
      </trkpt>
      <trkpt lat="45.1558458" lon="2.6993043">
        <ele>1178.674</ele>
        <time>2020-12-28T14:55:00Z</time>
        <hdop>3.216</hdop>
      </trkpt>
      <trkpt lat="45.1559842" lon="2.6993701">
        <ele>1179.455</ele>
        <time>2020-12-28T14:55:31Z</time>
        <hdop>4.288</hdop>
      </trkpt>
      <trkpt lat="45.156138" lon="2.6994176">
        <ele>1173.251</ele>
        <time>2020-12-28T14:56:01Z</time>
        <hdop>4.288</hdop>
      </trkpt>
      <trkpt lat="45.1563324" lon="2.6995111">
        <ele>1173.695</ele>
        <time>2020-12-28T14:56:32Z</time>
        <hdop>3.216</hdop>
      </trkpt>
      <trkpt lat="45.1565212" lon="2.6995256">
        <ele>1167.17</ele>
        <time>2020-12-28T14:57:02Z</time>
        <hdop>3.216</hdop>
      </trkpt>
      <trkpt lat="45.1566016" lon="2.699621">
        <ele>1168.284</ele>
        <time>2020-12-28T14:58:03Z</time>
        <hdop>4.288</hdop>
      </trkpt>
      <trkpt lat="45.1566793" lon="2.6995837">
        <ele>1158.548</ele>
        <time>2020-12-28T14:59:05Z</time>
        <hdop>3.216</hdop>
      </trkpt>
      <trkpt lat="45.1567564" lon="2.6995097">
        <ele>1152.841</ele>
        <time>2020-12-28T14:59:36Z</time>
        <hdop>4.288</hdop>
      </trkpt>
      <trkpt lat="45.1568251" lon="2.699569">
        <ele>1159.477</ele>
        <time>2020-12-28T15:00:07Z</time>
        <hdop>4.288</hdop>
      </trkpt>
      <trkpt lat="45.1568367" lon="2.6996935">
        <ele>1162.652</ele>
        <time>2020-12-28T15:02:10Z</time>
        <hdop>9.648</hdop>
      </trkpt>
      <trkpt lat="45.1566795" lon="2.6997361">
        <ele>1149.033</ele>
        <time>2020-12-28T15:02:40Z</time>
        <hdop>9.648</hdop>
      </trkpt>
      <trkpt lat="45.1565338" lon="2.6998476">
        <ele>1148.95</ele>
        <time>2020-12-28T15:03:10Z</time>
        <hdop>9.648</hdop>
      </trkpt>
      <trkpt lat="45.1563953" lon="2.7000275">
        <ele>1148.214</ele>
        <time>2020-12-28T15:03:41Z</time>
        <hdop>9.648</hdop>
      </trkpt>
      <trkpt lat="45.1564047" lon="2.7000813">
        <ele>1142.846</ele>
        <time>2020-12-28T15:04:42Z</time>
        <hdop>3.216</hdop>
      </trkpt>
      <trkpt lat="45.1564999" lon="2.7002059">
        <ele>1135.923</ele>
        <time>2020-12-28T15:05:13Z</time>
        <hdop>3.216</hdop>
      </trkpt>
      <trkpt lat="45.1565431" lon="2.7003875">
        <ele>1136.19</ele>
        <time>2020-12-28T15:05:43Z</time>
        <hdop>5.36</hdop>
      </trkpt>
      <trkpt lat="45.156623" lon="2.7004636">
        <ele>1131.776</ele>
        <time>2020-12-28T15:06:13Z</time>
        <hdop>3.216</hdop>
      </trkpt>
      <trkpt lat="45.1567916" lon="2.7006008">
        <ele>1119.897</ele>
        <time>2020-12-28T15:06:43Z</time>
        <hdop>4.288</hdop>
      </trkpt>
      <trkpt lat="45.1569018" lon="2.7007696">
        <ele>1119.639</ele>
        <time>2020-12-28T15:07:13Z</time>
        <hdop>4.288</hdop>
      </trkpt>
      <trkpt lat="45.157003" lon="2.7009272">
        <ele>1116.301</ele>
        <time>2020-12-28T15:07:44Z</time>
        <hdop>6.432</hdop>
      </trkpt>
      <trkpt lat="45.1570858" lon="2.7011321">
        <ele>1108.176</ele>
        <time>2020-12-28T15:08:15Z</time>
        <hdop>6.432</hdop>
      </trkpt>
      <trkpt lat="45.157103" lon="2.7011854">
        <ele>1111.89</ele>
        <time>2020-12-28T15:08:45Z</time>
        <hdop>7.504</hdop>
      </trkpt>
      <trkpt lat="45.157143" lon="2.7012341">
        <ele>1112.641</ele>
        <time>2020-12-28T15:09:15Z</time>
        <hdop>4.288</hdop>
      </trkpt>
      <trkpt lat="45.157226" lon="2.7013824">
        <ele>1103.709</ele>
        <time>2020-12-28T15:10:16Z</time>
        <hdop>3.216</hdop>
      </trkpt>
      <trkpt lat="45.1573125" lon="2.7015267">
        <ele>1097.922</ele>
        <time>2020-12-28T15:10:46Z</time>
        <hdop>3.216</hdop>
      </trkpt>
      <trkpt lat="45.1573721" lon="2.7017328">
        <ele>1096.277</ele>
        <time>2020-12-28T15:12:50Z</time>
        <hdop>9.648</hdop>
      </trkpt>
      <trkpt lat="45.1573759" lon="2.7017875">
        <ele>1095.05</ele>
        <time>2020-12-28T15:13:21Z</time>
        <hdop>10.72</hdop>
      </trkpt>
      <trkpt lat="45.1573597" lon="2.7020458">
        <ele>1089.791</ele>
        <time>2020-12-28T15:13:52Z</time>
        <hdop>10.72</hdop>
      </trkpt>
      <trkpt lat="45.1573425" lon="2.7024423">
        <ele>1091.443</ele>
        <time>2020-12-28T15:14:23Z</time>
        <hdop>9.648</hdop>
      </trkpt>
      <trkpt lat="45.1573747" lon="2.7028208">
        <ele>1083.372</ele>
        <time>2020-12-28T15:14:53Z</time>
        <hdop>9.648</hdop>
      </trkpt>
      <trkpt lat="45.1574572" lon="2.7030256">
        <ele>1082.499</ele>
        <time>2020-12-28T15:15:24Z</time>
        <hdop>9.648</hdop>
      </trkpt>
      <trkpt lat="45.157623" lon="2.7031072">
        <ele>1093.439</ele>
        <time>2020-12-28T15:15:54Z</time>
        <hdop>4.288</hdop>
      </trkpt>
      <trkpt lat="45.1577718" lon="2.7032265">
        <ele>1088.022</ele>
        <time>2020-12-28T15:16:25Z</time>
        <hdop>4.288</hdop>
      </trkpt>
      <trkpt lat="45.1579016" lon="2.703193">
        <ele>1089.911</ele>
        <time>2020-12-28T15:16:56Z</time>
        <hdop>11.792</hdop>
      </trkpt>
      <trkpt lat="45.1579327" lon="2.7031464">
        <ele>1091.115</ele>
        <time>2020-12-28T15:17:27Z</time>
        <hdop>12.864</hdop>
      </trkpt>
    </trkseg>
  </trk>
</gpx>
