<?xml version='1.0' encoding='UTF-8'?>
<gpx version="1.1" creator="JOSM GPX export" xmlns="http://www.topografix.com/GPX/1/1"
    xmlns:xsi="http://www.w3.org/2001/XMLSchema-instance"
    xsi:schemaLocation="http://www.topografix.com/GPX/1/1 http://www.topografix.com/GPX/1/1/gpx.xsd">
  <metadata>
    <desc>Planification de l&apos;itinéraire autour de la Roche Veyrand et vers son sommet</desc>
    <author>
      <name>Grégory DAVID</name>
    </author>
    <copyright author="Grégory DAVID">
      <year>2021</year>
      <license>https://creativecommons.org/licenses/by-sa/3.0</license>
    </copyright>
    <bounds minlat="45.4218856" minlon="5.8347085" maxlat="45.4544224" maxlon="5.8720958"/>
  </metadata>
  <rte>
    <rtept lat="45.4324318" lon="5.8714424"/>
    <rtept lat="45.4281289" lon="5.8650743"/>
    <rtept lat="45.4243163" lon="5.8564732"/>
    <rtept lat="45.4243308" lon="5.8517379"/>
    <rtept lat="45.422654" lon="5.8508411"/>
    <rtept lat="45.4220663" lon="5.8487491"/>
    <rtept lat="45.4332595" lon="5.8359109"/>
    <rtept lat="45.4480322" lon="5.8430365"/>
    <rtept lat="45.4458786" lon="5.8587133"/>
    <rtept lat="45.42888" lon="5.8444565"/>
    <rtept lat="45.4355397" lon="5.8632623"/>
    <rtept lat="45.4341067" lon="5.8668844"/>
    <rtept lat="45.4324494" lon="5.871477"/>
  </rte>
  <trk>
    <name>Fri 15 Jan 2021</name>
    <trkseg>
      <trkpt lat="45.4323782" lon="5.8715057">
        <ele>720.955</ele>
      </trkpt>
      <trkpt lat="45.4324177" lon="5.8715674">
        <ele>721.75</ele>
      </trkpt>
      <trkpt lat="45.4324685" lon="5.8716586">
        <ele>722.5</ele>
      </trkpt>
      <trkpt lat="45.4325137" lon="5.8717337">
        <ele>722.559</ele>
      </trkpt>
      <trkpt lat="45.4325814" lon="5.8718169">
        <ele>722.635</ele>
      </trkpt>
      <trkpt lat="45.4326869" lon="5.8719403">
        <ele>722.75</ele>
      </trkpt>
      <trkpt lat="45.4327508" lon="5.8720046">
        <ele>723</ele>
      </trkpt>
      <trkpt lat="45.4327828" lon="5.8720261">
        <ele>723.25</ele>
      </trkpt>
      <trkpt lat="45.432828" lon="5.8720395">
        <ele>724</ele>
      </trkpt>
      <trkpt lat="45.4329052" lon="5.8720583">
        <ele>725.5</ele>
      </trkpt>
      <trkpt lat="45.433084" lon="5.8720958">
        <ele>729</ele>
      </trkpt>
      <trkpt lat="45.4330727" lon="5.8720341">
        <ele>730.25</ele>
      </trkpt>
      <trkpt lat="45.4330652" lon="5.8719912">
        <ele>731</ele>
      </trkpt>
      <trkpt lat="45.4330558" lon="5.8719617">
        <ele>731.5</ele>
      </trkpt>
      <trkpt lat="45.4330445" lon="5.8719429">
        <ele>731.75</ele>
      </trkpt>
      <trkpt lat="45.4330219" lon="5.8719242">
        <ele>731.619</ele>
      </trkpt>
      <trkpt lat="45.4329993" lon="5.8719134">
        <ele>731.5</ele>
      </trkpt>
      <trkpt lat="45.4329692" lon="5.8719054">
        <ele>731</ele>
      </trkpt>
      <trkpt lat="45.4329052" lon="5.8719">
        <ele>729.75</ele>
      </trkpt>
      <trkpt lat="45.4328638" lon="5.871892">
        <ele>728.75</ele>
      </trkpt>
      <trkpt lat="45.4328412" lon="5.8718866">
        <ele>728.25</ele>
      </trkpt>
      <trkpt lat="45.4328224" lon="5.8718732">
        <ele>728</ele>
      </trkpt>
      <trkpt lat="45.4328035" lon="5.8718517">
        <ele>728.139</ele>
      </trkpt>
      <trkpt lat="45.4327941" lon="5.8718276">
        <ele>728.25</ele>
      </trkpt>
      <trkpt lat="45.4327885" lon="5.8718061">
        <ele>728.5</ele>
      </trkpt>
      <trkpt lat="45.4327866" lon="5.8717686">
        <ele>729.25</ele>
      </trkpt>
      <trkpt lat="45.4327885" lon="5.871731">
        <ele>730.25</ele>
      </trkpt>
      <trkpt lat="45.4328186" lon="5.8713126">
        <ele>739.25</ele>
      </trkpt>
      <trkpt lat="45.432828" lon="5.8710846">
        <ele>744.75</ele>
      </trkpt>
      <trkpt lat="45.4328431" lon="5.8709022">
        <ele>749.25</ele>
      </trkpt>
      <trkpt lat="45.4328487" lon="5.8707976">
        <ele>751.25</ele>
      </trkpt>
      <trkpt lat="45.4328487" lon="5.8707467">
        <ele>752.25</ele>
      </trkpt>
      <trkpt lat="45.432845" lon="5.8707038">
        <ele>753</ele>
      </trkpt>
      <trkpt lat="45.4328393" lon="5.8706474">
        <ele>753.75</ele>
      </trkpt>
      <trkpt lat="45.4328243" lon="5.8706045">
        <ele>754.25</ele>
      </trkpt>
      <trkpt lat="45.4328017" lon="5.8705562">
        <ele>754.75</ele>
      </trkpt>
      <trkpt lat="45.4327621" lon="5.8705053">
        <ele>754.656</ele>
      </trkpt>
      <trkpt lat="45.4327283" lon="5.8704731">
        <ele>754.585</ele>
      </trkpt>
      <trkpt lat="45.4326869" lon="5.8704382">
        <ele>754.5</ele>
      </trkpt>
      <trkpt lat="45.4326153" lon="5.870398">
        <ele>754</ele>
      </trkpt>
      <trkpt lat="45.4325532" lon="5.8703712">
        <ele>753.5</ele>
      </trkpt>
      <trkpt lat="45.4325174" lon="5.8703551">
        <ele>753.25</ele>
      </trkpt>
      <trkpt lat="45.4324967" lon="5.8703363">
        <ele>753.314</ele>
      </trkpt>
      <trkpt lat="45.4324836" lon="5.8703122">
        <ele>753.369</ele>
      </trkpt>
      <trkpt lat="45.432461" lon="5.8702478">
        <ele>753.5</ele>
      </trkpt>
      <trkpt lat="45.4324478" lon="5.8701807">
        <ele>753.75</ele>
      </trkpt>
      <trkpt lat="45.4324365" lon="5.8701164">
        <ele>754</ele>
      </trkpt>
      <trkpt lat="45.4324365" lon="5.8700439">
        <ele>754.5</ele>
      </trkpt>
      <trkpt lat="45.4324327" lon="5.8699581">
        <ele>755</ele>
      </trkpt>
      <trkpt lat="45.432444" lon="5.8698481">
        <ele>756</ele>
      </trkpt>
      <trkpt lat="45.432461" lon="5.869765">
        <ele>756.75</ele>
      </trkpt>
      <trkpt lat="45.432493" lon="5.8696899">
        <ele>757.75</ele>
      </trkpt>
      <trkpt lat="45.4325457" lon="5.8695772">
        <ele>759</ele>
      </trkpt>
      <trkpt lat="45.432205" lon="5.86844">
        <ele>757.75</ele>
      </trkpt>
      <trkpt lat="45.4318737" lon="5.8682469">
        <ele>755.75</ele>
      </trkpt>
      <trkpt lat="45.4317438" lon="5.8681718">
        <ele>756.5</ele>
      </trkpt>
      <trkpt lat="45.4312337" lon="5.8680189">
        <ele>752</ele>
      </trkpt>
      <trkpt lat="45.4307481" lon="5.8677828">
        <ele>751.25</ele>
      </trkpt>
      <trkpt lat="45.4299086" lon="5.8673939">
        <ele>731</ele>
      </trkpt>
      <trkpt lat="45.4296714" lon="5.8673939">
        <ele>723.75</ele>
      </trkpt>
      <trkpt lat="45.4294945" lon="5.8670586">
        <ele>716.75</ele>
      </trkpt>
      <trkpt lat="45.4294945" lon="5.8666348">
        <ele>713</ele>
      </trkpt>
      <trkpt lat="45.4294832" lon="5.8662486">
        <ele>715.5</ele>
      </trkpt>
      <trkpt lat="45.4292216" lon="5.8658758">
        <ele>716.25</ele>
      </trkpt>
      <trkpt lat="45.4286776" lon="5.8654547">
        <ele>721.25</ele>
      </trkpt>
      <trkpt lat="45.4283933" lon="5.8654225">
        <ele>718.25</ele>
      </trkpt>
      <trkpt lat="45.4281166" lon="5.8650899">
        <ele>722.751</ele>
      </trkpt>
      <trkpt lat="45.4281166" lon="5.8650899">
        <ele>722.751</ele>
      </trkpt>
      <trkpt lat="45.4279905" lon="5.8649477">
        <ele>724.75</ele>
      </trkpt>
      <trkpt lat="45.4276479" lon="5.8645937">
        <ele>728.25</ele>
      </trkpt>
      <trkpt lat="45.4273147" lon="5.8644408">
        <ele>726.5</ele>
      </trkpt>
      <trkpt lat="45.4271811" lon="5.8642021">
        <ele>726</ele>
      </trkpt>
      <trkpt lat="45.4271039" lon="5.8640626">
        <ele>725</ele>
      </trkpt>
      <trkpt lat="45.4270643" lon="5.863907">
        <ele>723</ele>
      </trkpt>
      <trkpt lat="45.4270832" lon="5.8633921">
        <ele>710</ele>
      </trkpt>
      <trkpt lat="45.4272375" lon="5.8629146">
        <ele>705.75</ele>
      </trkpt>
      <trkpt lat="45.4272902" lon="5.8627161">
        <ele>706</ele>
      </trkpt>
      <trkpt lat="45.4272902" lon="5.8625498">
        <ele>706.75</ele>
      </trkpt>
      <trkpt lat="45.4272714" lon="5.8624184">
        <ele>706.75</ele>
      </trkpt>
      <trkpt lat="45.4271923" lon="5.862295">
        <ele>711</ele>
      </trkpt>
      <trkpt lat="45.4271547" lon="5.862287">
        <ele>712</ele>
      </trkpt>
      <trkpt lat="45.4272262" lon="5.8622172">
        <ele>714.25</ele>
      </trkpt>
      <trkpt lat="45.4273316" lon="5.8621502">
        <ele>717</ele>
      </trkpt>
      <trkpt lat="45.4273994" lon="5.8620939">
        <ele>719.5</ele>
      </trkpt>
      <trkpt lat="45.427422" lon="5.8620483">
        <ele>721.25</ele>
      </trkpt>
      <trkpt lat="45.4274333" lon="5.8619973">
        <ele>722.75</ele>
      </trkpt>
      <trkpt lat="45.4274333" lon="5.8619303">
        <ele>724.5</ele>
      </trkpt>
      <trkpt lat="45.4274314" lon="5.8618739">
        <ele>726</ele>
      </trkpt>
      <trkpt lat="45.4274088" lon="5.8618122">
        <ele>727.5</ele>
      </trkpt>
      <trkpt lat="45.4273768" lon="5.86178">
        <ele>728</ele>
      </trkpt>
      <trkpt lat="45.4273279" lon="5.8617532">
        <ele>728.5</ele>
      </trkpt>
      <trkpt lat="45.4272564" lon="5.8617264">
        <ele>728.75</ele>
      </trkpt>
      <trkpt lat="45.4271999" lon="5.8617023">
        <ele>729.25</ele>
      </trkpt>
      <trkpt lat="45.4271114" lon="5.8616218">
        <ele>731.75</ele>
      </trkpt>
      <trkpt lat="45.4270022" lon="5.8615172">
        <ele>736.25</ele>
      </trkpt>
      <trkpt lat="45.4269175" lon="5.8614501">
        <ele>739.75</ele>
      </trkpt>
      <trkpt lat="45.4268479" lon="5.8613965">
        <ele>742.25</ele>
      </trkpt>
      <trkpt lat="45.4267726" lon="5.8613697">
        <ele>743.75</ele>
      </trkpt>
      <trkpt lat="45.4266916" lon="5.861367">
        <ele>744.25</ele>
      </trkpt>
      <trkpt lat="45.4265956" lon="5.8613616">
        <ele>744.5</ele>
      </trkpt>
      <trkpt lat="45.426494" lon="5.8613214">
        <ele>745.5</ele>
      </trkpt>
      <trkpt lat="45.426413" lon="5.8612704">
        <ele>747</ele>
      </trkpt>
      <trkpt lat="45.4263283" lon="5.86119">
        <ele>749.75</ele>
      </trkpt>
      <trkpt lat="45.4262417" lon="5.8610612">
        <ele>754.5</ele>
      </trkpt>
      <trkpt lat="45.42611" lon="5.8608735">
        <ele>759.75</ele>
      </trkpt>
      <trkpt lat="45.4259537" lon="5.8607072">
        <ele>762</ele>
      </trkpt>
      <trkpt lat="45.4258615" lon="5.8605999">
        <ele>762.75</ele>
      </trkpt>
      <trkpt lat="45.4257805" lon="5.8604577">
        <ele>764</ele>
      </trkpt>
      <trkpt lat="45.4256638" lon="5.8603048">
        <ele>763.25</ele>
      </trkpt>
      <trkpt lat="45.4255377" lon="5.8601519">
        <ele>762</ele>
      </trkpt>
      <trkpt lat="45.425453" lon="5.8600152">
        <ele>761</ele>
      </trkpt>
      <trkpt lat="45.4253814" lon="5.8598542">
        <ele>760.25</ele>
      </trkpt>
      <trkpt lat="45.4253005" lon="5.859696">
        <ele>759</ele>
      </trkpt>
      <trkpt lat="45.4252214" lon="5.8595431">
        <ele>758.25</ele>
      </trkpt>
      <trkpt lat="45.4251612" lon="5.8593473">
        <ele>759.5</ele>
      </trkpt>
      <trkpt lat="45.4251179" lon="5.8591917">
        <ele>762.5</ele>
      </trkpt>
      <trkpt lat="45.4250821" lon="5.8591354">
        <ele>763.5</ele>
      </trkpt>
      <trkpt lat="45.4250313" lon="5.8590817">
        <ele>764</ele>
      </trkpt>
      <trkpt lat="45.4249598" lon="5.8590388">
        <ele>763.75</ele>
      </trkpt>
      <trkpt lat="45.4249334" lon="5.8589986">
        <ele>764</ele>
      </trkpt>
      <trkpt lat="45.4249146" lon="5.8589342">
        <ele>764.5</ele>
      </trkpt>
      <trkpt lat="45.4249146" lon="5.8588564">
        <ele>765.5</ele>
      </trkpt>
      <trkpt lat="45.4249447" lon="5.858776">
        <ele>767.75</ele>
      </trkpt>
      <trkpt lat="45.4249842" lon="5.8586767">
        <ele>771</ele>
      </trkpt>
      <trkpt lat="45.4249974" lon="5.8586338">
        <ele>772.25</ele>
      </trkpt>
      <trkpt lat="45.4249993" lon="5.8585694">
        <ele>773.5</ele>
      </trkpt>
      <trkpt lat="45.4249899" lon="5.8584192">
        <ele>775.75</ele>
      </trkpt>
      <trkpt lat="45.4249748" lon="5.8581913">
        <ele>778</ele>
      </trkpt>
      <trkpt lat="45.424988" lon="5.8579686">
        <ele>781.5</ele>
      </trkpt>
      <trkpt lat="45.4250049" lon="5.8578292">
        <ele>784.5</ele>
      </trkpt>
      <trkpt lat="45.4250426" lon="5.8576575">
        <ele>789.25</ele>
      </trkpt>
      <trkpt lat="45.4250614" lon="5.857569">
        <ele>792.25</ele>
      </trkpt>
      <trkpt lat="45.4250689" lon="5.8574778">
        <ele>795</ele>
      </trkpt>
      <trkpt lat="45.4250652" lon="5.857408">
        <ele>797</ele>
      </trkpt>
      <trkpt lat="45.425052" lon="5.8573598">
        <ele>798.5</ele>
      </trkpt>
      <trkpt lat="45.4250144" lon="5.8572927">
        <ele>800.25</ele>
      </trkpt>
      <trkpt lat="45.4249409" lon="5.8572364">
        <ele>801.25</ele>
      </trkpt>
      <trkpt lat="45.424811" lon="5.8571666">
        <ele>802</ele>
      </trkpt>
      <trkpt lat="45.424715" lon="5.8570942">
        <ele>803.5</ele>
      </trkpt>
      <trkpt lat="45.4246002" lon="5.8570004">
        <ele>805</ele>
      </trkpt>
      <trkpt lat="45.4245249" lon="5.8569145">
        <ele>806.25</ele>
      </trkpt>
      <trkpt lat="45.424476" lon="5.856826">
        <ele>807.75</ele>
      </trkpt>
      <trkpt lat="45.424412" lon="5.8567294">
        <ele>808.25</ele>
      </trkpt>
      <trkpt lat="45.4243555" lon="5.856657">
        <ele>808</ele>
      </trkpt>
      <trkpt lat="45.4243141" lon="5.8565846">
        <ele>808.839</ele>
      </trkpt>
      <trkpt lat="45.4243047" lon="5.8565122">
        <ele>809.5</ele>
      </trkpt>
      <trkpt lat="45.4243065" lon="5.8564639">
        <ele>810.989</ele>
      </trkpt>
      <trkpt lat="45.4243163" lon="5.8564732"/>
      <trkpt lat="45.4243308" lon="5.8517379"/>
      <trkpt lat="45.4243216" lon="5.8517218">
        <ele>913.015</ele>
      </trkpt>
      <trkpt lat="45.4242915" lon="5.8517486">
        <ele>911.25</ele>
      </trkpt>
      <trkpt lat="45.4241879" lon="5.8517271">
        <ele>906.5</ele>
      </trkpt>
      <trkpt lat="45.4240562" lon="5.8518746">
        <ele>899</ele>
      </trkpt>
      <trkpt lat="45.4235705" lon="5.8518532">
        <ele>877.25</ele>
      </trkpt>
      <trkpt lat="45.4234613" lon="5.8517593">
        <ele>873.25</ele>
      </trkpt>
      <trkpt lat="45.4232203" lon="5.8514428">
        <ele>865.5</ele>
      </trkpt>
      <trkpt lat="45.4230132" lon="5.8506784">
        <ele>851.25</ele>
      </trkpt>
      <trkpt lat="45.4228833" lon="5.8505523">
        <ele>844</ele>
      </trkpt>
      <trkpt lat="45.4227572" lon="5.850614">
        <ele>841.5</ele>
      </trkpt>
      <trkpt lat="45.4227779" lon="5.850732">
        <ele>844</ele>
      </trkpt>
      <trkpt lat="45.4226499" lon="5.8508205">
        <ele>840.743</ele>
      </trkpt>
      <trkpt lat="45.422654" lon="5.8508411"/>
      <trkpt lat="45.4220663" lon="5.8487491"/>
      <trkpt lat="45.4220776" lon="5.8487391">
        <ele>832.279</ele>
      </trkpt>
      <trkpt lat="45.4219308" lon="5.8481893">
        <ele>835.25</ele>
      </trkpt>
      <trkpt lat="45.4218856" lon="5.8479345">
        <ele>837.5</ele>
      </trkpt>
      <trkpt lat="45.4218912" lon="5.8477736">
        <ele>838.5</ele>
      </trkpt>
      <trkpt lat="45.4220004" lon="5.8474731">
        <ele>840.25</ele>
      </trkpt>
      <trkpt lat="45.4221077" lon="5.8472586">
        <ele>837.5</ele>
      </trkpt>
      <trkpt lat="45.4222451" lon="5.8471245">
        <ele>835.75</ele>
      </trkpt>
      <trkpt lat="45.4223581" lon="5.847044">
        <ele>834.75</ele>
      </trkpt>
      <trkpt lat="45.4225125" lon="5.8468857">
        <ele>831.25</ele>
      </trkpt>
      <trkpt lat="45.4226273" lon="5.8467838">
        <ele>830.174</ele>
      </trkpt>
      <trkpt lat="45.4226461" lon="5.8467677">
        <ele>830</ele>
      </trkpt>
      <trkpt lat="45.4227026" lon="5.8467168">
        <ele>829.75</ele>
      </trkpt>
      <trkpt lat="45.422857" lon="5.8465263">
        <ele>828</ele>
      </trkpt>
      <trkpt lat="45.4229831" lon="5.8461964">
        <ele>825.25</ele>
      </trkpt>
      <trkpt lat="45.4230697" lon="5.8459362">
        <ele>830</ele>
      </trkpt>
      <trkpt lat="45.4230772" lon="5.8457887">
        <ele>832</ele>
      </trkpt>
      <trkpt lat="45.4231262" lon="5.8455473">
        <ele>837.75</ele>
      </trkpt>
      <trkpt lat="45.4231883" lon="5.8451343">
        <ele>847</ele>
      </trkpt>
      <trkpt lat="45.423194" lon="5.8449948">
        <ele>848.75</ele>
      </trkpt>
      <trkpt lat="45.4231902" lon="5.8447909">
        <ele>851.25</ele>
      </trkpt>
      <trkpt lat="45.423113" lon="5.8443055">
        <ele>854.75</ele>
      </trkpt>
      <trkpt lat="45.4232693" lon="5.8438146">
        <ele>865.75</ele>
      </trkpt>
      <trkpt lat="45.4234142" lon="5.8436108">
        <ele>868.5</ele>
      </trkpt>
      <trkpt lat="45.4234763" lon="5.8432433">
        <ele>864.5</ele>
      </trkpt>
      <trkpt lat="45.4235573" lon="5.8428624">
        <ele>863.5</ele>
      </trkpt>
      <trkpt lat="45.4235949" lon="5.8426425">
        <ele>867</ele>
      </trkpt>
      <trkpt lat="45.4235949" lon="5.8425111">
        <ele>868</ele>
      </trkpt>
      <trkpt lat="45.4236552" lon="5.8423421">
        <ele>873.75</ele>
      </trkpt>
      <trkpt lat="45.4237004" lon="5.8422455">
        <ele>879.25</ele>
      </trkpt>
      <trkpt lat="45.4237361" lon="5.8421704">
        <ele>883.75</ele>
      </trkpt>
      <trkpt lat="45.4237399" lon="5.8421034">
        <ele>887</ele>
      </trkpt>
      <trkpt lat="45.4237211" lon="5.8420256">
        <ele>890.5</ele>
      </trkpt>
      <trkpt lat="45.4236175" lon="5.8418137">
        <ele>900</ele>
      </trkpt>
      <trkpt lat="45.4235949" lon="5.8417493">
        <ele>902.5</ele>
      </trkpt>
      <trkpt lat="45.4235987" lon="5.8416983">
        <ele>904.75</ele>
      </trkpt>
      <trkpt lat="45.4236156" lon="5.8416554">
        <ele>906.75</ele>
      </trkpt>
      <trkpt lat="45.423674" lon="5.8416206">
        <ele>908.75</ele>
      </trkpt>
      <trkpt lat="45.4237681" lon="5.8416179">
        <ele>909.75</ele>
      </trkpt>
      <trkpt lat="45.4239056" lon="5.8416393">
        <ele>911</ele>
      </trkpt>
      <trkpt lat="45.4239733" lon="5.8416152">
        <ele>913.25</ele>
      </trkpt>
      <trkpt lat="45.4240034" lon="5.8415696">
        <ele>915.5</ele>
      </trkpt>
      <trkpt lat="45.4239903" lon="5.8415294">
        <ele>916.5</ele>
      </trkpt>
      <trkpt lat="45.4238416" lon="5.8412343">
        <ele>922.5</ele>
      </trkpt>
      <trkpt lat="45.4237851" lon="5.8410922">
        <ele>926.75</ele>
      </trkpt>
      <trkpt lat="45.4237437" lon="5.8409661">
        <ele>931</ele>
      </trkpt>
      <trkpt lat="45.4237681" lon="5.8409125">
        <ele>933</ele>
      </trkpt>
      <trkpt lat="45.4238566" lon="5.8408615">
        <ele>935.5</ele>
      </trkpt>
      <trkpt lat="45.4239507" lon="5.8408374">
        <ele>937.25</ele>
      </trkpt>
      <trkpt lat="45.4239696" lon="5.8407784">
        <ele>939.75</ele>
      </trkpt>
      <trkpt lat="45.4239771" lon="5.8406416">
        <ele>945</ele>
      </trkpt>
      <trkpt lat="45.423994" lon="5.8405128">
        <ele>950</ele>
      </trkpt>
      <trkpt lat="45.4240185" lon="5.8404216">
        <ele>953.5</ele>
      </trkpt>
      <trkpt lat="45.4240543" lon="5.8403707">
        <ele>955.75</ele>
      </trkpt>
      <trkpt lat="45.4240806" lon="5.8403572">
        <ele>956.75</ele>
      </trkpt>
      <trkpt lat="45.4241239" lon="5.8403519">
        <ele>957.75</ele>
      </trkpt>
      <trkpt lat="45.4241503" lon="5.8403572">
        <ele>958</ele>
      </trkpt>
      <trkpt lat="45.4241917" lon="5.8404002">
        <ele>957.735</ele>
      </trkpt>
      <trkpt lat="45.4242312" lon="5.8404323">
        <ele>957.5</ele>
      </trkpt>
      <trkpt lat="45.4242501" lon="5.8404404">
        <ele>957.75</ele>
      </trkpt>
      <trkpt lat="45.4242971" lon="5.840435">
        <ele>959.25</ele>
      </trkpt>
      <trkpt lat="45.4243423" lon="5.8404189">
        <ele>961</ele>
      </trkpt>
      <trkpt lat="45.4243724" lon="5.8404163">
        <ele>962</ele>
      </trkpt>
      <trkpt lat="45.424395" lon="5.8404028">
        <ele>963</ele>
      </trkpt>
      <trkpt lat="45.4244082" lon="5.8403867">
        <ele>963.75</ele>
      </trkpt>
      <trkpt lat="45.4244703" lon="5.8402795">
        <ele>968</ele>
      </trkpt>
      <trkpt lat="45.4245588" lon="5.8400515">
        <ele>974.75</ele>
      </trkpt>
      <trkpt lat="45.4245757" lon="5.8400166">
        <ele>975.75</ele>
      </trkpt>
      <trkpt lat="45.4246002" lon="5.8400005">
        <ele>976.75</ele>
      </trkpt>
      <trkpt lat="45.4246473" lon="5.8399442">
        <ele>979</ele>
      </trkpt>
      <trkpt lat="45.4246943" lon="5.8398905">
        <ele>981.25</ele>
      </trkpt>
      <trkpt lat="45.4248299" lon="5.8397698">
        <ele>987.25</ele>
      </trkpt>
      <trkpt lat="45.4249033" lon="5.8397081">
        <ele>990.75</ele>
      </trkpt>
      <trkpt lat="45.4249598" lon="5.8395982">
        <ele>994.25</ele>
      </trkpt>
      <trkpt lat="45.4250501" lon="5.8394319">
        <ele>1000</ele>
      </trkpt>
      <trkpt lat="45.4251574" lon="5.8394051">
        <ele>1004.25</ele>
      </trkpt>
      <trkpt lat="45.4251875" lon="5.8393809">
        <ele>1005.75</ele>
      </trkpt>
      <trkpt lat="45.425212" lon="5.8393407">
        <ele>1006.75</ele>
      </trkpt>
      <trkpt lat="45.425261" lon="5.8392924">
        <ele>1009</ele>
      </trkpt>
      <trkpt lat="45.4253438" lon="5.83922">
        <ele>1011.5</ele>
      </trkpt>
      <trkpt lat="45.4253984" lon="5.8391824">
        <ele>1012.5</ele>
      </trkpt>
      <trkpt lat="45.4254774" lon="5.8391476">
        <ele>1013.5</ele>
      </trkpt>
      <trkpt lat="45.4255358" lon="5.8391154">
        <ele>1013.801</ele>
      </trkpt>
      <trkpt lat="45.4255735" lon="5.8390912">
        <ele>1014</ele>
      </trkpt>
      <trkpt lat="45.4256055" lon="5.8390135">
        <ele>1012.25</ele>
      </trkpt>
      <trkpt lat="45.425645" lon="5.8388874">
        <ele>1010.25</ele>
      </trkpt>
      <trkpt lat="45.4256845" lon="5.8387426">
        <ele>1008.5</ele>
      </trkpt>
      <trkpt lat="45.4256845" lon="5.8386943">
        <ele>1008</ele>
      </trkpt>
      <trkpt lat="45.4257636" lon="5.8386165">
        <ele>1006.5</ele>
      </trkpt>
      <trkpt lat="45.4257937" lon="5.838477">
        <ele>1005</ele>
      </trkpt>
      <trkpt lat="45.4260365" lon="5.8383295">
        <ele>997.25</ele>
      </trkpt>
      <trkpt lat="45.4262549" lon="5.8381069">
        <ele>987.75</ele>
      </trkpt>
      <trkpt lat="45.4266389" lon="5.8381364">
        <ele>981</ele>
      </trkpt>
      <trkpt lat="45.426797" lon="5.8382329">
        <ele>985</ele>
      </trkpt>
      <trkpt lat="45.4271754" lon="5.8383885">
        <ele>989.5</ele>
      </trkpt>
      <trkpt lat="45.4274465" lon="5.8384234">
        <ele>985.75</ele>
      </trkpt>
      <trkpt lat="45.4280827" lon="5.8382249">
        <ele>962.5</ele>
      </trkpt>
      <trkpt lat="45.4287491" lon="5.8376965">
        <ele>948.75</ele>
      </trkpt>
      <trkpt lat="45.4291105" lon="5.8375677">
        <ele>937.5</ele>
      </trkpt>
      <trkpt lat="45.42963" lon="5.8378065">
        <ele>928.5</ele>
      </trkpt>
      <trkpt lat="45.4299143" lon="5.837895">
        <ele>931.75</ele>
      </trkpt>
      <trkpt lat="45.4303886" lon="5.8378574">
        <ele>925.5</ele>
      </trkpt>
      <trkpt lat="45.4309796" lon="5.8381525">
        <ele>921.75</ele>
      </trkpt>
      <trkpt lat="45.4310474" lon="5.8380666">
        <ele>918.5</ele>
      </trkpt>
      <trkpt lat="45.4314483" lon="5.8379567">
        <ele>911.451</ele>
      </trkpt>
      <trkpt lat="45.4316177" lon="5.838064">
        <ele>908.25</ele>
      </trkpt>
      <trkpt lat="45.4318417" lon="5.8381712">
        <ele>904.75</ele>
      </trkpt>
      <trkpt lat="45.4322822" lon="5.8380908">
        <ele>894.25</ele>
      </trkpt>
      <trkpt lat="45.4323857" lon="5.837962">
        <ele>890</ele>
      </trkpt>
      <trkpt lat="45.4324271" lon="5.837954">
        <ele>890.75</ele>
      </trkpt>
      <trkpt lat="45.4325852" lon="5.8376858">
        <ele>882</ele>
      </trkpt>
      <trkpt lat="45.4328431" lon="5.8375007">
        <ele>879.5</ele>
      </trkpt>
      <trkpt lat="45.4328468" lon="5.8373934">
        <ele>876.5</ele>
      </trkpt>
      <trkpt lat="45.4329673" lon="5.8372727">
        <ele>874.5</ele>
      </trkpt>
      <trkpt lat="45.4329654" lon="5.8370984">
        <ele>870.75</ele>
      </trkpt>
      <trkpt lat="45.4329466" lon="5.8369401">
        <ele>867.75</ele>
      </trkpt>
      <trkpt lat="45.4329635" lon="5.8368623">
        <ele>866.5</ele>
      </trkpt>
      <trkpt lat="45.4331819" lon="5.8360764">
        <ele>853.25</ele>
      </trkpt>
      <trkpt lat="45.433244" lon="5.8359075">
        <ele>850.16</ele>
      </trkpt>
      <trkpt lat="45.433244" lon="5.8359075">
        <ele>850.16</ele>
      </trkpt>
      <trkpt lat="45.4333287" lon="5.8356634">
        <ele>845.75</ele>
      </trkpt>
      <trkpt lat="45.4334021" lon="5.8355346">
        <ele>842.75</ele>
      </trkpt>
      <trkpt lat="45.4334416" lon="5.8354998">
        <ele>842.25</ele>
      </trkpt>
      <trkpt lat="45.4335338" lon="5.8354944">
        <ele>843.25</ele>
      </trkpt>
      <trkpt lat="45.433628" lon="5.835481">
        <ele>844.75</ele>
      </trkpt>
      <trkpt lat="45.4337089" lon="5.8355105">
        <ele>846.5</ele>
      </trkpt>
      <trkpt lat="45.433946" lon="5.8356258">
        <ele>851.75</ele>
      </trkpt>
      <trkpt lat="45.4340872" lon="5.8356795">
        <ele>854.5</ele>
      </trkpt>
      <trkpt lat="45.4341512" lon="5.8356687">
        <ele>856</ele>
      </trkpt>
      <trkpt lat="45.4342039" lon="5.835599">
        <ele>857.5</ele>
      </trkpt>
      <trkpt lat="45.4342227" lon="5.8354595">
        <ele>858.21</ele>
      </trkpt>
      <trkpt lat="45.4342039" lon="5.8353549">
        <ele>858.75</ele>
      </trkpt>
      <trkpt lat="45.4340759" lon="5.8349285">
        <ele>859.25</ele>
      </trkpt>
      <trkpt lat="45.4340364" lon="5.8347085">
        <ele>859.25</ele>
      </trkpt>
      <trkpt lat="45.4342491" lon="5.834915">
        <ele>861.157</ele>
      </trkpt>
      <trkpt lat="45.4346519" lon="5.8350706">
        <ele>864.25</ele>
      </trkpt>
      <trkpt lat="45.4347874" lon="5.8350384">
        <ele>867</ele>
      </trkpt>
      <trkpt lat="45.4350584" lon="5.835135">
        <ele>872</ele>
      </trkpt>
      <trkpt lat="45.435416" lon="5.835202">
        <ele>877.75</ele>
      </trkpt>
      <trkpt lat="45.4358527" lon="5.8352369">
        <ele>879.75</ele>
      </trkpt>
      <trkpt lat="45.4361181" lon="5.8354515">
        <ele>885.75</ele>
      </trkpt>
      <trkpt lat="45.4363194" lon="5.8356741">
        <ele>889.25</ele>
      </trkpt>
      <trkpt lat="45.436677" lon="5.8358324">
        <ele>894.5</ele>
      </trkpt>
      <trkpt lat="45.4368333" lon="5.8359504">
        <ele>897.5</ele>
      </trkpt>
      <trkpt lat="45.4370102" lon="5.8360818">
        <ele>900</ele>
      </trkpt>
      <trkpt lat="45.4372624" lon="5.8363044">
        <ele>904.75</ele>
      </trkpt>
      <trkpt lat="45.4374581" lon="5.836342">
        <ele>905.25</ele>
      </trkpt>
      <trkpt lat="45.4376858" lon="5.836283">
        <ele>902</ele>
      </trkpt>
      <trkpt lat="45.437795" lon="5.8363125">
        <ele>902</ele>
      </trkpt>
      <trkpt lat="45.4377498" lon="5.8363608">
        <ele>904.5</ele>
      </trkpt>
      <trkpt lat="45.4377536" lon="5.8364895">
        <ele>908.75</ele>
      </trkpt>
      <trkpt lat="45.4378232" lon="5.8366102">
        <ele>910</ele>
      </trkpt>
      <trkpt lat="45.4378759" lon="5.8366531">
        <ele>910.046</ele>
      </trkpt>
      <trkpt lat="45.4379907" lon="5.8366907">
        <ele>910.136</ele>
      </trkpt>
      <trkpt lat="45.4381394" lon="5.8367094">
        <ele>910.25</ele>
      </trkpt>
      <trkpt lat="45.4382617" lon="5.8367363">
        <ele>910.75</ele>
      </trkpt>
      <trkpt lat="45.4383427" lon="5.8367953">
        <ele>911.5</ele>
      </trkpt>
      <trkpt lat="45.4383954" lon="5.8368543">
        <ele>912</ele>
      </trkpt>
      <trkpt lat="45.4384311" lon="5.8368677">
        <ele>912.5</ele>
      </trkpt>
      <trkpt lat="45.4386589" lon="5.8370581">
        <ele>917.75</ele>
      </trkpt>
      <trkpt lat="45.4389732" lon="5.8372915">
        <ele>921.5</ele>
      </trkpt>
      <trkpt lat="45.4394305" lon="5.8377796">
        <ele>926.75</ele>
      </trkpt>
      <trkpt lat="45.4396789" lon="5.8380961">
        <ele>931.75</ele>
      </trkpt>
      <trkpt lat="45.4400497" lon="5.8384743">
        <ele>937.75</ele>
      </trkpt>
      <trkpt lat="45.4406237" lon="5.8390269">
        <ele>950.75</ele>
      </trkpt>
      <trkpt lat="45.4406989" lon="5.8390564">
        <ele>952</ele>
      </trkpt>
      <trkpt lat="45.4408382" lon="5.839102">
        <ele>954.25</ele>
      </trkpt>
      <trkpt lat="45.4408871" lon="5.839169">
        <ele>956</ele>
      </trkpt>
      <trkpt lat="45.4409041" lon="5.8392817">
        <ele>958.5</ele>
      </trkpt>
      <trkpt lat="45.440889" lon="5.8396545">
        <ele>966.25</ele>
      </trkpt>
      <trkpt lat="45.4409003" lon="5.8397323">
        <ele>968</ele>
      </trkpt>
      <trkpt lat="45.4409718" lon="5.8397967">
        <ele>970.25</ele>
      </trkpt>
      <trkpt lat="45.4417509" lon="5.8397537">
        <ele>970.75</ele>
      </trkpt>
      <trkpt lat="45.4425112" lon="5.8397859">
        <ele>970.25</ele>
      </trkpt>
      <trkpt lat="45.442643" lon="5.8397242">
        <ele>969.25</ele>
      </trkpt>
      <trkpt lat="45.4429347" lon="5.8397537">
        <ele>970.25</ele>
      </trkpt>
      <trkpt lat="45.4431906" lon="5.8398798">
        <ele>972</ele>
      </trkpt>
      <trkpt lat="45.4432941" lon="5.839963">
        <ele>973.25</ele>
      </trkpt>
      <trkpt lat="45.4437025" lon="5.8402446">
        <ele>978</ele>
      </trkpt>
      <trkpt lat="45.44406" lon="5.8403492">
        <ele>979.5</ele>
      </trkpt>
      <trkpt lat="45.4445644" lon="5.8406094">
        <ele>983</ele>
      </trkpt>
      <trkpt lat="45.4450179" lon="5.8407971">
        <ele>985.25</ele>
      </trkpt>
      <trkpt lat="45.4454413" lon="5.8409312">
        <ele>989</ele>
      </trkpt>
      <trkpt lat="45.445748" lon="5.8409929">
        <ele>990.25</ele>
      </trkpt>
      <trkpt lat="45.4459663" lon="5.840942">
        <ele>989.5</ele>
      </trkpt>
      <trkpt lat="45.4461714" lon="5.840891">
        <ele>989.25</ele>
      </trkpt>
      <trkpt lat="45.4462674" lon="5.8409634">
        <ele>990</ele>
      </trkpt>
      <trkpt lat="45.4466099" lon="5.84117">
        <ele>992.25</ele>
      </trkpt>
      <trkpt lat="45.4471217" lon="5.8417949">
        <ele>1001.75</ele>
      </trkpt>
      <trkpt lat="45.4474793" lon="5.8422643">
        <ele>1010.25</ele>
      </trkpt>
      <trkpt lat="45.4481077" lon="5.8428168">
        <ele>1019.5</ele>
      </trkpt>
      <trkpt lat="45.4481567" lon="5.8429027">
        <ele>1020.647</ele>
      </trkpt>
      <trkpt lat="45.4481567" lon="5.8429027">
        <ele>1020.647</ele>
      </trkpt>
      <trkpt lat="45.4482244" lon="5.8430234">
        <ele>1022.25</ele>
      </trkpt>
      <trkpt lat="45.4487438" lon="5.843254">
        <ele>1028.5</ele>
      </trkpt>
      <trkpt lat="45.4490712" lon="5.8435357">
        <ele>1032.5</ele>
      </trkpt>
      <trkpt lat="45.4492838" lon="5.8436805">
        <ele>1036</ele>
      </trkpt>
      <trkpt lat="45.4494739" lon="5.8437636">
        <ele>1039</ele>
      </trkpt>
      <trkpt lat="45.4496639" lon="5.8440131">
        <ele>1041</ele>
      </trkpt>
      <trkpt lat="45.4498709" lon="5.8443618">
        <ele>1045.25</ele>
      </trkpt>
      <trkpt lat="45.44998" lon="5.8449867">
        <ele>1054</ele>
      </trkpt>
      <trkpt lat="45.4506348" lon="5.8457538">
        <ele>1066.5</ele>
      </trkpt>
      <trkpt lat="45.4510638" lon="5.8462769">
        <ele>1069.5</ele>
      </trkpt>
      <trkpt lat="45.4513687" lon="5.8466873">
        <ele>1070.5</ele>
      </trkpt>
      <trkpt lat="45.4516735" lon="5.8465773">
        <ele>1070.75</ele>
      </trkpt>
      <trkpt lat="45.4518504" lon="5.8466551">
        <ele>1074.25</ele>
      </trkpt>
      <trkpt lat="45.4521063" lon="5.8473498">
        <ele>1079.75</ele>
      </trkpt>
      <trkpt lat="45.4527328" lon="5.848192">
        <ele>1090.5</ele>
      </trkpt>
      <trkpt lat="45.4531787" lon="5.8488491">
        <ele>1097.5</ele>
      </trkpt>
      <trkpt lat="45.4535381" lon="5.8496806">
        <ele>1105</ele>
      </trkpt>
      <trkpt lat="45.4536209" lon="5.8503994">
        <ele>1112</ele>
      </trkpt>
      <trkpt lat="45.4536077" lon="5.8511934">
        <ele>1118.75</ele>
      </trkpt>
      <trkpt lat="45.4533857" lon="5.8525693">
        <ele>1128</ele>
      </trkpt>
      <trkpt lat="45.4532408" lon="5.8531541">
        <ele>1131.25</ele>
      </trkpt>
      <trkpt lat="45.4534948" lon="5.8532158">
        <ele>1141</ele>
      </trkpt>
      <trkpt lat="45.4533575" lon="5.8537468">
        <ele>1145</ele>
      </trkpt>
      <trkpt lat="45.4531976" lon="5.8541411">
        <ele>1146.25</ele>
      </trkpt>
      <trkpt lat="45.4530884" lon="5.8542967">
        <ele>1144.5</ele>
      </trkpt>
      <trkpt lat="45.4529229" lon="5.8543718">
        <ele>1140</ele>
      </trkpt>
      <trkpt lat="45.4527309" lon="5.8543396">
        <ele>1140.75</ele>
      </trkpt>
      <trkpt lat="45.45265" lon="5.854412">
        <ele>1143</ele>
      </trkpt>
      <trkpt lat="45.4525597" lon="5.8546132">
        <ele>1145.25</ele>
      </trkpt>
      <trkpt lat="45.4524675" lon="5.8554876">
        <ele>1148.75</ele>
      </trkpt>
      <trkpt lat="45.4525955" lon="5.8563459">
        <ele>1156.75</ele>
      </trkpt>
      <trkpt lat="45.4529097" lon="5.8573115">
        <ele>1162.75</ele>
      </trkpt>
      <trkpt lat="45.453318" lon="5.857856">
        <ele>1167</ele>
      </trkpt>
      <trkpt lat="45.4540217" lon="5.8584568">
        <ele>1169.25</ele>
      </trkpt>
      <trkpt lat="45.4542512" lon="5.858607">
        <ele>1172.5</ele>
      </trkpt>
      <trkpt lat="45.4543171" lon="5.8586499">
        <ele>1173</ele>
      </trkpt>
      <trkpt lat="45.4544224" lon="5.8587116">
        <ele>1174</ele>
      </trkpt>
      <trkpt lat="45.4537921" lon="5.8590469">
        <ele>1169.5</ele>
      </trkpt>
      <trkpt lat="45.4533481" lon="5.8592185">
        <ele>1165.25</ele>
      </trkpt>
      <trkpt lat="45.4531374" lon="5.8592293">
        <ele>1165</ele>
      </trkpt>
      <trkpt lat="45.4525654" lon="5.859122">
        <ele>1175.5</ele>
      </trkpt>
      <trkpt lat="45.4523998" lon="5.8591166">
        <ele>1178.5</ele>
      </trkpt>
      <trkpt lat="45.4520178" lon="5.8592454">
        <ele>1182.25</ele>
      </trkpt>
      <trkpt lat="45.4517845" lon="5.8592856">
        <ele>1186</ele>
      </trkpt>
      <trkpt lat="45.4515926" lon="5.8591917">
        <ele>1191</ele>
      </trkpt>
      <trkpt lat="45.4514063" lon="5.8590683">
        <ele>1194.75</ele>
      </trkpt>
      <trkpt lat="45.4508719" lon="5.8588538">
        <ele>1198.5</ele>
      </trkpt>
      <trkpt lat="45.4506311" lon="5.8588001">
        <ele>1199.5</ele>
      </trkpt>
      <trkpt lat="45.450172" lon="5.8588216">
        <ele>1198.5</ele>
      </trkpt>
      <trkpt lat="45.4495924" lon="5.8588752">
        <ele>1199.75</ele>
      </trkpt>
      <trkpt lat="45.4491784" lon="5.8588752">
        <ele>1203.25</ele>
      </trkpt>
      <trkpt lat="45.4486591" lon="5.8587572">
        <ele>1210.5</ele>
      </trkpt>
      <trkpt lat="45.4482" lon="5.8585855">
        <ele>1218</ele>
      </trkpt>
      <trkpt lat="45.447897" lon="5.8584917">
        <ele>1221.75</ele>
      </trkpt>
      <trkpt lat="45.4475658" lon="5.8584353">
        <ele>1221</ele>
      </trkpt>
      <trkpt lat="45.447436" lon="5.8584085">
        <ele>1222.291</ele>
      </trkpt>
      <trkpt lat="45.447212" lon="5.8583844">
        <ele>1224.5</ele>
      </trkpt>
      <trkpt lat="45.447086" lon="5.8583817">
        <ele>1227</ele>
      </trkpt>
      <trkpt lat="45.4468903" lon="5.8584166">
        <ele>1226.668</ele>
      </trkpt>
      <trkpt lat="45.4466456" lon="5.8584729">
        <ele>1226.25</ele>
      </trkpt>
      <trkpt lat="45.4463935" lon="5.8585024">
        <ele>1225.75</ele>
      </trkpt>
      <trkpt lat="45.4460453" lon="5.8585292">
        <ele>1225.5</ele>
      </trkpt>
      <trkpt lat="45.445876" lon="5.8585453">
        <ele>1223.687</ele>
      </trkpt>
      <trkpt lat="45.445876" lon="5.8585453">
        <ele>1223.687</ele>
      </trkpt>
      <trkpt lat="45.4455542" lon="5.8585453">
        <ele>1220.25</ele>
      </trkpt>
      <trkpt lat="45.4453735" lon="5.8584648">
        <ele>1218.5</ele>
      </trkpt>
      <trkpt lat="45.4451854" lon="5.8582261">
        <ele>1220.75</ele>
      </trkpt>
      <trkpt lat="45.4448993" lon="5.8579606">
        <ele>1224.5</ele>
      </trkpt>
      <trkpt lat="45.4447036" lon="5.857805">
        <ele>1225.75</ele>
      </trkpt>
      <trkpt lat="45.444506" lon="5.8577514">
        <ele>1220.5</ele>
      </trkpt>
      <trkpt lat="45.444363" lon="5.857746">
        <ele>1215.25</ele>
      </trkpt>
      <trkpt lat="45.444252" lon="5.8576253">
        <ele>1215</ele>
      </trkpt>
      <trkpt lat="45.4441315" lon="5.8574563">
        <ele>1216</ele>
      </trkpt>
      <trkpt lat="45.4439415" lon="5.857349">
        <ele>1214.5</ele>
      </trkpt>
      <trkpt lat="45.4437326" lon="5.8572793">
        <ele>1214.75</ele>
      </trkpt>
      <trkpt lat="45.4434051" lon="5.8570862">
        <ele>1218.75</ele>
      </trkpt>
      <trkpt lat="45.4431022" lon="5.8569279">
        <ele>1219.75</ele>
      </trkpt>
      <trkpt lat="45.4426599" lon="5.8566946">
        <ele>1221.5</ele>
      </trkpt>
      <trkpt lat="45.44218" lon="5.8564317">
        <ele>1224.5</ele>
      </trkpt>
      <trkpt lat="45.4418262" lon="5.8562386">
        <ele>1226.75</ele>
      </trkpt>
      <trkpt lat="45.4415007" lon="5.8560079">
        <ele>1231.75</ele>
      </trkpt>
      <trkpt lat="45.4413275" lon="5.8559865">
        <ele>1230</ele>
      </trkpt>
      <trkpt lat="45.441177" lon="5.8559328">
        <ele>1229</ele>
      </trkpt>
      <trkpt lat="45.4410546" lon="5.8557826">
        <ele>1230.5</ele>
      </trkpt>
      <trkpt lat="45.4408947" lon="5.8557397">
        <ele>1229.5</ele>
      </trkpt>
      <trkpt lat="45.4405954" lon="5.8557531">
        <ele>1228</ele>
      </trkpt>
      <trkpt lat="45.4403207" lon="5.8557183">
        <ele>1229</ele>
      </trkpt>
      <trkpt lat="45.4401061" lon="5.8555841">
        <ele>1230.75</ele>
      </trkpt>
      <trkpt lat="45.4399217" lon="5.8555412">
        <ele>1230.574</ele>
      </trkpt>
      <trkpt lat="45.4395773" lon="5.8555251">
        <ele>1230.25</ele>
      </trkpt>
      <trkpt lat="45.4393006" lon="5.8554822">
        <ele>1232.25</ele>
      </trkpt>
      <trkpt lat="45.4391501" lon="5.8553749">
        <ele>1234.75</ele>
      </trkpt>
      <trkpt lat="45.4389675" lon="5.8552811">
        <ele>1237.25</ele>
      </trkpt>
      <trkpt lat="45.4387755" lon="5.8552945">
        <ele>1238.25</ele>
      </trkpt>
      <trkpt lat="45.4383765" lon="5.8553669">
        <ele>1236</ele>
      </trkpt>
      <trkpt lat="45.4380133" lon="5.8554661">
        <ele>1233.25</ele>
      </trkpt>
      <trkpt lat="45.4375146" lon="5.8557343">
        <ele>1230.75</ele>
      </trkpt>
      <trkpt lat="45.4371382" lon="5.855965">
        <ele>1226.75</ele>
      </trkpt>
      <trkpt lat="45.4368747" lon="5.8560482">
        <ele>1225</ele>
      </trkpt>
      <trkpt lat="45.4365604" lon="5.8560428">
        <ele>1223.75</ele>
      </trkpt>
      <trkpt lat="45.4362442" lon="5.8560374">
        <ele>1224</ele>
      </trkpt>
      <trkpt lat="45.4359562" lon="5.8560348">
        <ele>1215.75</ele>
      </trkpt>
      <trkpt lat="45.4357906" lon="5.855796">
        <ele>1208.25</ele>
      </trkpt>
      <trkpt lat="45.4357379" lon="5.8554983">
        <ele>1214.75</ele>
      </trkpt>
      <trkpt lat="45.4355779" lon="5.8551282">
        <ele>1216</ele>
      </trkpt>
      <trkpt lat="45.4354518" lon="5.8549055">
        <ele>1213.75</ele>
      </trkpt>
      <trkpt lat="45.4351055" lon="5.854294">
        <ele>1210.776</ele>
      </trkpt>
      <trkpt lat="45.4347799" lon="5.8538139">
        <ele>1208.25</ele>
      </trkpt>
      <trkpt lat="45.4345408" lon="5.8534625">
        <ele>1205</ele>
      </trkpt>
      <trkpt lat="45.4342811" lon="5.8531433">
        <ele>1206.75</ele>
      </trkpt>
      <trkpt lat="45.4340402" lon="5.8529073">
        <ele>1209</ele>
      </trkpt>
      <trkpt lat="45.4337879" lon="5.8527437">
        <ele>1214.5</ele>
      </trkpt>
      <trkpt lat="45.433564" lon="5.8526793">
        <ele>1217.75</ele>
      </trkpt>
      <trkpt lat="45.4334002" lon="5.8526793">
        <ele>1219</ele>
      </trkpt>
      <trkpt lat="45.43302" lon="5.8526793">
        <ele>1223.25</ele>
      </trkpt>
      <trkpt lat="45.4327132" lon="5.852792">
        <ele>1222.5</ele>
      </trkpt>
      <trkpt lat="45.4324139" lon="5.8528993">
        <ele>1221.5</ele>
      </trkpt>
      <trkpt lat="45.4322295" lon="5.8529663">
        <ele>1220</ele>
      </trkpt>
      <trkpt lat="45.4320262" lon="5.8530951">
        <ele>1215</ele>
      </trkpt>
      <trkpt lat="45.431789" lon="5.8532318">
        <ele>1209</ele>
      </trkpt>
      <trkpt lat="45.4315613" lon="5.8532399">
        <ele>1208.75</ele>
      </trkpt>
      <trkpt lat="45.4314314" lon="5.853205">
        <ele>1209.75</ele>
      </trkpt>
      <trkpt lat="45.4312996" lon="5.8531862">
        <ele>1212</ele>
      </trkpt>
      <trkpt lat="45.4312563" lon="5.8529449">
        <ele>1219.25</ele>
      </trkpt>
      <trkpt lat="45.4312657" lon="5.8526981">
        <ele>1224</ele>
      </trkpt>
      <trkpt lat="45.4312394" lon="5.8524138">
        <ele>1229.75</ele>
      </trkpt>
      <trkpt lat="45.4312695" lon="5.8521724">
        <ele>1235</ele>
      </trkpt>
      <trkpt lat="45.4312149" lon="5.8520356">
        <ele>1238.25</ele>
      </trkpt>
      <trkpt lat="45.431117" lon="5.8519578">
        <ele>1240.5</ele>
      </trkpt>
      <trkpt lat="45.43091" lon="5.8519095">
        <ele>1243.5</ele>
      </trkpt>
      <trkpt lat="45.4305919" lon="5.8516896">
        <ele>1252.75</ele>
      </trkpt>
      <trkpt lat="45.4304131" lon="5.8514079">
        <ele>1261</ele>
      </trkpt>
      <trkpt lat="45.4302964" lon="5.8510861">
        <ele>1269.75</ele>
      </trkpt>
      <trkpt lat="45.4301815" lon="5.8508527">
        <ele>1275.25</ele>
      </trkpt>
      <trkpt lat="45.4300855" lon="5.8506918">
        <ele>1279.25</ele>
      </trkpt>
      <trkpt lat="45.4300743" lon="5.8505496">
        <ele>1281.75</ele>
      </trkpt>
      <trkpt lat="45.4300743" lon="5.8503699">
        <ele>1285</ele>
      </trkpt>
      <trkpt lat="45.4299952" lon="5.8500829">
        <ele>1291</ele>
      </trkpt>
      <trkpt lat="45.4298578" lon="5.849745">
        <ele>1297.5</ele>
      </trkpt>
      <trkpt lat="45.4296865" lon="5.8495867">
        <ele>1300</ele>
      </trkpt>
      <trkpt lat="45.4295641" lon="5.8494151">
        <ele>1303</ele>
      </trkpt>
      <trkpt lat="45.4294474" lon="5.8492488">
        <ele>1305.5</ele>
      </trkpt>
      <trkpt lat="45.4292987" lon="5.8490503">
        <ele>1308</ele>
      </trkpt>
      <trkpt lat="45.429214" lon="5.8488411">
        <ele>1313.5</ele>
      </trkpt>
      <trkpt lat="45.4290333" lon="5.8487096">
        <ele>1316</ele>
      </trkpt>
      <trkpt lat="45.4288357" lon="5.8485004">
        <ele>1318.78</ele>
      </trkpt>
      <trkpt lat="45.4286757" lon="5.8484012">
        <ele>1320.75</ele>
      </trkpt>
      <trkpt lat="45.4285533" lon="5.8483261">
        <ele>1318</ele>
      </trkpt>
      <trkpt lat="45.4285646" lon="5.8481249">
        <ele>1318.25</ele>
      </trkpt>
      <trkpt lat="45.428623" lon="5.8477414">
        <ele>1322.5</ele>
      </trkpt>
      <trkpt lat="45.4286625" lon="5.8475563">
        <ele>1326</ele>
      </trkpt>
      <trkpt lat="45.4287359" lon="5.8474866">
        <ele>1327.5</ele>
      </trkpt>
      <trkpt lat="45.4288394" lon="5.8474275">
        <ele>1328.75</ele>
      </trkpt>
      <trkpt lat="45.4288921" lon="5.8473873">
        <ele>1329.75</ele>
      </trkpt>
      <trkpt lat="45.4289053" lon="5.8473095">
        <ele>1331.75</ele>
      </trkpt>
      <trkpt lat="45.4288545" lon="5.8472076">
        <ele>1336</ele>
      </trkpt>
      <trkpt lat="45.4288037" lon="5.8471191">
        <ele>1341</ele>
      </trkpt>
      <trkpt lat="45.4288206" lon="5.847044">
        <ele>1344.5</ele>
      </trkpt>
      <trkpt lat="45.4288959" lon="5.8470118">
        <ele>1344.75</ele>
      </trkpt>
      <trkpt lat="45.4289938" lon="5.8470064">
        <ele>1343.5</ele>
      </trkpt>
      <trkpt lat="45.4290917" lon="5.8469206">
        <ele>1346.25</ele>
      </trkpt>
      <trkpt lat="45.4291689" lon="5.8467141">
        <ele>1354.25</ele>
      </trkpt>
      <trkpt lat="45.4293044" lon="5.8465263">
        <ele>1361</ele>
      </trkpt>
      <trkpt lat="45.4294305" lon="5.8462206">
        <ele>1367.25</ele>
      </trkpt>
      <trkpt lat="45.4294625" lon="5.8460355">
        <ele>1374</ele>
      </trkpt>
      <trkpt lat="45.4294399" lon="5.8459228">
        <ele>1377.75</ele>
      </trkpt>
      <trkpt lat="45.4293345" lon="5.8458397">
        <ele>1380.75</ele>
      </trkpt>
      <trkpt lat="45.4291952" lon="5.8457994">
        <ele>1383.75</ele>
      </trkpt>
      <trkpt lat="45.4290936" lon="5.8457619">
        <ele>1386.5</ele>
      </trkpt>
      <trkpt lat="45.4291049" lon="5.8456895">
        <ele>1388.75</ele>
      </trkpt>
      <trkpt lat="45.429182" lon="5.8456573">
        <ele>1388.25</ele>
      </trkpt>
      <trkpt lat="45.4292536" lon="5.8456278">
        <ele>1387.5</ele>
      </trkpt>
      <trkpt lat="45.4292837" lon="5.8455634">
        <ele>1388.25</ele>
      </trkpt>
      <trkpt lat="45.4292517" lon="5.8454561">
        <ele>1392</ele>
      </trkpt>
      <trkpt lat="45.4291726" lon="5.8454025">
        <ele>1396.25</ele>
      </trkpt>
      <trkpt lat="45.4290879" lon="5.8453515">
        <ele>1401</ele>
      </trkpt>
      <trkpt lat="45.4289731" lon="5.8451557">
        <ele>1411.25</ele>
      </trkpt>
      <trkpt lat="45.4289449" lon="5.8449599">
        <ele>1416.25</ele>
      </trkpt>
      <trkpt lat="45.4289223" lon="5.8447534">
        <ele>1419</ele>
      </trkpt>
      <trkpt lat="45.4288978" lon="5.844571">
        <ele>1419.75</ele>
      </trkpt>
      <trkpt lat="45.4288545" lon="5.8444905">
        <ele>1419.467</ele>
      </trkpt>
      <trkpt lat="45.4288545" lon="5.8444905">
        <ele>1419.467</ele>
      </trkpt>
      <trkpt lat="45.4288978" lon="5.844571">
        <ele>1419.75</ele>
      </trkpt>
      <trkpt lat="45.4289223" lon="5.8447534">
        <ele>1419</ele>
      </trkpt>
      <trkpt lat="45.4289449" lon="5.8449599">
        <ele>1416.25</ele>
      </trkpt>
      <trkpt lat="45.4289731" lon="5.8451557">
        <ele>1411.25</ele>
      </trkpt>
      <trkpt lat="45.4290879" lon="5.8453515">
        <ele>1401</ele>
      </trkpt>
      <trkpt lat="45.4291726" lon="5.8454025">
        <ele>1396.25</ele>
      </trkpt>
      <trkpt lat="45.4292517" lon="5.8454561">
        <ele>1392</ele>
      </trkpt>
      <trkpt lat="45.4292837" lon="5.8455634">
        <ele>1388.25</ele>
      </trkpt>
      <trkpt lat="45.4292536" lon="5.8456278">
        <ele>1387.5</ele>
      </trkpt>
      <trkpt lat="45.429182" lon="5.8456573">
        <ele>1388.25</ele>
      </trkpt>
      <trkpt lat="45.4291049" lon="5.8456895">
        <ele>1388.75</ele>
      </trkpt>
      <trkpt lat="45.4290936" lon="5.8457619">
        <ele>1386.5</ele>
      </trkpt>
      <trkpt lat="45.4291952" lon="5.8457994">
        <ele>1383.75</ele>
      </trkpt>
      <trkpt lat="45.4293345" lon="5.8458397">
        <ele>1380.75</ele>
      </trkpt>
      <trkpt lat="45.4294399" lon="5.8459228">
        <ele>1377.75</ele>
      </trkpt>
      <trkpt lat="45.4294625" lon="5.8460355">
        <ele>1374</ele>
      </trkpt>
      <trkpt lat="45.4294305" lon="5.8462206">
        <ele>1367.25</ele>
      </trkpt>
      <trkpt lat="45.4293044" lon="5.8465263">
        <ele>1361</ele>
      </trkpt>
      <trkpt lat="45.4291689" lon="5.8467141">
        <ele>1354.25</ele>
      </trkpt>
      <trkpt lat="45.4290917" lon="5.8469206">
        <ele>1346.25</ele>
      </trkpt>
      <trkpt lat="45.4289938" lon="5.8470064">
        <ele>1343.5</ele>
      </trkpt>
      <trkpt lat="45.4288959" lon="5.8470118">
        <ele>1344.75</ele>
      </trkpt>
      <trkpt lat="45.4288206" lon="5.847044">
        <ele>1344.5</ele>
      </trkpt>
      <trkpt lat="45.4288037" lon="5.8471191">
        <ele>1341</ele>
      </trkpt>
      <trkpt lat="45.4288545" lon="5.8472076">
        <ele>1336</ele>
      </trkpt>
      <trkpt lat="45.4289053" lon="5.8473095">
        <ele>1331.75</ele>
      </trkpt>
      <trkpt lat="45.4288921" lon="5.8473873">
        <ele>1329.75</ele>
      </trkpt>
      <trkpt lat="45.4288394" lon="5.8474275">
        <ele>1328.75</ele>
      </trkpt>
      <trkpt lat="45.4287359" lon="5.8474866">
        <ele>1327.5</ele>
      </trkpt>
      <trkpt lat="45.4286625" lon="5.8475563">
        <ele>1326</ele>
      </trkpt>
      <trkpt lat="45.428623" lon="5.8477414">
        <ele>1322.5</ele>
      </trkpt>
      <trkpt lat="45.4285646" lon="5.8481249">
        <ele>1318.25</ele>
      </trkpt>
      <trkpt lat="45.4285533" lon="5.8483261">
        <ele>1318</ele>
      </trkpt>
      <trkpt lat="45.4286757" lon="5.8484012">
        <ele>1320.75</ele>
      </trkpt>
      <trkpt lat="45.4288357" lon="5.8485004">
        <ele>1318.78</ele>
      </trkpt>
      <trkpt lat="45.4290333" lon="5.8487096">
        <ele>1316</ele>
      </trkpt>
      <trkpt lat="45.429214" lon="5.8488411">
        <ele>1313.5</ele>
      </trkpt>
      <trkpt lat="45.4292987" lon="5.8490503">
        <ele>1308</ele>
      </trkpt>
      <trkpt lat="45.4294474" lon="5.8492488">
        <ele>1305.5</ele>
      </trkpt>
      <trkpt lat="45.4295641" lon="5.8494151">
        <ele>1303</ele>
      </trkpt>
      <trkpt lat="45.4296865" lon="5.8495867">
        <ele>1300</ele>
      </trkpt>
      <trkpt lat="45.4298578" lon="5.849745">
        <ele>1297.5</ele>
      </trkpt>
      <trkpt lat="45.4299952" lon="5.8500829">
        <ele>1291</ele>
      </trkpt>
      <trkpt lat="45.4300743" lon="5.8503699">
        <ele>1285</ele>
      </trkpt>
      <trkpt lat="45.4300743" lon="5.8505496">
        <ele>1281.75</ele>
      </trkpt>
      <trkpt lat="45.4300855" lon="5.8506918">
        <ele>1279.25</ele>
      </trkpt>
      <trkpt lat="45.4301815" lon="5.8508527">
        <ele>1275.25</ele>
      </trkpt>
      <trkpt lat="45.4302964" lon="5.8510861">
        <ele>1269.75</ele>
      </trkpt>
      <trkpt lat="45.4304131" lon="5.8514079">
        <ele>1261</ele>
      </trkpt>
      <trkpt lat="45.4305919" lon="5.8516896">
        <ele>1252.75</ele>
      </trkpt>
      <trkpt lat="45.43091" lon="5.8519095">
        <ele>1243.5</ele>
      </trkpt>
      <trkpt lat="45.431117" lon="5.8519578">
        <ele>1240.5</ele>
      </trkpt>
      <trkpt lat="45.4312149" lon="5.8520356">
        <ele>1238.25</ele>
      </trkpt>
      <trkpt lat="45.4312695" lon="5.8521724">
        <ele>1235</ele>
      </trkpt>
      <trkpt lat="45.4312394" lon="5.8524138">
        <ele>1229.75</ele>
      </trkpt>
      <trkpt lat="45.4312657" lon="5.8526981">
        <ele>1224</ele>
      </trkpt>
      <trkpt lat="45.4312563" lon="5.8529449">
        <ele>1219.25</ele>
      </trkpt>
      <trkpt lat="45.4312996" lon="5.8531862">
        <ele>1212</ele>
      </trkpt>
      <trkpt lat="45.4314314" lon="5.853205">
        <ele>1211</ele>
      </trkpt>
      <trkpt lat="45.4314879" lon="5.8533204">
        <ele>1207.75</ele>
      </trkpt>
      <trkpt lat="45.4315763" lon="5.8533499">
        <ele>1206.75</ele>
      </trkpt>
      <trkpt lat="45.4316478" lon="5.8534759">
        <ele>1203.25</ele>
      </trkpt>
      <trkpt lat="45.4317175" lon="5.8535269">
        <ele>1202</ele>
      </trkpt>
      <trkpt lat="45.4318323" lon="5.8535001">
        <ele>1202.75</ele>
      </trkpt>
      <trkpt lat="45.4319622" lon="5.8534008">
        <ele>1206</ele>
      </trkpt>
      <trkpt lat="45.4320525" lon="5.8533418">
        <ele>1208.25</ele>
      </trkpt>
      <trkpt lat="45.4321485" lon="5.8533338">
        <ele>1209</ele>
      </trkpt>
      <trkpt lat="45.4324384" lon="5.8531889">
        <ele>1214</ele>
      </trkpt>
      <trkpt lat="45.4326229" lon="5.8530173">
        <ele>1217.5</ele>
      </trkpt>
      <trkpt lat="45.4327414" lon="5.8529797">
        <ele>1217.75</ele>
      </trkpt>
      <trkpt lat="45.4328713" lon="5.85291">
        <ele>1218.75</ele>
      </trkpt>
      <trkpt lat="45.4329805" lon="5.8529556">
        <ele>1216.75</ele>
      </trkpt>
      <trkpt lat="45.4330991" lon="5.8531353">
        <ele>1211.5</ele>
      </trkpt>
      <trkpt lat="45.433244" lon="5.8533204">
        <ele>1204.75</ele>
      </trkpt>
      <trkpt lat="45.4334134" lon="5.8533928">
        <ele>1200</ele>
      </trkpt>
      <trkpt lat="45.4335244" lon="5.8534759">
        <ele>1194.75</ele>
      </trkpt>
      <trkpt lat="45.4335997" lon="5.8536288">
        <ele>1186.5</ele>
      </trkpt>
      <trkpt lat="45.4337484" lon="5.853712">
        <ele>1179.75</ele>
      </trkpt>
      <trkpt lat="45.433771" lon="5.8539239">
        <ele>1172</ele>
      </trkpt>
      <trkpt lat="45.4338632" lon="5.8543155">
        <ele>1161.25</ele>
      </trkpt>
      <trkpt lat="45.4339442" lon="5.8544925">
        <ele>1158.75</ele>
      </trkpt>
      <trkpt lat="45.4340966" lon="5.8544764">
        <ele>1163.5</ele>
      </trkpt>
      <trkpt lat="45.434234" lon="5.8546373">
        <ele>1161.75</ele>
      </trkpt>
      <trkpt lat="45.434283" lon="5.8548251">
        <ele>1156.25</ele>
      </trkpt>
      <trkpt lat="45.434298" lon="5.8550262">
        <ele>1149.75</ele>
      </trkpt>
      <trkpt lat="45.4343037" lon="5.8552676">
        <ele>1142.5</ele>
      </trkpt>
      <trkpt lat="45.4343601" lon="5.8555198">
        <ele>1135.5</ele>
      </trkpt>
      <trkpt lat="45.4344053" lon="5.8556432">
        <ele>1132.25</ele>
      </trkpt>
      <trkpt lat="45.4344091" lon="5.8557987">
        <ele>1128.25</ele>
      </trkpt>
      <trkpt lat="45.4344599" lon="5.8564183">
        <ele>1110.25</ele>
      </trkpt>
      <trkpt lat="45.4346199" lon="5.8569145">
        <ele>1096.25</ele>
      </trkpt>
      <trkpt lat="45.4346839" lon="5.8571747">
        <ele>1088.75</ele>
      </trkpt>
      <trkpt lat="45.4347836" lon="5.8573866">
        <ele>1085.75</ele>
      </trkpt>
      <trkpt lat="45.434665" lon="5.8577728">
        <ele>1069</ele>
      </trkpt>
      <trkpt lat="45.4345672" lon="5.8581242">
        <ele>1056.25</ele>
      </trkpt>
      <trkpt lat="45.4346236" lon="5.8584997">
        <ele>1048.25</ele>
      </trkpt>
      <trkpt lat="45.4348024" lon="5.8590952">
        <ele>1040</ele>
      </trkpt>
      <trkpt lat="45.4349568" lon="5.8595833">
        <ele>1034.75</ele>
      </trkpt>
      <trkpt lat="45.4350584" lon="5.8596906">
        <ele>1039.75</ele>
      </trkpt>
      <trkpt lat="45.435273" lon="5.8606669">
        <ele>1034</ele>
      </trkpt>
      <trkpt lat="45.4353727" lon="5.8610129">
        <ele>1035.75</ele>
      </trkpt>
      <trkpt lat="45.4355026" lon="5.861198">
        <ele>1040.5</ele>
      </trkpt>
      <trkpt lat="45.4354668" lon="5.8614662">
        <ele>1035</ele>
      </trkpt>
      <trkpt lat="45.4355741" lon="5.8619222">
        <ele>1035.25</ele>
      </trkpt>
      <trkpt lat="45.4355327" lon="5.8622923">
        <ele>1031</ele>
      </trkpt>
      <trkpt lat="45.4356362" lon="5.8623835">
        <ele>1029.5</ele>
      </trkpt>
      <trkpt lat="45.4356362" lon="5.8626115">
        <ele>1025.75</ele>
      </trkpt>
      <trkpt lat="45.4355139" lon="5.8629414">
        <ele>1017.5</ele>
      </trkpt>
      <trkpt lat="45.4354179" lon="5.8631667">
        <ele>1008.5</ele>
      </trkpt>
      <trkpt lat="45.435448" lon="5.8632419">
        <ele>1005.5</ele>
      </trkpt>
      <trkpt lat="45.4355101" lon="5.8632874">
        <ele>1003.602</ele>
      </trkpt>
      <trkpt lat="45.4355101" lon="5.8632874">
        <ele>1003.602</ele>
      </trkpt>
      <trkpt lat="45.4355101" lon="5.8632928">
        <ele>1003.5</ele>
      </trkpt>
      <trkpt lat="45.4355741" lon="5.8635181">
        <ele>994.5</ele>
      </trkpt>
      <trkpt lat="45.4356852" lon="5.8635986">
        <ele>990.5</ele>
      </trkpt>
      <trkpt lat="45.435911" lon="5.8636522">
        <ele>987</ele>
      </trkpt>
      <trkpt lat="45.4359995" lon="5.8636791">
        <ele>985.25</ele>
      </trkpt>
      <trkpt lat="45.4360823" lon="5.8636308">
        <ele>986.5</ele>
      </trkpt>
      <trkpt lat="45.4362423" lon="5.863612">
        <ele>986.25</ele>
      </trkpt>
      <trkpt lat="45.4364305" lon="5.8636817">
        <ele>985.75</ele>
      </trkpt>
      <trkpt lat="45.4365265" lon="5.8638534">
        <ele>982.25</ele>
      </trkpt>
      <trkpt lat="45.4365942" lon="5.8638963">
        <ele>982.44</ele>
      </trkpt>
      <trkpt lat="45.4367128" lon="5.8639312">
        <ele>982.75</ele>
      </trkpt>
      <trkpt lat="45.4367429" lon="5.8639634">
        <ele>982</ele>
      </trkpt>
      <trkpt lat="45.4366601" lon="5.8641028">
        <ele>977.75</ele>
      </trkpt>
      <trkpt lat="45.436502" lon="5.8642396">
        <ele>974.25</ele>
      </trkpt>
      <trkpt lat="45.4362931" lon="5.8643201">
        <ele>968.25</ele>
      </trkpt>
      <trkpt lat="45.4361858" lon="5.8642772">
        <ele>967</ele>
      </trkpt>
      <trkpt lat="45.4360861" lon="5.8643094">
        <ele>964.75</ele>
      </trkpt>
      <trkpt lat="45.4356663" lon="5.8645749">
        <ele>951.75</ele>
      </trkpt>
      <trkpt lat="45.4353464" lon="5.8646715">
        <ele>946</ele>
      </trkpt>
      <trkpt lat="45.4352278" lon="5.8646634">
        <ele>944.5</ele>
      </trkpt>
      <trkpt lat="45.4351356" lon="5.8646661">
        <ele>943.25</ele>
      </trkpt>
      <trkpt lat="45.4349944" lon="5.8646098">
        <ele>944.75</ele>
      </trkpt>
      <trkpt lat="45.4346839" lon="5.8648914">
        <ele>933.25</ele>
      </trkpt>
      <trkpt lat="45.4344335" lon="5.8650067">
        <ele>928.75</ele>
      </trkpt>
      <trkpt lat="45.4341042" lon="5.8651409">
        <ele>922.25</ele>
      </trkpt>
      <trkpt lat="45.4339442" lon="5.8650845">
        <ele>922.5</ele>
      </trkpt>
      <trkpt lat="45.4338444" lon="5.8651489">
        <ele>919.25</ele>
      </trkpt>
      <trkpt lat="45.4337559" lon="5.8651221">
        <ele>917.471</ele>
      </trkpt>
      <trkpt lat="45.4336468" lon="5.8652106">
        <ele>915</ele>
      </trkpt>
      <trkpt lat="45.4335357" lon="5.8652428">
        <ele>912.75</ele>
      </trkpt>
      <trkpt lat="45.4334699" lon="5.8653125">
        <ele>910</ele>
      </trkpt>
      <trkpt lat="45.4334172" lon="5.8652213">
        <ele>912.25</ele>
      </trkpt>
      <trkpt lat="45.433355" lon="5.8653098">
        <ele>909</ele>
      </trkpt>
      <trkpt lat="45.4335546" lon="5.8655083">
        <ele>904.75</ele>
      </trkpt>
      <trkpt lat="45.4337654" lon="5.8656827">
        <ele>901</ele>
      </trkpt>
      <trkpt lat="45.4338557" lon="5.8657202">
        <ele>899.25</ele>
      </trkpt>
      <trkpt lat="45.4340213" lon="5.8658034">
        <ele>894.25</ele>
      </trkpt>
      <trkpt lat="45.4340609" lon="5.8658221">
        <ele>893.25</ele>
      </trkpt>
      <trkpt lat="45.4342303" lon="5.8659053">
        <ele>889.907</ele>
      </trkpt>
      <trkpt lat="45.4343187" lon="5.865916">
        <ele>888.25</ele>
      </trkpt>
      <trkpt lat="45.434379" lon="5.8659938">
        <ele>886</ele>
      </trkpt>
      <trkpt lat="45.4343714" lon="5.866085">
        <ele>882.5</ele>
      </trkpt>
      <trkpt lat="45.4340326" lon="5.866262">
        <ele>871</ele>
      </trkpt>
      <trkpt lat="45.4338877" lon="5.8662862">
        <ele>868.75</ele>
      </trkpt>
      <trkpt lat="45.4338406" lon="5.8663747">
        <ele>865</ele>
      </trkpt>
      <trkpt lat="45.4338802" lon="5.8664873">
        <ele>861.5</ele>
      </trkpt>
      <trkpt lat="45.4338915" lon="5.8665812">
        <ele>858.75</ele>
      </trkpt>
      <trkpt lat="45.433946" lon="5.8666885">
        <ele>856.5</ele>
      </trkpt>
      <trkpt lat="45.4341324" lon="5.8668065">
        <ele>856.112</ele>
      </trkpt>
      <trkpt lat="45.4341324" lon="5.8668065">
        <ele>856.112</ele>
      </trkpt>
      <trkpt lat="45.434187" lon="5.8668387">
        <ele>856</ele>
      </trkpt>
      <trkpt lat="45.4343582" lon="5.8672249">
        <ele>839.75</ele>
      </trkpt>
      <trkpt lat="45.4345164" lon="5.8673322">
        <ele>834.25</ele>
      </trkpt>
      <trkpt lat="45.4347874" lon="5.8673698">
        <ele>831.25</ele>
      </trkpt>
      <trkpt lat="45.4350452" lon="5.8675602">
        <ele>813.75</ele>
      </trkpt>
      <trkpt lat="45.4349944" lon="5.8677721">
        <ele>808.25</ele>
      </trkpt>
      <trkpt lat="45.4348175" lon="5.867807">
        <ele>807.5</ele>
      </trkpt>
      <trkpt lat="45.4346556" lon="5.8679974">
        <ele>804.5</ele>
      </trkpt>
      <trkpt lat="45.4345051" lon="5.8680055">
        <ele>802</ele>
      </trkpt>
      <trkpt lat="45.4344091" lon="5.868043">
        <ele>799.75</ele>
      </trkpt>
      <trkpt lat="45.4341324" lon="5.8681449">
        <ele>792.75</ele>
      </trkpt>
      <trkpt lat="45.4340609" lon="5.8681744">
        <ele>790.75</ele>
      </trkpt>
      <trkpt lat="45.4338237" lon="5.8681342">
        <ele>785</ele>
      </trkpt>
      <trkpt lat="45.4337145" lon="5.868161">
        <ele>782</ele>
      </trkpt>
      <trkpt lat="45.4336185" lon="5.8682522">
        <ele>779.75</ele>
      </trkpt>
      <trkpt lat="45.4335169" lon="5.8683273">
        <ele>778.5</ele>
      </trkpt>
      <trkpt lat="45.4334266" lon="5.8683488">
        <ele>776.5</ele>
      </trkpt>
      <trkpt lat="45.4333645" lon="5.8684158">
        <ele>775.75</ele>
      </trkpt>
      <trkpt lat="45.4332703" lon="5.8685634">
        <ele>774.5</ele>
      </trkpt>
      <trkpt lat="45.4332383" lon="5.8686545">
        <ele>774.25</ele>
      </trkpt>
      <trkpt lat="45.4332101" lon="5.8687216">
        <ele>774</ele>
      </trkpt>
      <trkpt lat="45.4329259" lon="5.8690166">
        <ele>769.25</ele>
      </trkpt>
      <trkpt lat="45.4327414" lon="5.8693653">
        <ele>764.5</ele>
      </trkpt>
      <trkpt lat="45.4325457" lon="5.8695772">
        <ele>759.25</ele>
      </trkpt>
      <trkpt lat="45.432493" lon="5.8696899">
        <ele>757.75</ele>
      </trkpt>
      <trkpt lat="45.432461" lon="5.869765">
        <ele>756.75</ele>
      </trkpt>
      <trkpt lat="45.432444" lon="5.8698481">
        <ele>756</ele>
      </trkpt>
      <trkpt lat="45.4324327" lon="5.8699581">
        <ele>755</ele>
      </trkpt>
      <trkpt lat="45.4324365" lon="5.8700439">
        <ele>754.5</ele>
      </trkpt>
      <trkpt lat="45.4324365" lon="5.8701164">
        <ele>754</ele>
      </trkpt>
      <trkpt lat="45.4324478" lon="5.8701807">
        <ele>753.75</ele>
      </trkpt>
      <trkpt lat="45.432461" lon="5.8702478">
        <ele>753.5</ele>
      </trkpt>
      <trkpt lat="45.4324836" lon="5.8703122">
        <ele>753.369</ele>
      </trkpt>
      <trkpt lat="45.4324967" lon="5.8703363">
        <ele>753.314</ele>
      </trkpt>
      <trkpt lat="45.4325174" lon="5.8703551">
        <ele>753.25</ele>
      </trkpt>
      <trkpt lat="45.4325532" lon="5.8703712">
        <ele>753.5</ele>
      </trkpt>
      <trkpt lat="45.4326153" lon="5.870398">
        <ele>754</ele>
      </trkpt>
      <trkpt lat="45.4326869" lon="5.8704382">
        <ele>754.5</ele>
      </trkpt>
      <trkpt lat="45.4327283" lon="5.8704731">
        <ele>754.585</ele>
      </trkpt>
      <trkpt lat="45.4327621" lon="5.8705053">
        <ele>754.656</ele>
      </trkpt>
      <trkpt lat="45.4328017" lon="5.8705562">
        <ele>754.75</ele>
      </trkpt>
      <trkpt lat="45.4328243" lon="5.8706045">
        <ele>754.25</ele>
      </trkpt>
      <trkpt lat="45.4328393" lon="5.8706474">
        <ele>753.75</ele>
      </trkpt>
      <trkpt lat="45.432845" lon="5.8707038">
        <ele>753</ele>
      </trkpt>
      <trkpt lat="45.4328487" lon="5.8707467">
        <ele>752.25</ele>
      </trkpt>
      <trkpt lat="45.4328487" lon="5.8707976">
        <ele>751.25</ele>
      </trkpt>
      <trkpt lat="45.4328431" lon="5.8709022">
        <ele>749.25</ele>
      </trkpt>
      <trkpt lat="45.432828" lon="5.8710846">
        <ele>744.75</ele>
      </trkpt>
      <trkpt lat="45.4328186" lon="5.8713126">
        <ele>739.25</ele>
      </trkpt>
      <trkpt lat="45.4327885" lon="5.871731">
        <ele>730.25</ele>
      </trkpt>
      <trkpt lat="45.4327866" lon="5.8717686">
        <ele>729.25</ele>
      </trkpt>
      <trkpt lat="45.4327885" lon="5.8718061">
        <ele>728.5</ele>
      </trkpt>
      <trkpt lat="45.4327941" lon="5.8718276">
        <ele>728.25</ele>
      </trkpt>
      <trkpt lat="45.4328035" lon="5.8718517">
        <ele>728.139</ele>
      </trkpt>
      <trkpt lat="45.4328224" lon="5.8718732">
        <ele>728</ele>
      </trkpt>
      <trkpt lat="45.4328412" lon="5.8718866">
        <ele>728.25</ele>
      </trkpt>
      <trkpt lat="45.4328638" lon="5.871892">
        <ele>728.75</ele>
      </trkpt>
      <trkpt lat="45.4329052" lon="5.8719">
        <ele>729.75</ele>
      </trkpt>
      <trkpt lat="45.4329692" lon="5.8719054">
        <ele>731</ele>
      </trkpt>
      <trkpt lat="45.4329993" lon="5.8719134">
        <ele>731.5</ele>
      </trkpt>
      <trkpt lat="45.4330219" lon="5.8719242">
        <ele>731.619</ele>
      </trkpt>
      <trkpt lat="45.4330445" lon="5.8719429">
        <ele>731.75</ele>
      </trkpt>
      <trkpt lat="45.4330558" lon="5.8719617">
        <ele>731.5</ele>
      </trkpt>
      <trkpt lat="45.4330652" lon="5.8719912">
        <ele>731</ele>
      </trkpt>
      <trkpt lat="45.4330727" lon="5.8720341">
        <ele>730.25</ele>
      </trkpt>
      <trkpt lat="45.433084" lon="5.8720958">
        <ele>729.25</ele>
      </trkpt>
      <trkpt lat="45.4329052" lon="5.8720583">
        <ele>725.5</ele>
      </trkpt>
      <trkpt lat="45.432828" lon="5.8720395">
        <ele>724</ele>
      </trkpt>
      <trkpt lat="45.4327828" lon="5.8720261">
        <ele>723.25</ele>
      </trkpt>
      <trkpt lat="45.4327508" lon="5.8720046">
        <ele>723</ele>
      </trkpt>
      <trkpt lat="45.4326869" lon="5.8719403">
        <ele>722.75</ele>
      </trkpt>
      <trkpt lat="45.4325814" lon="5.8718169">
        <ele>722.635</ele>
      </trkpt>
      <trkpt lat="45.4325137" lon="5.8717337">
        <ele>722.559</ele>
      </trkpt>
      <trkpt lat="45.4324685" lon="5.8716586">
        <ele>722.5</ele>
      </trkpt>
      <trkpt lat="45.4324177" lon="5.8715674">
        <ele>721.75</ele>
      </trkpt>
    </trkseg>
  </trk>
</gpx>