<?xml version='1.0' encoding='UTF-8'?>
<gpx version="1.1" creator="JOSM GPX export" xmlns="http://www.topografix.com/GPX/1/1"
    xmlns:xsi="http://www.w3.org/2001/XMLSchema-instance"
    xsi:schemaLocation="http://www.topografix.com/GPX/1/1 http://www.topografix.com/GPX/1/1/gpx.xsd">
  <metadata>
    <desc>MC/48/06 - Signal de Mailhe Biau</desc>
    <author>
      <name>Grégory DAVID</name>
      <email id="gregory.david" domain="groolot.net"/>
    </author>
    <copyright author="Grégory DAVID">
      <year>2021</year>
      <license>https://creativecommons.org/licenses/by-sa/2.5</license>
    </copyright>
    <bounds minlat="44.5462375" minlon="3.0661838" maxlat="44.578861" maxlon="3.1348447"/>
  </metadata>
  <trk>
    <trkseg>
      <trkpt lat="44.5595245" lon="3.1263979">
        <ele>1327.5</ele>
        <time>2021-03-09T05:37:22Z</time>
        <hdop>4.3</hdop>
      </trkpt>
      <trkpt lat="44.5593083" lon="3.1258907">
        <ele>1337.5</ele>
        <time>2021-03-09T05:37:52Z</time>
        <hdop>4.3</hdop>
      </trkpt>
      <trkpt lat="44.5592243" lon="3.1257131">
        <ele>1341</ele>
        <time>2021-03-09T05:38:22Z</time>
        <hdop>3.2</hdop>
      </trkpt>
      <trkpt lat="44.5590051" lon="3.1254883">
        <ele>1339.9</ele>
        <time>2021-03-09T05:38:53Z</time>
        <hdop>3.2</hdop>
      </trkpt>
      <trkpt lat="44.5588838" lon="3.1251579">
        <ele>1342.4</ele>
        <time>2021-03-09T05:39:24Z</time>
        <hdop>3.2</hdop>
      </trkpt>
      <trkpt lat="44.5587631" lon="3.1246411">
        <ele>1340.1</ele>
        <time>2021-03-09T05:39:55Z</time>
        <hdop>3.2</hdop>
      </trkpt>
      <trkpt lat="44.5585074" lon="3.1241566">
        <ele>1340.5</ele>
        <time>2021-03-09T05:40:25Z</time>
        <hdop>3.2</hdop>
      </trkpt>
      <trkpt lat="44.5581475" lon="3.123877">
        <ele>1342.5</ele>
        <time>2021-03-09T05:40:55Z</time>
        <hdop>3.2</hdop>
      </trkpt>
      <trkpt lat="44.5581853" lon="3.1232978">
        <ele>1341.7</ele>
        <time>2021-03-09T05:41:25Z</time>
        <hdop>3.2</hdop>
      </trkpt>
      <trkpt lat="44.5581397" lon="3.1227078">
        <ele>1339.2</ele>
        <time>2021-03-09T05:41:56Z</time>
        <hdop>4.3</hdop>
      </trkpt>
      <trkpt lat="44.5579476" lon="3.1221244">
        <ele>1343.5</ele>
        <time>2021-03-09T05:42:26Z</time>
        <hdop>4.3</hdop>
      </trkpt>
      <trkpt lat="44.5579199" lon="3.1214668">
        <ele>1335.2</ele>
        <time>2021-03-09T05:42:57Z</time>
        <hdop>3.2</hdop>
      </trkpt>
      <trkpt lat="44.5578655" lon="3.1208982">
        <ele>1328.4</ele>
        <time>2021-03-09T05:43:28Z</time>
        <hdop>3.2</hdop>
      </trkpt>
      <trkpt lat="44.5576214" lon="3.1205338">
        <ele>1323.1</ele>
        <time>2021-03-09T05:43:58Z</time>
        <hdop>3.2</hdop>
      </trkpt>
      <trkpt lat="44.5574562" lon="3.1199257">
        <ele>1320</ele>
        <time>2021-03-09T05:44:29Z</time>
        <hdop>3.2</hdop>
      </trkpt>
      <trkpt lat="44.5571545" lon="3.1194147">
        <ele>1316.4</ele>
        <time>2021-03-09T05:45:00Z</time>
        <hdop>3.2</hdop>
      </trkpt>
      <trkpt lat="44.557005" lon="3.1189594">
        <ele>1317.8</ele>
        <time>2021-03-09T05:45:31Z</time>
        <hdop>3.2</hdop>
      </trkpt>
      <trkpt lat="44.5567583" lon="3.1186222">
        <ele>1316.4</ele>
        <time>2021-03-09T05:46:02Z</time>
        <hdop>3.2</hdop>
      </trkpt>
      <trkpt lat="44.5568923" lon="3.1181104">
        <ele>1313.5</ele>
        <time>2021-03-09T05:46:33Z</time>
        <hdop>3.2</hdop>
      </trkpt>
      <trkpt lat="44.5568744" lon="3.1175247">
        <ele>1305.1</ele>
        <time>2021-03-09T05:47:03Z</time>
        <hdop>3.2</hdop>
      </trkpt>
      <trkpt lat="44.5568715" lon="3.1168962">
        <ele>1308</ele>
        <time>2021-03-09T05:47:34Z</time>
        <hdop>4.3</hdop>
      </trkpt>
      <trkpt lat="44.5571401" lon="3.1164941">
        <ele>1306.8</ele>
        <time>2021-03-09T05:48:05Z</time>
        <hdop>3.2</hdop>
      </trkpt>
      <trkpt lat="44.5570409" lon="3.1159591">
        <ele>1300.1</ele>
        <time>2021-03-09T05:48:35Z</time>
        <hdop>3.2</hdop>
      </trkpt>
      <trkpt lat="44.5568773" lon="3.1153752">
        <ele>1293.7</ele>
        <time>2021-03-09T05:49:06Z</time>
        <hdop>3.2</hdop>
      </trkpt>
      <trkpt lat="44.5567332" lon="3.1147458">
        <ele>1300.4</ele>
        <time>2021-03-09T05:49:37Z</time>
        <hdop>3.2</hdop>
      </trkpt>
      <trkpt lat="44.5566182" lon="3.114141">
        <ele>1301.5</ele>
        <time>2021-03-09T05:50:07Z</time>
        <hdop>3.2</hdop>
      </trkpt>
      <trkpt lat="44.5566238" lon="3.1138936">
        <ele>1296.6</ele>
        <time>2021-03-09T05:50:38Z</time>
        <hdop>4.3</hdop>
      </trkpt>
      <trkpt lat="44.5566964" lon="3.1135994">
        <ele>1297.8</ele>
        <time>2021-03-09T05:51:14Z</time>
        <hdop>4.3</hdop>
      </trkpt>
      <trkpt lat="44.5566765" lon="3.1130663">
        <ele>1294.4</ele>
        <time>2021-03-09T05:51:44Z</time>
        <hdop>4.3</hdop>
      </trkpt>
      <trkpt lat="44.5567315" lon="3.112524">
        <ele>1298</ele>
        <time>2021-03-09T05:52:15Z</time>
        <hdop>9.6</hdop>
      </trkpt>
      <trkpt lat="44.5566119" lon="3.1120098">
        <ele>1300.2</ele>
        <time>2021-03-09T05:52:46Z</time>
        <hdop>10.7</hdop>
      </trkpt>
      <trkpt lat="44.5565576" lon="3.111661">
        <ele>1301.8</ele>
        <time>2021-03-09T05:53:16Z</time>
        <hdop>3.2</hdop>
      </trkpt>
      <trkpt lat="44.5563733" lon="3.1114307">
        <ele>1300</ele>
        <time>2021-03-09T05:53:47Z</time>
        <hdop>4.3</hdop>
      </trkpt>
      <trkpt lat="44.5564714" lon="3.1109048">
        <ele>1298.3</ele>
        <time>2021-03-09T05:54:18Z</time>
        <hdop>5.4</hdop>
      </trkpt>
      <trkpt lat="44.5565749" lon="3.1105067">
        <ele>1293.9</ele>
        <time>2021-03-09T05:54:50Z</time>
        <hdop>3.2</hdop>
      </trkpt>
      <trkpt lat="44.5566125" lon="3.110175">
        <ele>1295.3</ele>
        <time>2021-03-09T05:55:59Z</time>
        <hdop>5.4</hdop>
      </trkpt>
      <trkpt lat="44.5567395" lon="3.1098901">
        <ele>1297</ele>
        <time>2021-03-09T05:56:42Z</time>
        <hdop>3.2</hdop>
      </trkpt>
      <trkpt lat="44.5568593" lon="3.1096052">
        <ele>1298.3</ele>
        <time>2021-03-09T05:57:13Z</time>
        <hdop>4.3</hdop>
      </trkpt>
      <trkpt lat="44.5568138" lon="3.108943">
        <ele>1291.6</ele>
        <time>2021-03-09T05:57:44Z</time>
        <hdop>4.3</hdop>
      </trkpt>
      <trkpt lat="44.556664" lon="3.1083457">
        <ele>1289.3</ele>
        <time>2021-03-09T05:58:15Z</time>
        <hdop>4.3</hdop>
      </trkpt>
      <trkpt lat="44.5564904" lon="3.1077297">
        <ele>1288.8</ele>
        <time>2021-03-09T05:58:45Z</time>
        <hdop>9.6</hdop>
      </trkpt>
      <trkpt lat="44.5561107" lon="3.1072706">
        <ele>1285.8</ele>
        <time>2021-03-09T05:59:15Z</time>
        <hdop>9.6</hdop>
      </trkpt>
      <trkpt lat="44.5558541" lon="3.10682">
        <ele>1282.6</ele>
        <time>2021-03-09T05:59:46Z</time>
        <hdop>4.3</hdop>
      </trkpt>
      <trkpt lat="44.555679" lon="3.1063016">
        <ele>1271</ele>
        <time>2021-03-09T06:00:16Z</time>
        <hdop>4.3</hdop>
      </trkpt>
      <trkpt lat="44.5554779" lon="3.1059723">
        <ele>1266.8</ele>
        <time>2021-03-09T06:00:47Z</time>
        <hdop>3.2</hdop>
      </trkpt>
      <trkpt lat="44.5551335" lon="3.1061005">
        <ele>1267.5</ele>
        <time>2021-03-09T06:01:17Z</time>
        <hdop>3.2</hdop>
      </trkpt>
      <trkpt lat="44.5547233" lon="3.1062751">
        <ele>1264.7</ele>
        <time>2021-03-09T06:01:48Z</time>
        <hdop>5.4</hdop>
      </trkpt>
      <trkpt lat="44.554432" lon="3.1065886">
        <ele>1264.2</ele>
        <time>2021-03-09T06:02:19Z</time>
        <hdop>4.3</hdop>
      </trkpt>
      <trkpt lat="44.5540037" lon="3.106691">
        <ele>1259.3</ele>
        <time>2021-03-09T06:02:50Z</time>
        <hdop>4.3</hdop>
      </trkpt>
      <trkpt lat="44.5536242" lon="3.1070415">
        <ele>1257.8</ele>
        <time>2021-03-09T06:03:21Z</time>
        <hdop>4.3</hdop>
      </trkpt>
      <trkpt lat="44.5535396" lon="3.1068985">
        <ele>1254.8</ele>
        <time>2021-03-09T06:03:52Z</time>
        <hdop>4.3</hdop>
      </trkpt>
      <trkpt lat="44.5535795" lon="3.1063581">
        <ele>1250.3</ele>
        <time>2021-03-09T06:04:23Z</time>
        <hdop>3.2</hdop>
      </trkpt>
      <trkpt lat="44.5532117" lon="3.1060787">
        <ele>1250.8</ele>
        <time>2021-03-09T06:04:53Z</time>
        <hdop>3.2</hdop>
      </trkpt>
      <trkpt lat="44.5529262" lon="3.1056178">
        <ele>1255.3</ele>
        <time>2021-03-09T06:05:23Z</time>
        <hdop>3.2</hdop>
      </trkpt>
      <trkpt lat="44.5525815" lon="3.1053388">
        <ele>1253.1</ele>
        <time>2021-03-09T06:05:53Z</time>
        <hdop>3.2</hdop>
      </trkpt>
      <trkpt lat="44.5521194" lon="3.105068">
        <ele>1262.6</ele>
        <time>2021-03-09T06:06:24Z</time>
        <hdop>4.3</hdop>
      </trkpt>
      <trkpt lat="44.5516748" lon="3.104826">
        <ele>1268.4</ele>
        <time>2021-03-09T06:06:55Z</time>
        <hdop>4.3</hdop>
      </trkpt>
      <trkpt lat="44.551342" lon="3.104699">
        <ele>1274</ele>
        <time>2021-03-09T06:07:26Z</time>
        <hdop>4.3</hdop>
      </trkpt>
      <trkpt lat="44.5509629" lon="3.1046869">
        <ele>1276.2</ele>
        <time>2021-03-09T06:07:56Z</time>
        <hdop>3.2</hdop>
      </trkpt>
      <trkpt lat="44.5504833" lon="3.1047256">
        <ele>1277.3</ele>
        <time>2021-03-09T06:08:27Z</time>
        <hdop>4.3</hdop>
      </trkpt>
      <trkpt lat="44.550059" lon="3.1046533">
        <ele>1271.5</ele>
        <time>2021-03-09T06:08:57Z</time>
        <hdop>4.3</hdop>
      </trkpt>
      <trkpt lat="44.5497534" lon="3.1041666">
        <ele>1273.5</ele>
        <time>2021-03-09T06:09:28Z</time>
        <hdop>4.3</hdop>
      </trkpt>
      <trkpt lat="44.5494711" lon="3.1037748">
        <ele>1275.8</ele>
        <time>2021-03-09T06:09:58Z</time>
        <hdop>4.3</hdop>
      </trkpt>
      <trkpt lat="44.5492524" lon="3.1034243">
        <ele>1277.4</ele>
        <time>2021-03-09T06:10:29Z</time>
        <hdop>4.3</hdop>
      </trkpt>
      <trkpt lat="44.5489154" lon="3.1030354">
        <ele>1282.5</ele>
        <time>2021-03-09T06:10:59Z</time>
        <hdop>4.3</hdop>
      </trkpt>
      <trkpt lat="44.5485519" lon="3.1027989">
        <ele>1295.6</ele>
        <time>2021-03-09T06:11:29Z</time>
        <hdop>6.4</hdop>
      </trkpt>
      <trkpt lat="44.5481018" lon="3.1026147">
        <ele>1292.6</ele>
        <time>2021-03-09T06:12:00Z</time>
        <hdop>5.4</hdop>
      </trkpt>
      <trkpt lat="44.5476651" lon="3.1027348">
        <ele>1297.2</ele>
        <time>2021-03-09T06:12:30Z</time>
        <hdop>4.3</hdop>
      </trkpt>
      <trkpt lat="44.5471859" lon="3.102808">
        <ele>1298.8</ele>
        <time>2021-03-09T06:13:01Z</time>
        <hdop>3.2</hdop>
      </trkpt>
      <trkpt lat="44.5471794" lon="3.1026787">
        <ele>1298.4</ele>
        <time>2021-03-09T06:13:32Z</time>
        <hdop>5.4</hdop>
      </trkpt>
      <trkpt lat="44.5475428" lon="3.1024883">
        <ele>1297.9</ele>
        <time>2021-03-09T06:14:03Z</time>
        <hdop>4.3</hdop>
      </trkpt>
      <trkpt lat="44.5477823" lon="3.1023362">
        <ele>1299.5</ele>
        <time>2021-03-09T06:14:34Z</time>
        <hdop>4.3</hdop>
      </trkpt>
      <trkpt lat="44.5476503" lon="3.1021569">
        <ele>1299.3</ele>
        <time>2021-03-09T06:15:04Z</time>
        <hdop>3.2</hdop>
      </trkpt>
      <trkpt lat="44.5472243" lon="3.10214">
        <ele>1315.4</ele>
        <time>2021-03-09T06:15:34Z</time>
        <hdop>3.2</hdop>
      </trkpt>
      <trkpt lat="44.5468465" lon="3.1021154">
        <ele>1314.9</ele>
        <time>2021-03-09T06:16:04Z</time>
        <hdop>3.2</hdop>
      </trkpt>
      <trkpt lat="44.54653" lon="3.1019127">
        <ele>1319.8</ele>
        <time>2021-03-09T06:16:35Z</time>
        <hdop>3.2</hdop>
      </trkpt>
      <trkpt lat="44.5464018" lon="3.1017984">
        <ele>1324.2</ele>
        <time>2021-03-09T06:19:07Z</time>
        <hdop>3.2</hdop>
      </trkpt>
      <trkpt lat="44.5462375" lon="3.1015964">
        <ele>1322.3</ele>
        <time>2021-03-09T06:19:37Z</time>
        <hdop>3.2</hdop>
      </trkpt>
      <trkpt lat="44.5462496" lon="3.1012387">
        <ele>1324.1</ele>
        <time>2021-03-09T06:20:08Z</time>
        <hdop>3.2</hdop>
      </trkpt>
      <trkpt lat="44.5466468" lon="3.1012474">
        <ele>1325.5</ele>
        <time>2021-03-09T06:20:38Z</time>
        <hdop>3.2</hdop>
      </trkpt>
      <trkpt lat="44.5467957" lon="3.1012608">
        <ele>1326.9</ele>
        <time>2021-03-09T06:21:08Z</time>
        <hdop>3.2</hdop>
      </trkpt>
      <trkpt lat="44.5471182" lon="3.1010152">
        <ele>1327.8</ele>
        <time>2021-03-09T06:21:40Z</time>
        <hdop>3.2</hdop>
      </trkpt>
      <trkpt lat="44.5474814" lon="3.1007691">
        <ele>1331.5</ele>
        <time>2021-03-09T06:22:10Z</time>
        <hdop>3.2</hdop>
      </trkpt>
      <trkpt lat="44.5477863" lon="3.1007249">
        <ele>1335.4</ele>
        <time>2021-03-09T06:22:41Z</time>
        <hdop>3.2</hdop>
      </trkpt>
      <trkpt lat="44.5481321" lon="3.1006884">
        <ele>1337</ele>
        <time>2021-03-09T06:23:12Z</time>
        <hdop>3.2</hdop>
      </trkpt>
      <trkpt lat="44.5485134" lon="3.1006634">
        <ele>1337.1</ele>
        <time>2021-03-09T06:23:43Z</time>
        <hdop>3.2</hdop>
      </trkpt>
      <trkpt lat="44.5488679" lon="3.1005772">
        <ele>1339.6</ele>
        <time>2021-03-09T06:24:14Z</time>
        <hdop>3.2</hdop>
      </trkpt>
      <trkpt lat="44.5492112" lon="3.1005444">
        <ele>1340.3</ele>
        <time>2021-03-09T06:24:44Z</time>
        <hdop>3.2</hdop>
      </trkpt>
      <trkpt lat="44.5495561" lon="3.1005031">
        <ele>1341.6</ele>
        <time>2021-03-09T06:25:15Z</time>
        <hdop>3.2</hdop>
      </trkpt>
      <trkpt lat="44.5498192" lon="3.10051">
        <ele>1335.1</ele>
        <time>2021-03-09T06:25:45Z</time>
        <hdop>3.2</hdop>
      </trkpt>
      <trkpt lat="44.5501787" lon="3.100495">
        <ele>1337.3</ele>
        <time>2021-03-09T06:26:16Z</time>
        <hdop>3.2</hdop>
      </trkpt>
      <trkpt lat="44.5503904" lon="3.1004444">
        <ele>1341.5</ele>
        <time>2021-03-09T06:26:47Z</time>
        <hdop>3.2</hdop>
      </trkpt>
      <trkpt lat="44.5507585" lon="3.1003002">
        <ele>1343</ele>
        <time>2021-03-09T06:27:18Z</time>
        <hdop>3.2</hdop>
      </trkpt>
      <trkpt lat="44.5510964" lon="3.1003214">
        <ele>1343.2</ele>
        <time>2021-03-09T06:27:49Z</time>
        <hdop>3.2</hdop>
      </trkpt>
      <trkpt lat="44.5513965" lon="3.1003844">
        <ele>1343.4</ele>
        <time>2021-03-09T06:28:19Z</time>
        <hdop>3.2</hdop>
      </trkpt>
      <trkpt lat="44.551747" lon="3.1004573">
        <ele>1345.1</ele>
        <time>2021-03-09T06:28:49Z</time>
        <hdop>3.2</hdop>
      </trkpt>
      <trkpt lat="44.5521009" lon="3.1004267">
        <ele>1348.5</ele>
        <time>2021-03-09T06:29:19Z</time>
        <hdop>3.2</hdop>
      </trkpt>
      <trkpt lat="44.5524782" lon="3.1004545">
        <ele>1348.8</ele>
        <time>2021-03-09T06:29:51Z</time>
        <hdop>3.2</hdop>
      </trkpt>
      <trkpt lat="44.5526163" lon="3.1001464">
        <ele>1349.5</ele>
        <time>2021-03-09T06:30:21Z</time>
        <hdop>4.3</hdop>
      </trkpt>
      <trkpt lat="44.5524566" lon="3.0998263">
        <ele>1353</ele>
        <time>2021-03-09T06:30:52Z</time>
        <hdop>3.2</hdop>
      </trkpt>
      <trkpt lat="44.5522629" lon="3.0994919">
        <ele>1352</ele>
        <time>2021-03-09T06:31:22Z</time>
        <hdop>3.2</hdop>
      </trkpt>
      <trkpt lat="44.5523255" lon="3.0993618">
        <ele>1353</ele>
        <time>2021-03-09T06:31:52Z</time>
        <hdop>3.2</hdop>
      </trkpt>
      <trkpt lat="44.5523365" lon="3.0991085">
        <ele>1360</ele>
        <time>2021-03-09T06:32:22Z</time>
        <hdop>3.2</hdop>
      </trkpt>
      <trkpt lat="44.5523907" lon="3.0987582">
        <ele>1361.5</ele>
        <time>2021-03-09T06:32:52Z</time>
        <hdop>3.2</hdop>
      </trkpt>
      <trkpt lat="44.5526774" lon="3.0987366">
        <ele>1363.5</ele>
        <time>2021-03-09T06:33:24Z</time>
        <hdop>3.2</hdop>
      </trkpt>
      <trkpt lat="44.5529155" lon="3.0987751">
        <ele>1367.7</ele>
        <time>2021-03-09T06:38:19Z</time>
        <hdop>3.2</hdop>
      </trkpt>
      <trkpt lat="44.5530595" lon="3.0986418">
        <ele>1366.5</ele>
        <time>2021-03-09T06:38:49Z</time>
        <hdop>3.2</hdop>
      </trkpt>
      <trkpt lat="44.5532249" lon="3.0983792">
        <ele>1367.1</ele>
        <time>2021-03-09T06:39:20Z</time>
        <hdop>3.2</hdop>
      </trkpt>
      <trkpt lat="44.5533393" lon="3.0982364">
        <ele>1372.9</ele>
        <time>2021-03-09T06:39:55Z</time>
        <hdop>3.2</hdop>
      </trkpt>
      <trkpt lat="44.5536201" lon="3.097895">
        <ele>1371.7</ele>
        <time>2021-03-09T06:41:28Z</time>
        <hdop>4.3</hdop>
      </trkpt>
      <trkpt lat="44.5540087" lon="3.0976016">
        <ele>1369.2</ele>
        <time>2021-03-09T06:41:59Z</time>
        <hdop>3.2</hdop>
      </trkpt>
      <trkpt lat="44.5543504" lon="3.0973795">
        <ele>1368.5</ele>
        <time>2021-03-09T06:42:29Z</time>
        <hdop>3.2</hdop>
      </trkpt>
      <trkpt lat="44.5546551" lon="3.09707">
        <ele>1366.3</ele>
        <time>2021-03-09T06:43:00Z</time>
        <hdop>4.3</hdop>
      </trkpt>
      <trkpt lat="44.5547697" lon="3.0968836">
        <ele>1363</ele>
        <time>2021-03-09T06:43:31Z</time>
        <hdop>3.2</hdop>
      </trkpt>
      <trkpt lat="44.5549656" lon="3.0965742">
        <ele>1364.5</ele>
        <time>2021-03-09T06:44:02Z</time>
        <hdop>3.2</hdop>
      </trkpt>
      <trkpt lat="44.5552334" lon="3.0962313">
        <ele>1365.7</ele>
        <time>2021-03-09T06:44:32Z</time>
        <hdop>3.2</hdop>
      </trkpt>
      <trkpt lat="44.5554944" lon="3.095857">
        <ele>1364</ele>
        <time>2021-03-09T06:45:03Z</time>
        <hdop>4.3</hdop>
      </trkpt>
      <trkpt lat="44.5557175" lon="3.0954909">
        <ele>1365.9</ele>
        <time>2021-03-09T06:45:34Z</time>
        <hdop>3.2</hdop>
      </trkpt>
      <trkpt lat="44.5559816" lon="3.0951436">
        <ele>1366.9</ele>
        <time>2021-03-09T06:46:04Z</time>
        <hdop>5.4</hdop>
      </trkpt>
      <trkpt lat="44.5562575" lon="3.0947733">
        <ele>1372.3</ele>
        <time>2021-03-09T06:46:36Z</time>
        <hdop>4.3</hdop>
      </trkpt>
      <trkpt lat="44.5564744" lon="3.0944292">
        <ele>1374.3</ele>
        <time>2021-03-09T06:47:06Z</time>
        <hdop>3.2</hdop>
      </trkpt>
      <trkpt lat="44.5567136" lon="3.0941195">
        <ele>1377.9</ele>
        <time>2021-03-09T06:47:36Z</time>
        <hdop>3.2</hdop>
      </trkpt>
      <trkpt lat="44.5570073" lon="3.0938068">
        <ele>1383.8</ele>
        <time>2021-03-09T06:48:07Z</time>
        <hdop>3.2</hdop>
      </trkpt>
      <trkpt lat="44.557271" lon="3.0933803">
        <ele>1379</ele>
        <time>2021-03-09T06:48:38Z</time>
        <hdop>5.4</hdop>
      </trkpt>
      <trkpt lat="44.5574698" lon="3.0928969">
        <ele>1382.8</ele>
        <time>2021-03-09T06:49:09Z</time>
        <hdop>3.2</hdop>
      </trkpt>
      <trkpt lat="44.5576772" lon="3.0925868">
        <ele>1381.9</ele>
        <time>2021-03-09T06:49:39Z</time>
        <hdop>3.2</hdop>
      </trkpt>
      <trkpt lat="44.5577811" lon="3.0923644">
        <ele>1383.2</ele>
        <time>2021-03-09T06:50:09Z</time>
        <hdop>3.2</hdop>
      </trkpt>
      <trkpt lat="44.5579582" lon="3.0919988">
        <ele>1386.6</ele>
        <time>2021-03-09T06:50:40Z</time>
        <hdop>3.2</hdop>
      </trkpt>
      <trkpt lat="44.5581086" lon="3.0915337">
        <ele>1388.3</ele>
        <time>2021-03-09T06:51:11Z</time>
        <hdop>3.2</hdop>
      </trkpt>
      <trkpt lat="44.5582762" lon="3.0911119">
        <ele>1394.2</ele>
        <time>2021-03-09T06:51:42Z</time>
        <hdop>3.2</hdop>
      </trkpt>
      <trkpt lat="44.5584429" lon="3.0906775">
        <ele>1394.2</ele>
        <time>2021-03-09T06:52:12Z</time>
        <hdop>3.2</hdop>
      </trkpt>
      <trkpt lat="44.5586026" lon="3.0902004">
        <ele>1395.1</ele>
        <time>2021-03-09T06:52:43Z</time>
        <hdop>3.2</hdop>
      </trkpt>
      <trkpt lat="44.5586976" lon="3.0898064">
        <ele>1396.3</ele>
        <time>2021-03-09T06:53:14Z</time>
        <hdop>3.2</hdop>
      </trkpt>
      <trkpt lat="44.5588619" lon="3.0894326">
        <ele>1398.8</ele>
        <time>2021-03-09T06:53:45Z</time>
        <hdop>3.2</hdop>
      </trkpt>
      <trkpt lat="44.5589634" lon="3.0889481">
        <ele>1400.3</ele>
        <time>2021-03-09T06:54:16Z</time>
        <hdop>3.2</hdop>
      </trkpt>
      <trkpt lat="44.5591353" lon="3.0885143">
        <ele>1401.9</ele>
        <time>2021-03-09T06:54:47Z</time>
        <hdop>3.2</hdop>
      </trkpt>
      <trkpt lat="44.5592451" lon="3.0880891">
        <ele>1398</ele>
        <time>2021-03-09T06:55:17Z</time>
        <hdop>3.2</hdop>
      </trkpt>
      <trkpt lat="44.5593966" lon="3.0876712">
        <ele>1405.8</ele>
        <time>2021-03-09T06:55:48Z</time>
        <hdop>3.2</hdop>
      </trkpt>
      <trkpt lat="44.5595439" lon="3.0872449">
        <ele>1409</ele>
        <time>2021-03-09T06:56:18Z</time>
        <hdop>3.2</hdop>
      </trkpt>
      <trkpt lat="44.5597116" lon="3.0867916">
        <ele>1415.9</ele>
        <time>2021-03-09T06:56:49Z</time>
        <hdop>3.2</hdop>
      </trkpt>
      <trkpt lat="44.5597342" lon="3.0865496">
        <ele>1414.7</ele>
        <time>2021-03-09T06:57:19Z</time>
        <hdop>3.2</hdop>
      </trkpt>
      <trkpt lat="44.5593131" lon="3.086503">
        <ele>1412.2</ele>
        <time>2021-03-09T07:12:37Z</time>
        <hdop>3.2</hdop>
      </trkpt>
      <trkpt lat="44.5589464" lon="3.0863665">
        <ele>1410.1</ele>
        <time>2021-03-09T07:13:07Z</time>
        <hdop>3.2</hdop>
      </trkpt>
      <trkpt lat="44.558541" lon="3.086234">
        <ele>1407.9</ele>
        <time>2021-03-09T07:13:38Z</time>
        <hdop>3.2</hdop>
      </trkpt>
      <trkpt lat="44.5581242" lon="3.0860944">
        <ele>1407.3</ele>
        <time>2021-03-09T07:14:09Z</time>
        <hdop>3.2</hdop>
      </trkpt>
      <trkpt lat="44.5577263" lon="3.085967">
        <ele>1403</ele>
        <time>2021-03-09T07:14:39Z</time>
        <hdop>3.2</hdop>
      </trkpt>
      <trkpt lat="44.5573368" lon="3.0858425">
        <ele>1396.6</ele>
        <time>2021-03-09T07:15:09Z</time>
        <hdop>3.2</hdop>
      </trkpt>
      <trkpt lat="44.5571085" lon="3.0854701">
        <ele>1393</ele>
        <time>2021-03-09T07:15:40Z</time>
        <hdop>3.2</hdop>
      </trkpt>
      <trkpt lat="44.5567254" lon="3.085243">
        <ele>1388.3</ele>
        <time>2021-03-09T07:16:10Z</time>
        <hdop>3.2</hdop>
      </trkpt>
      <trkpt lat="44.5563462" lon="3.084987">
        <ele>1390.4</ele>
        <time>2021-03-09T07:16:41Z</time>
        <hdop>3.2</hdop>
      </trkpt>
      <trkpt lat="44.5559558" lon="3.0847502">
        <ele>1390.2</ele>
        <time>2021-03-09T07:17:11Z</time>
        <hdop>3.2</hdop>
      </trkpt>
      <trkpt lat="44.5555748" lon="3.0845303">
        <ele>1386.5</ele>
        <time>2021-03-09T07:17:42Z</time>
        <hdop>3.2</hdop>
      </trkpt>
      <trkpt lat="44.555223" lon="3.084278">
        <ele>1386.7</ele>
        <time>2021-03-09T07:18:13Z</time>
        <hdop>3.2</hdop>
      </trkpt>
      <trkpt lat="44.5547934" lon="3.0841211">
        <ele>1386.9</ele>
        <time>2021-03-09T07:18:43Z</time>
        <hdop>3.2</hdop>
      </trkpt>
      <trkpt lat="44.5545672" lon="3.0839202">
        <ele>1383.2</ele>
        <time>2021-03-09T07:19:13Z</time>
        <hdop>3.2</hdop>
      </trkpt>
      <trkpt lat="44.5544256" lon="3.0837292">
        <ele>1384.9</ele>
        <time>2021-03-09T07:19:43Z</time>
        <hdop>3.2</hdop>
      </trkpt>
      <trkpt lat="44.5542557" lon="3.083302">
        <ele>1384.5</ele>
        <time>2021-03-09T07:20:14Z</time>
        <hdop>3.2</hdop>
      </trkpt>
      <trkpt lat="44.5541582" lon="3.0828892">
        <ele>1389.4</ele>
        <time>2021-03-09T07:20:44Z</time>
        <hdop>3.2</hdop>
      </trkpt>
      <trkpt lat="44.5539248" lon="3.0824471">
        <ele>1385.8</ele>
        <time>2021-03-09T07:21:15Z</time>
        <hdop>3.2</hdop>
      </trkpt>
      <trkpt lat="44.5536717" lon="3.0820626">
        <ele>1376</ele>
        <time>2021-03-09T07:22:16Z</time>
        <hdop>3.2</hdop>
      </trkpt>
      <trkpt lat="44.5532817" lon="3.0818369">
        <ele>1369.7</ele>
        <time>2021-03-09T07:22:47Z</time>
        <hdop>3.2</hdop>
      </trkpt>
      <trkpt lat="44.5528131" lon="3.0816691">
        <ele>1372</ele>
        <time>2021-03-09T07:23:17Z</time>
        <hdop>3.2</hdop>
      </trkpt>
      <trkpt lat="44.5523542" lon="3.0814555">
        <ele>1357.3</ele>
        <time>2021-03-09T07:23:47Z</time>
        <hdop>3.2</hdop>
      </trkpt>
      <trkpt lat="44.5520495" lon="3.0810818">
        <ele>1357.4</ele>
        <time>2021-03-09T07:24:18Z</time>
        <hdop>3.2</hdop>
      </trkpt>
      <trkpt lat="44.5517842" lon="3.0808362">
        <ele>1351.5</ele>
        <time>2021-03-09T07:24:48Z</time>
        <hdop>3.2</hdop>
      </trkpt>
      <trkpt lat="44.5515658" lon="3.0808034">
        <ele>1342.6</ele>
        <time>2021-03-09T07:25:19Z</time>
        <hdop>3.2</hdop>
      </trkpt>
      <trkpt lat="44.5512155" lon="3.0805531">
        <ele>1337</ele>
        <time>2021-03-09T07:25:49Z</time>
        <hdop>3.2</hdop>
      </trkpt>
      <trkpt lat="44.5508217" lon="3.0804427">
        <ele>1329.2</ele>
        <time>2021-03-09T07:26:19Z</time>
        <hdop>3.2</hdop>
      </trkpt>
      <trkpt lat="44.5512005" lon="3.080342">
        <ele>1333.1</ele>
        <time>2021-03-09T07:26:50Z</time>
        <hdop>3.2</hdop>
      </trkpt>
      <trkpt lat="44.5514058" lon="3.0798617">
        <ele>1334.9</ele>
        <time>2021-03-09T07:27:20Z</time>
        <hdop>3.2</hdop>
      </trkpt>
      <trkpt lat="44.5515274" lon="3.0792299">
        <ele>1342.1</ele>
        <time>2021-03-09T07:27:51Z</time>
        <hdop>3.2</hdop>
      </trkpt>
      <trkpt lat="44.5515777" lon="3.0785625">
        <ele>1334.9</ele>
        <time>2021-03-09T07:28:22Z</time>
        <hdop>3.2</hdop>
      </trkpt>
      <trkpt lat="44.5516379" lon="3.0779017">
        <ele>1333.3</ele>
        <time>2021-03-09T07:28:53Z</time>
        <hdop>3.2</hdop>
      </trkpt>
      <trkpt lat="44.5517682" lon="3.077299">
        <ele>1336.1</ele>
        <time>2021-03-09T07:29:24Z</time>
        <hdop>3.2</hdop>
      </trkpt>
      <trkpt lat="44.5520939" lon="3.0768261">
        <ele>1333.2</ele>
        <time>2021-03-09T07:29:54Z</time>
        <hdop>3.2</hdop>
      </trkpt>
      <trkpt lat="44.5523852" lon="3.0764006">
        <ele>1333.7</ele>
        <time>2021-03-09T07:30:24Z</time>
        <hdop>3.2</hdop>
      </trkpt>
      <trkpt lat="44.552725" lon="3.0760544">
        <ele>1336.7</ele>
        <time>2021-03-09T07:30:55Z</time>
        <hdop>3.2</hdop>
      </trkpt>
      <trkpt lat="44.5530227" lon="3.075685">
        <ele>1336.8</ele>
        <time>2021-03-09T07:31:25Z</time>
        <hdop>3.2</hdop>
      </trkpt>
      <trkpt lat="44.5533273" lon="3.0752642">
        <ele>1336</ele>
        <time>2021-03-09T07:31:55Z</time>
        <hdop>3.2</hdop>
      </trkpt>
      <trkpt lat="44.5535958" lon="3.0747607">
        <ele>1340.5</ele>
        <time>2021-03-09T07:32:25Z</time>
        <hdop>3.2</hdop>
      </trkpt>
      <trkpt lat="44.5539061" lon="3.0743214">
        <ele>1340.2</ele>
        <time>2021-03-09T07:32:56Z</time>
        <hdop>3.2</hdop>
      </trkpt>
      <trkpt lat="44.5542931" lon="3.0739851">
        <ele>1337.6</ele>
        <time>2021-03-09T07:33:26Z</time>
        <hdop>4.3</hdop>
      </trkpt>
      <trkpt lat="44.5547107" lon="3.0735957">
        <ele>1336.2</ele>
        <time>2021-03-09T07:33:56Z</time>
        <hdop>3.2</hdop>
      </trkpt>
      <trkpt lat="44.5550055" lon="3.0730482">
        <ele>1342.2</ele>
        <time>2021-03-09T07:34:27Z</time>
        <hdop>3.2</hdop>
      </trkpt>
      <trkpt lat="44.5552425" lon="3.0724826">
        <ele>1340.5</ele>
        <time>2021-03-09T07:34:58Z</time>
        <hdop>3.2</hdop>
      </trkpt>
      <trkpt lat="44.5554806" lon="3.0719934">
        <ele>1338.2</ele>
        <time>2021-03-09T07:35:29Z</time>
        <hdop>3.2</hdop>
      </trkpt>
      <trkpt lat="44.5557532" lon="3.0715576">
        <ele>1341.1</ele>
        <time>2021-03-09T07:35:59Z</time>
        <hdop>3.2</hdop>
      </trkpt>
      <trkpt lat="44.55608" lon="3.0713502">
        <ele>1343.5</ele>
        <time>2021-03-09T07:36:29Z</time>
        <hdop>3.2</hdop>
      </trkpt>
      <trkpt lat="44.5565076" lon="3.0712766">
        <ele>1349</ele>
        <time>2021-03-09T07:37:00Z</time>
        <hdop>3.2</hdop>
      </trkpt>
      <trkpt lat="44.5568524" lon="3.0712816">
        <ele>1346.7</ele>
        <time>2021-03-09T07:37:30Z</time>
        <hdop>3.2</hdop>
      </trkpt>
      <trkpt lat="44.5572636" lon="3.0714402">
        <ele>1352.4</ele>
        <time>2021-03-09T07:38:00Z</time>
        <hdop>3.2</hdop>
      </trkpt>
      <trkpt lat="44.5576734" lon="3.071698">
        <ele>1352.3</ele>
        <time>2021-03-09T07:38:30Z</time>
        <hdop>3.2</hdop>
      </trkpt>
      <trkpt lat="44.5580476" lon="3.072014">
        <ele>1356</ele>
        <time>2021-03-09T07:39:01Z</time>
        <hdop>3.2</hdop>
      </trkpt>
      <trkpt lat="44.5584112" lon="3.0723269">
        <ele>1356.3</ele>
        <time>2021-03-09T07:39:31Z</time>
        <hdop>9.6</hdop>
      </trkpt>
      <trkpt lat="44.5586911" lon="3.0725948">
        <ele>1353.3</ele>
        <time>2021-03-09T07:40:02Z</time>
        <hdop>3.2</hdop>
      </trkpt>
      <trkpt lat="44.5588302" lon="3.0728406">
        <ele>1352.3</ele>
        <time>2021-03-09T07:40:49Z</time>
        <hdop>3.2</hdop>
      </trkpt>
      <trkpt lat="44.5589038" lon="3.0729628">
        <ele>1352.4</ele>
        <time>2021-03-09T07:41:19Z</time>
        <hdop>3.2</hdop>
      </trkpt>
      <trkpt lat="44.5590068" lon="3.0733411">
        <ele>1351.9</ele>
        <time>2021-03-09T07:41:49Z</time>
        <hdop>4.3</hdop>
      </trkpt>
      <trkpt lat="44.5593149" lon="3.0736449">
        <ele>1355</ele>
        <time>2021-03-09T07:42:20Z</time>
        <hdop>3.2</hdop>
      </trkpt>
      <trkpt lat="44.5595676" lon="3.0736784">
        <ele>1353.4</ele>
        <time>2021-03-09T07:42:51Z</time>
        <hdop>3.2</hdop>
      </trkpt>
      <trkpt lat="44.5597063" lon="3.0738127">
        <ele>1353.8</ele>
        <time>2021-03-09T07:43:21Z</time>
        <hdop>3.2</hdop>
      </trkpt>
      <trkpt lat="44.5599438" lon="3.074182">
        <ele>1349.8</ele>
        <time>2021-03-09T07:43:51Z</time>
        <hdop>3.2</hdop>
      </trkpt>
      <trkpt lat="44.5602939" lon="3.0745114">
        <ele>1354.1</ele>
        <time>2021-03-09T07:44:21Z</time>
        <hdop>3.2</hdop>
      </trkpt>
      <trkpt lat="44.5605743" lon="3.0746915">
        <ele>1357</ele>
        <time>2021-03-09T07:44:51Z</time>
        <hdop>3.2</hdop>
      </trkpt>
      <trkpt lat="44.5608861" lon="3.0747485">
        <ele>1364.3</ele>
        <time>2021-03-09T07:45:22Z</time>
        <hdop>3.2</hdop>
      </trkpt>
      <trkpt lat="44.5612108" lon="3.0746755">
        <ele>1366.4</ele>
        <time>2021-03-09T07:45:53Z</time>
        <hdop>3.2</hdop>
      </trkpt>
      <trkpt lat="44.5614984" lon="3.0743579">
        <ele>1366.3</ele>
        <time>2021-03-09T07:46:24Z</time>
        <hdop>3.2</hdop>
      </trkpt>
      <trkpt lat="44.5617728" lon="3.0741697">
        <ele>1372.9</ele>
        <time>2021-03-09T07:46:55Z</time>
        <hdop>3.2</hdop>
      </trkpt>
      <trkpt lat="44.5620504" lon="3.0739629">
        <ele>1373.6</ele>
        <time>2021-03-09T07:47:25Z</time>
        <hdop>3.2</hdop>
      </trkpt>
      <trkpt lat="44.5623419" lon="3.0736732">
        <ele>1375.1</ele>
        <time>2021-03-09T07:47:56Z</time>
        <hdop>3.2</hdop>
      </trkpt>
      <trkpt lat="44.5626083" lon="3.0733355">
        <ele>1372.8</ele>
        <time>2021-03-09T07:48:26Z</time>
        <hdop>3.2</hdop>
      </trkpt>
      <trkpt lat="44.5627951" lon="3.0728438">
        <ele>1376.8</ele>
        <time>2021-03-09T07:48:57Z</time>
        <hdop>3.2</hdop>
      </trkpt>
      <trkpt lat="44.5629406" lon="3.0728963">
        <ele>1383.6</ele>
        <time>2021-03-09T07:49:27Z</time>
        <hdop>3.2</hdop>
      </trkpt>
      <trkpt lat="44.563119" lon="3.0726123">
        <ele>1386.9</ele>
        <time>2021-03-09T07:49:57Z</time>
        <hdop>3.2</hdop>
      </trkpt>
      <trkpt lat="44.5632895" lon="3.0723218">
        <ele>1387</ele>
        <time>2021-03-09T07:50:29Z</time>
        <hdop>3.2</hdop>
      </trkpt>
      <trkpt lat="44.5634122" lon="3.0720835">
        <ele>1394</ele>
        <time>2021-03-09T07:51:40Z</time>
        <hdop>3.2</hdop>
      </trkpt>
      <trkpt lat="44.563552" lon="3.0720158">
        <ele>1391.6</ele>
        <time>2021-03-09T07:52:10Z</time>
        <hdop>3.2</hdop>
      </trkpt>
      <trkpt lat="44.5635918" lon="3.0718387">
        <ele>1390.5</ele>
        <time>2021-03-09T07:53:51Z</time>
        <hdop>3.2</hdop>
      </trkpt>
      <trkpt lat="44.5636675" lon="3.0714074">
        <ele>1391.3</ele>
        <time>2021-03-09T07:54:21Z</time>
        <hdop>3.2</hdop>
      </trkpt>
      <trkpt lat="44.5637981" lon="3.0708606">
        <ele>1393.7</ele>
        <time>2021-03-09T07:54:52Z</time>
        <hdop>3.2</hdop>
      </trkpt>
      <trkpt lat="44.5638806" lon="3.0703103">
        <ele>1394.1</ele>
        <time>2021-03-09T07:55:23Z</time>
        <hdop>3.2</hdop>
      </trkpt>
      <trkpt lat="44.5638739" lon="3.0696945">
        <ele>1393.2</ele>
        <time>2021-03-09T07:55:54Z</time>
        <hdop>3.2</hdop>
      </trkpt>
      <trkpt lat="44.5640015" lon="3.0690912">
        <ele>1393.6</ele>
        <time>2021-03-09T07:56:25Z</time>
        <hdop>3.2</hdop>
      </trkpt>
      <trkpt lat="44.5642689" lon="3.068599">
        <ele>1391.6</ele>
        <time>2021-03-09T07:56:56Z</time>
        <hdop>3.2</hdop>
      </trkpt>
      <trkpt lat="44.5644472" lon="3.0683474">
        <ele>1390.8</ele>
        <time>2021-03-09T07:57:26Z</time>
        <hdop>3.2</hdop>
      </trkpt>
      <trkpt lat="44.5646878" lon="3.0680552">
        <ele>1395.3</ele>
        <time>2021-03-09T07:57:56Z</time>
        <hdop>3.2</hdop>
      </trkpt>
      <trkpt lat="44.5649714" lon="3.0677507">
        <ele>1399.2</ele>
        <time>2021-03-09T07:58:26Z</time>
        <hdop>3.2</hdop>
      </trkpt>
      <trkpt lat="44.565279" lon="3.0673968">
        <ele>1395.6</ele>
        <time>2021-03-09T07:58:57Z</time>
        <hdop>3.2</hdop>
      </trkpt>
      <trkpt lat="44.5656188" lon="3.0672211">
        <ele>1398.1</ele>
        <time>2021-03-09T07:59:27Z</time>
        <hdop>3.2</hdop>
      </trkpt>
      <trkpt lat="44.5659427" lon="3.0669784">
        <ele>1398.2</ele>
        <time>2021-03-09T07:59:58Z</time>
        <hdop>3.2</hdop>
      </trkpt>
      <trkpt lat="44.5662274" lon="3.0665617">
        <ele>1397.5</ele>
        <time>2021-03-09T08:00:29Z</time>
        <hdop>3.2</hdop>
      </trkpt>
      <trkpt lat="44.5666206" lon="3.066462">
        <ele>1394.1</ele>
        <time>2021-03-09T08:01:00Z</time>
        <hdop>3.2</hdop>
      </trkpt>
      <trkpt lat="44.5670263" lon="3.0666526">
        <ele>1391.2</ele>
        <time>2021-03-09T08:01:30Z</time>
        <hdop>3.2</hdop>
      </trkpt>
      <trkpt lat="44.5674455" lon="3.0668719">
        <ele>1394.7</ele>
        <time>2021-03-09T08:02:01Z</time>
        <hdop>3.2</hdop>
      </trkpt>
      <trkpt lat="44.5678368" lon="3.067121">
        <ele>1399.3</ele>
        <time>2021-03-09T08:02:31Z</time>
        <hdop>3.2</hdop>
      </trkpt>
      <trkpt lat="44.568245" lon="3.0673139">
        <ele>1403.9</ele>
        <time>2021-03-09T08:03:02Z</time>
        <hdop>3.2</hdop>
      </trkpt>
      <trkpt lat="44.5686169" lon="3.0676288">
        <ele>1401.3</ele>
        <time>2021-03-09T08:03:33Z</time>
        <hdop>3.2</hdop>
      </trkpt>
      <trkpt lat="44.5689881" lon="3.0679343">
        <ele>1398.7</ele>
        <time>2021-03-09T08:04:04Z</time>
        <hdop>3.2</hdop>
      </trkpt>
      <trkpt lat="44.5693643" lon="3.0678827">
        <ele>1399.4</ele>
        <time>2021-03-09T08:04:34Z</time>
        <hdop>3.2</hdop>
      </trkpt>
      <trkpt lat="44.5697623" lon="3.0678098">
        <ele>1403.5</ele>
        <time>2021-03-09T08:05:06Z</time>
        <hdop>3.2</hdop>
      </trkpt>
      <trkpt lat="44.57014" lon="3.0676838">
        <ele>1395.8</ele>
        <time>2021-03-09T08:06:07Z</time>
        <hdop>3.2</hdop>
      </trkpt>
      <trkpt lat="44.5705646" lon="3.0676538">
        <ele>1397.2</ele>
        <time>2021-03-09T08:06:37Z</time>
        <hdop>3.2</hdop>
      </trkpt>
      <trkpt lat="44.570962" lon="3.0675948">
        <ele>1401.6</ele>
        <time>2021-03-09T08:07:08Z</time>
        <hdop>3.2</hdop>
      </trkpt>
      <trkpt lat="44.5713644" lon="3.0674717">
        <ele>1404.7</ele>
        <time>2021-03-09T08:07:39Z</time>
        <hdop>9.6</hdop>
      </trkpt>
      <trkpt lat="44.5716042" lon="3.0673244">
        <ele>1396.2</ele>
        <time>2021-03-09T08:08:10Z</time>
        <hdop>9.6</hdop>
      </trkpt>
      <trkpt lat="44.5719648" lon="3.0672794">
        <ele>1398.5</ele>
        <time>2021-03-09T08:08:41Z</time>
        <hdop>9.6</hdop>
      </trkpt>
      <trkpt lat="44.5722564" lon="3.0670249">
        <ele>1398.6</ele>
        <time>2021-03-09T08:09:11Z</time>
        <hdop>6.4</hdop>
      </trkpt>
      <trkpt lat="44.5726059" lon="3.0668281">
        <ele>1397.1</ele>
        <time>2021-03-09T08:09:42Z</time>
        <hdop>6.4</hdop>
      </trkpt>
      <trkpt lat="44.5729068" lon="3.0663928">
        <ele>1398.2</ele>
        <time>2021-03-09T08:10:13Z</time>
        <hdop>4.3</hdop>
      </trkpt>
      <trkpt lat="44.5732997" lon="3.0661838">
        <ele>1395.9</ele>
        <time>2021-03-09T08:10:44Z</time>
        <hdop>3.2</hdop>
      </trkpt>
      <trkpt lat="44.573543" lon="3.0662384">
        <ele>1401.8</ele>
        <time>2021-03-09T08:11:15Z</time>
        <hdop>3.2</hdop>
      </trkpt>
      <trkpt lat="44.5735399" lon="3.0662447">
        <ele>1401.7</ele>
        <time>2021-03-09T08:11:45Z</time>
        <hdop>3.2</hdop>
      </trkpt>
      <trkpt lat="44.57386" lon="3.0663435">
        <ele>1404.3</ele>
        <time>2021-03-09T08:12:15Z</time>
        <hdop>3.2</hdop>
      </trkpt>
      <trkpt lat="44.5742323" lon="3.0663768">
        <ele>1410.2</ele>
        <time>2021-03-09T08:12:45Z</time>
        <hdop>3.2</hdop>
      </trkpt>
      <trkpt lat="44.5743952" lon="3.066372">
        <ele>1400.3</ele>
        <time>2021-03-09T08:13:15Z</time>
        <hdop>3.2</hdop>
      </trkpt>
      <trkpt lat="44.5747921" lon="3.0663814">
        <ele>1399</ele>
        <time>2021-03-09T08:13:46Z</time>
        <hdop>3.2</hdop>
      </trkpt>
      <trkpt lat="44.5752302" lon="3.0664378">
        <ele>1401.7</ele>
        <time>2021-03-09T08:14:17Z</time>
        <hdop>3.2</hdop>
      </trkpt>
      <trkpt lat="44.5756443" lon="3.0663452">
        <ele>1396.5</ele>
        <time>2021-03-09T08:14:48Z</time>
        <hdop>3.2</hdop>
      </trkpt>
      <trkpt lat="44.5754645" lon="3.0665468">
        <ele>1398.6</ele>
        <time>2021-03-09T08:15:19Z</time>
        <hdop>4.3</hdop>
      </trkpt>
      <trkpt lat="44.5752757" lon="3.0667006">
        <ele>1397.2</ele>
        <time>2021-03-09T08:15:49Z</time>
        <hdop>3.2</hdop>
      </trkpt>
      <trkpt lat="44.5749962" lon="3.0668854">
        <ele>1404.9</ele>
        <time>2021-03-09T08:16:20Z</time>
        <hdop>3.2</hdop>
      </trkpt>
      <trkpt lat="44.5746703" lon="3.0671385">
        <ele>1402</ele>
        <time>2021-03-09T08:16:51Z</time>
        <hdop>9.6</hdop>
      </trkpt>
      <trkpt lat="44.5742999" lon="3.067298">
        <ele>1402.8</ele>
        <time>2021-03-09T08:17:21Z</time>
        <hdop>9.6</hdop>
      </trkpt>
      <trkpt lat="44.5740183" lon="3.0676148">
        <ele>1411.9</ele>
        <time>2021-03-09T08:17:52Z</time>
        <hdop>3.2</hdop>
      </trkpt>
      <trkpt lat="44.5738975" lon="3.0679576">
        <ele>1411.5</ele>
        <time>2021-03-09T08:18:22Z</time>
        <hdop>3.2</hdop>
      </trkpt>
      <trkpt lat="44.5737199" lon="3.068356">
        <ele>1414.4</ele>
        <time>2021-03-09T08:18:53Z</time>
        <hdop>3.2</hdop>
      </trkpt>
      <trkpt lat="44.5734402" lon="3.0684847">
        <ele>1416.3</ele>
        <time>2021-03-09T08:19:24Z</time>
        <hdop>3.2</hdop>
      </trkpt>
      <trkpt lat="44.5730466" lon="3.0686279">
        <ele>1420.2</ele>
        <time>2021-03-09T08:19:55Z</time>
        <hdop>9.6</hdop>
      </trkpt>
      <trkpt lat="44.5727005" lon="3.0688184">
        <ele>1418.9</ele>
        <time>2021-03-09T08:20:25Z</time>
        <hdop>9.6</hdop>
      </trkpt>
      <trkpt lat="44.572391" lon="3.0690534">
        <ele>1424.8</ele>
        <time>2021-03-09T08:20:56Z</time>
        <hdop>9.6</hdop>
      </trkpt>
      <trkpt lat="44.5721087" lon="3.0691128">
        <ele>1432.9</ele>
        <time>2021-03-09T08:21:27Z</time>
        <hdop>9.6</hdop>
      </trkpt>
      <trkpt lat="44.5717514" lon="3.0693566">
        <ele>1433.8</ele>
        <time>2021-03-09T08:21:57Z</time>
        <hdop>3.2</hdop>
      </trkpt>
      <trkpt lat="44.5714013" lon="3.0696656">
        <ele>1432.7</ele>
        <time>2021-03-09T08:22:28Z</time>
        <hdop>3.2</hdop>
      </trkpt>
      <trkpt lat="44.5709893" lon="3.0697812">
        <ele>1432.8</ele>
        <time>2021-03-09T08:22:59Z</time>
        <hdop>3.2</hdop>
      </trkpt>
      <trkpt lat="44.5706618" lon="3.0700131">
        <ele>1440.3</ele>
        <time>2021-03-09T08:23:29Z</time>
        <hdop>3.2</hdop>
      </trkpt>
      <trkpt lat="44.5703022" lon="3.0701833">
        <ele>1439.3</ele>
        <time>2021-03-09T08:24:00Z</time>
        <hdop>3.2</hdop>
      </trkpt>
      <trkpt lat="44.5700167" lon="3.0705494">
        <ele>1440.5</ele>
        <time>2021-03-09T08:24:30Z</time>
        <hdop>3.2</hdop>
      </trkpt>
      <trkpt lat="44.5696157" lon="3.0707345">
        <ele>1440.1</ele>
        <time>2021-03-09T08:25:00Z</time>
        <hdop>3.2</hdop>
      </trkpt>
      <trkpt lat="44.5693116" lon="3.0708861">
        <ele>1438.3</ele>
        <time>2021-03-09T08:25:31Z</time>
        <hdop>3.2</hdop>
      </trkpt>
      <trkpt lat="44.5689602" lon="3.0711707">
        <ele>1439.9</ele>
        <time>2021-03-09T08:26:02Z</time>
        <hdop>3.2</hdop>
      </trkpt>
      <trkpt lat="44.5689014" lon="3.0712955">
        <ele>1442.2</ele>
        <time>2021-03-09T08:26:35Z</time>
        <hdop>3.2</hdop>
      </trkpt>
      <trkpt lat="44.5692013" lon="3.0715629">
        <ele>1441.7</ele>
        <time>2021-03-09T08:27:05Z</time>
        <hdop>3.2</hdop>
      </trkpt>
      <trkpt lat="44.5694361" lon="3.0718806">
        <ele>1446.9</ele>
        <time>2021-03-09T08:27:36Z</time>
        <hdop>3.2</hdop>
      </trkpt>
      <trkpt lat="44.5696143" lon="3.0722126">
        <ele>1453.7</ele>
        <time>2021-03-09T08:28:07Z</time>
        <hdop>3.2</hdop>
      </trkpt>
      <trkpt lat="44.5697012" lon="3.0723931">
        <ele>1460.7</ele>
        <time>2021-03-09T08:28:41Z</time>
        <hdop>3.2</hdop>
      </trkpt>
      <trkpt lat="44.5693645" lon="3.0722332">
        <ele>1463.8</ele>
        <time>2021-03-09T08:29:11Z</time>
        <hdop>3.2</hdop>
      </trkpt>
      <trkpt lat="44.5693069" lon="3.0723261">
        <ele>1455.4</ele>
        <time>2021-03-09T08:55:06Z</time>
        <hdop>3.2</hdop>
      </trkpt>
      <trkpt lat="44.5693931" lon="3.0723313">
        <ele>1457.3</ele>
        <time>2021-03-09T08:55:37Z</time>
        <hdop>3.2</hdop>
      </trkpt>
      <trkpt lat="44.5695018" lon="3.072529">
        <ele>1456.8</ele>
        <time>2021-03-09T08:56:08Z</time>
        <hdop>3.2</hdop>
      </trkpt>
      <trkpt lat="44.569672" lon="3.0728183">
        <ele>1458.2</ele>
        <time>2021-03-09T08:56:38Z</time>
        <hdop>3.2</hdop>
      </trkpt>
      <trkpt lat="44.5697417" lon="3.07317">
        <ele>1458.9</ele>
        <time>2021-03-09T08:57:09Z</time>
        <hdop>3.2</hdop>
      </trkpt>
      <trkpt lat="44.5697283" lon="3.0735487">
        <ele>1458.2</ele>
        <time>2021-03-09T08:57:39Z</time>
        <hdop>3.2</hdop>
      </trkpt>
      <trkpt lat="44.5697494" lon="3.0739753">
        <ele>1454.9</ele>
        <time>2021-03-09T08:58:09Z</time>
        <hdop>3.2</hdop>
      </trkpt>
      <trkpt lat="44.569674" lon="3.0743084">
        <ele>1452.3</ele>
        <time>2021-03-09T08:58:39Z</time>
        <hdop>3.2</hdop>
      </trkpt>
      <trkpt lat="44.5696308" lon="3.0747954">
        <ele>1448.5</ele>
        <time>2021-03-09T08:59:10Z</time>
        <hdop>3.2</hdop>
      </trkpt>
      <trkpt lat="44.5694892" lon="3.0752242">
        <ele>1443.9</ele>
        <time>2021-03-09T08:59:41Z</time>
        <hdop>3.2</hdop>
      </trkpt>
      <trkpt lat="44.5695135" lon="3.0757031">
        <ele>1442.2</ele>
        <time>2021-03-09T09:00:11Z</time>
        <hdop>3.2</hdop>
      </trkpt>
      <trkpt lat="44.5695812" lon="3.0762216">
        <ele>1443.9</ele>
        <time>2021-03-09T09:00:42Z</time>
        <hdop>3.2</hdop>
      </trkpt>
      <trkpt lat="44.5696116" lon="3.0766254">
        <ele>1441.4</ele>
        <time>2021-03-09T09:01:13Z</time>
        <hdop>3.2</hdop>
      </trkpt>
      <trkpt lat="44.5694338" lon="3.0766579">
        <ele>1440.7</ele>
        <time>2021-03-09T09:01:43Z</time>
        <hdop>3.2</hdop>
      </trkpt>
      <trkpt lat="44.5691357" lon="3.0767306">
        <ele>1443</ele>
        <time>2021-03-09T09:02:13Z</time>
        <hdop>3.2</hdop>
      </trkpt>
      <trkpt lat="44.56878" lon="3.0768351">
        <ele>1447.2</ele>
        <time>2021-03-09T09:02:44Z</time>
        <hdop>3.2</hdop>
      </trkpt>
      <trkpt lat="44.5684128" lon="3.0769504">
        <ele>1449.3</ele>
        <time>2021-03-09T09:03:15Z</time>
        <hdop>3.2</hdop>
      </trkpt>
      <trkpt lat="44.5680983" lon="3.0770505">
        <ele>1452.9</ele>
        <time>2021-03-09T09:03:45Z</time>
        <hdop>3.2</hdop>
      </trkpt>
      <trkpt lat="44.5679129" lon="3.077238">
        <ele>1453.8</ele>
        <time>2021-03-09T09:04:16Z</time>
        <hdop>3.2</hdop>
      </trkpt>
      <trkpt lat="44.5676029" lon="3.0775249">
        <ele>1455.9</ele>
        <time>2021-03-09T09:04:47Z</time>
        <hdop>3.2</hdop>
      </trkpt>
      <trkpt lat="44.567317" lon="3.0778486">
        <ele>1458.1</ele>
        <time>2021-03-09T09:05:17Z</time>
        <hdop>3.2</hdop>
      </trkpt>
      <trkpt lat="44.5670064" lon="3.078214">
        <ele>1459.5</ele>
        <time>2021-03-09T09:05:48Z</time>
        <hdop>3.2</hdop>
      </trkpt>
      <trkpt lat="44.566719" lon="3.0786616">
        <ele>1461.8</ele>
        <time>2021-03-09T09:06:19Z</time>
        <hdop>3.2</hdop>
      </trkpt>
      <trkpt lat="44.5664192" lon="3.0791041">
        <ele>1459.5</ele>
        <time>2021-03-09T09:06:50Z</time>
        <hdop>3.2</hdop>
      </trkpt>
      <trkpt lat="44.5661457" lon="3.0795321">
        <ele>1460.4</ele>
        <time>2021-03-09T09:07:21Z</time>
        <hdop>3.2</hdop>
      </trkpt>
      <trkpt lat="44.565906" lon="3.0799519">
        <ele>1461.3</ele>
        <time>2021-03-09T09:07:54Z</time>
        <hdop>3.2</hdop>
      </trkpt>
      <trkpt lat="44.5659608" lon="3.0802766">
        <ele>1463.5</ele>
        <time>2021-03-09T09:08:24Z</time>
        <hdop>3.2</hdop>
      </trkpt>
      <trkpt lat="44.5661428" lon="3.0806679">
        <ele>1467.2</ele>
        <time>2021-03-09T09:08:55Z</time>
        <hdop>3.2</hdop>
      </trkpt>
      <trkpt lat="44.5663685" lon="3.080984">
        <ele>1465.7</ele>
        <time>2021-03-09T09:09:26Z</time>
        <hdop>3.2</hdop>
      </trkpt>
      <trkpt lat="44.566727" lon="3.0811442">
        <ele>1466.8</ele>
        <time>2021-03-09T09:09:57Z</time>
        <hdop>3.2</hdop>
      </trkpt>
      <trkpt lat="44.5668964" lon="3.0815745">
        <ele>1467.8</ele>
        <time>2021-03-09T09:10:27Z</time>
        <hdop>3.2</hdop>
      </trkpt>
      <trkpt lat="44.5669378" lon="3.082099">
        <ele>1468.7</ele>
        <time>2021-03-09T09:10:58Z</time>
        <hdop>3.2</hdop>
      </trkpt>
      <trkpt lat="44.566922" lon="3.0823469">
        <ele>1468.8</ele>
        <time>2021-03-09T09:13:38Z</time>
        <hdop>3.2</hdop>
      </trkpt>
      <trkpt lat="44.5671527" lon="3.0828312">
        <ele>1469.9</ele>
        <time>2021-03-09T09:14:09Z</time>
        <hdop>3.2</hdop>
      </trkpt>
      <trkpt lat="44.5674044" lon="3.083359">
        <ele>1462.5</ele>
        <time>2021-03-09T09:14:40Z</time>
        <hdop>3.2</hdop>
      </trkpt>
      <trkpt lat="44.567656" lon="3.0838934">
        <ele>1460.4</ele>
        <time>2021-03-09T09:15:11Z</time>
        <hdop>3.2</hdop>
      </trkpt>
      <trkpt lat="44.5679303" lon="3.0843157">
        <ele>1456.6</ele>
        <time>2021-03-09T09:15:42Z</time>
        <hdop>3.2</hdop>
      </trkpt>
      <trkpt lat="44.5681235" lon="3.084485">
        <ele>1451.9</ele>
        <time>2021-03-09T09:16:13Z</time>
        <hdop>3.2</hdop>
      </trkpt>
      <trkpt lat="44.5682261" lon="3.0849565">
        <ele>1447.3</ele>
        <time>2021-03-09T09:16:43Z</time>
        <hdop>3.2</hdop>
      </trkpt>
      <trkpt lat="44.5683605" lon="3.0855215">
        <ele>1437.3</ele>
        <time>2021-03-09T09:17:14Z</time>
        <hdop>3.2</hdop>
      </trkpt>
      <trkpt lat="44.5685612" lon="3.0861148">
        <ele>1432.7</ele>
        <time>2021-03-09T09:17:45Z</time>
        <hdop>3.2</hdop>
      </trkpt>
      <trkpt lat="44.5687689" lon="3.0866609">
        <ele>1429.7</ele>
        <time>2021-03-09T09:18:15Z</time>
        <hdop>3.2</hdop>
      </trkpt>
      <trkpt lat="44.5689929" lon="3.0871587">
        <ele>1430.9</ele>
        <time>2021-03-09T09:18:46Z</time>
        <hdop>3.2</hdop>
      </trkpt>
      <trkpt lat="44.5692187" lon="3.0876541">
        <ele>1423.7</ele>
        <time>2021-03-09T09:19:17Z</time>
        <hdop>3.2</hdop>
      </trkpt>
      <trkpt lat="44.5694264" lon="3.0881794">
        <ele>1418.5</ele>
        <time>2021-03-09T09:19:47Z</time>
        <hdop>3.2</hdop>
      </trkpt>
      <trkpt lat="44.5696353" lon="3.088732">
        <ele>1412.7</ele>
        <time>2021-03-09T09:20:18Z</time>
        <hdop>3.2</hdop>
      </trkpt>
      <trkpt lat="44.5698154" lon="3.089133">
        <ele>1407.9</ele>
        <time>2021-03-09T09:20:49Z</time>
        <hdop>3.2</hdop>
      </trkpt>
      <trkpt lat="44.56995" lon="3.0886333">
        <ele>1404.1</ele>
        <time>2021-03-09T09:21:20Z</time>
        <hdop>3.2</hdop>
      </trkpt>
      <trkpt lat="44.5700992" lon="3.0881367">
        <ele>1407.3</ele>
        <time>2021-03-09T09:21:51Z</time>
        <hdop>3.2</hdop>
      </trkpt>
      <trkpt lat="44.5702643" lon="3.0876742">
        <ele>1406.4</ele>
        <time>2021-03-09T09:22:21Z</time>
        <hdop>3.2</hdop>
      </trkpt>
      <trkpt lat="44.5705005" lon="3.0873151">
        <ele>1409</ele>
        <time>2021-03-09T09:22:51Z</time>
        <hdop>3.2</hdop>
      </trkpt>
      <trkpt lat="44.5707791" lon="3.0869319">
        <ele>1408.2</ele>
        <time>2021-03-09T09:23:22Z</time>
        <hdop>3.2</hdop>
      </trkpt>
      <trkpt lat="44.571021" lon="3.0864492">
        <ele>1411.1</ele>
        <time>2021-03-09T09:23:52Z</time>
        <hdop>3.2</hdop>
      </trkpt>
      <trkpt lat="44.571256" lon="3.0860209">
        <ele>1407.8</ele>
        <time>2021-03-09T09:24:23Z</time>
        <hdop>3.2</hdop>
      </trkpt>
      <trkpt lat="44.5714947" lon="3.0855337">
        <ele>1404.7</ele>
        <time>2021-03-09T09:24:54Z</time>
        <hdop>3.2</hdop>
      </trkpt>
      <trkpt lat="44.5717122" lon="3.0850835">
        <ele>1399.6</ele>
        <time>2021-03-09T09:25:24Z</time>
        <hdop>3.2</hdop>
      </trkpt>
      <trkpt lat="44.5719369" lon="3.0847524">
        <ele>1401.4</ele>
        <time>2021-03-09T09:25:55Z</time>
        <hdop>3.2</hdop>
      </trkpt>
      <trkpt lat="44.5719377" lon="3.0846313">
        <ele>1401.2</ele>
        <time>2021-03-09T09:26:26Z</time>
        <hdop>3.2</hdop>
      </trkpt>
      <trkpt lat="44.5721324" lon="3.0842014">
        <ele>1396.3</ele>
        <time>2021-03-09T09:26:56Z</time>
        <hdop>3.2</hdop>
      </trkpt>
      <trkpt lat="44.5723462" lon="3.0838513">
        <ele>1397.2</ele>
        <time>2021-03-09T09:27:27Z</time>
        <hdop>3.2</hdop>
      </trkpt>
      <trkpt lat="44.5723418" lon="3.0837668">
        <ele>1396.9</ele>
        <time>2021-03-09T09:27:58Z</time>
        <hdop>3.2</hdop>
      </trkpt>
      <trkpt lat="44.5725232" lon="3.0833286">
        <ele>1396.3</ele>
        <time>2021-03-09T09:28:28Z</time>
        <hdop>3.2</hdop>
      </trkpt>
      <trkpt lat="44.5729247" lon="3.0833756">
        <ele>1395.6</ele>
        <time>2021-03-09T09:28:59Z</time>
        <hdop>3.2</hdop>
      </trkpt>
      <trkpt lat="44.5732292" lon="3.0836951">
        <ele>1399.5</ele>
        <time>2021-03-09T09:29:30Z</time>
        <hdop>3.2</hdop>
      </trkpt>
      <trkpt lat="44.5735788" lon="3.083898">
        <ele>1402.6</ele>
        <time>2021-03-09T09:30:01Z</time>
        <hdop>3.2</hdop>
      </trkpt>
      <trkpt lat="44.5737468" lon="3.0839852">
        <ele>1401.9</ele>
        <time>2021-03-09T09:30:31Z</time>
        <hdop>3.2</hdop>
      </trkpt>
      <trkpt lat="44.5740559" lon="3.0841369">
        <ele>1403.5</ele>
        <time>2021-03-09T09:31:02Z</time>
        <hdop>3.2</hdop>
      </trkpt>
      <trkpt lat="44.574364" lon="3.0844435">
        <ele>1408.2</ele>
        <time>2021-03-09T09:31:32Z</time>
        <hdop>3.2</hdop>
      </trkpt>
      <trkpt lat="44.5747234" lon="3.0846823">
        <ele>1410.8</ele>
        <time>2021-03-09T09:32:03Z</time>
        <hdop>3.2</hdop>
      </trkpt>
      <trkpt lat="44.5750744" lon="3.0848563">
        <ele>1413.6</ele>
        <time>2021-03-09T09:32:33Z</time>
        <hdop>3.2</hdop>
      </trkpt>
      <trkpt lat="44.5754499" lon="3.0850635">
        <ele>1409.3</ele>
        <time>2021-03-09T09:33:04Z</time>
        <hdop>3.2</hdop>
      </trkpt>
      <trkpt lat="44.5757329" lon="3.0853386">
        <ele>1411.3</ele>
        <time>2021-03-09T09:33:34Z</time>
        <hdop>3.2</hdop>
      </trkpt>
      <trkpt lat="44.5760429" lon="3.08538">
        <ele>1410.4</ele>
        <time>2021-03-09T09:34:05Z</time>
        <hdop>3.2</hdop>
      </trkpt>
      <trkpt lat="44.5764222" lon="3.0854586">
        <ele>1413.6</ele>
        <time>2021-03-09T09:34:35Z</time>
        <hdop>3.2</hdop>
      </trkpt>
      <trkpt lat="44.5768606" lon="3.0856214">
        <ele>1399.7</ele>
        <time>2021-03-09T09:35:06Z</time>
        <hdop>6.4</hdop>
      </trkpt>
      <trkpt lat="44.5772253" lon="3.0857854">
        <ele>1398.8</ele>
        <time>2021-03-09T09:35:36Z</time>
        <hdop>3.2</hdop>
      </trkpt>
      <trkpt lat="44.5777079" lon="3.0859337">
        <ele>1389.3</ele>
        <time>2021-03-09T09:36:07Z</time>
        <hdop>3.2</hdop>
      </trkpt>
      <trkpt lat="44.5780609" lon="3.0860455">
        <ele>1392.2</ele>
        <time>2021-03-09T09:36:37Z</time>
        <hdop>3.2</hdop>
      </trkpt>
      <trkpt lat="44.5784408" lon="3.0862707">
        <ele>1388.1</ele>
        <time>2021-03-09T09:37:07Z</time>
        <hdop>3.2</hdop>
      </trkpt>
      <trkpt lat="44.5787622" lon="3.0866685">
        <ele>1383.9</ele>
        <time>2021-03-09T09:37:38Z</time>
        <hdop>3.2</hdop>
      </trkpt>
      <trkpt lat="44.578861" lon="3.0871192">
        <ele>1384.6</ele>
        <time>2021-03-09T09:38:08Z</time>
        <hdop>3.2</hdop>
      </trkpt>
      <trkpt lat="44.578737" lon="3.0875053">
        <ele>1382.4</ele>
        <time>2021-03-09T09:39:01Z</time>
        <hdop>3.2</hdop>
      </trkpt>
      <trkpt lat="44.5786291" lon="3.0878069">
        <ele>1380.7</ele>
        <time>2021-03-09T09:39:32Z</time>
        <hdop>3.2</hdop>
      </trkpt>
      <trkpt lat="44.5784502" lon="3.0883566">
        <ele>1377.9</ele>
        <time>2021-03-09T09:40:03Z</time>
        <hdop>3.2</hdop>
      </trkpt>
      <trkpt lat="44.5783523" lon="3.0888657">
        <ele>1377.3</ele>
        <time>2021-03-09T09:40:34Z</time>
        <hdop>3.2</hdop>
      </trkpt>
      <trkpt lat="44.5781759" lon="3.0894199">
        <ele>1372.2</ele>
        <time>2021-03-09T09:41:05Z</time>
        <hdop>3.2</hdop>
      </trkpt>
      <trkpt lat="44.5779319" lon="3.089857">
        <ele>1366.9</ele>
        <time>2021-03-09T09:41:35Z</time>
        <hdop>3.2</hdop>
      </trkpt>
      <trkpt lat="44.577614" lon="3.0901019">
        <ele>1365.5</ele>
        <time>2021-03-09T09:42:06Z</time>
        <hdop>3.2</hdop>
      </trkpt>
      <trkpt lat="44.5773657" lon="3.0902796">
        <ele>1361.7</ele>
        <time>2021-03-09T09:42:44Z</time>
        <hdop>3.2</hdop>
      </trkpt>
      <trkpt lat="44.5771134" lon="3.0904699">
        <ele>1358.6</ele>
        <time>2021-03-09T09:43:14Z</time>
        <hdop>3.2</hdop>
      </trkpt>
      <trkpt lat="44.576926" lon="3.0907797">
        <ele>1354.9</ele>
        <time>2021-03-09T09:43:44Z</time>
        <hdop>3.2</hdop>
      </trkpt>
      <trkpt lat="44.5765971" lon="3.0910912">
        <ele>1346.3</ele>
        <time>2021-03-09T09:44:15Z</time>
        <hdop>3.2</hdop>
      </trkpt>
      <trkpt lat="44.5764313" lon="3.0915574">
        <ele>1348.8</ele>
        <time>2021-03-09T09:49:11Z</time>
        <hdop>3.2</hdop>
      </trkpt>
      <trkpt lat="44.5763103" lon="3.092054">
        <ele>1337.1</ele>
        <time>2021-03-09T09:49:41Z</time>
        <hdop>3.2</hdop>
      </trkpt>
      <trkpt lat="44.5760959" lon="3.0924638">
        <ele>1330.7</ele>
        <time>2021-03-09T09:50:12Z</time>
        <hdop>3.2</hdop>
      </trkpt>
      <trkpt lat="44.5761283" lon="3.0929711">
        <ele>1326</ele>
        <time>2021-03-09T09:50:43Z</time>
        <hdop>3.2</hdop>
      </trkpt>
      <trkpt lat="44.5760194" lon="3.0935236">
        <ele>1321.7</ele>
        <time>2021-03-09T09:51:14Z</time>
        <hdop>3.2</hdop>
      </trkpt>
      <trkpt lat="44.5759661" lon="3.0941121">
        <ele>1321.4</ele>
        <time>2021-03-09T09:51:44Z</time>
        <hdop>3.2</hdop>
      </trkpt>
      <trkpt lat="44.5758042" lon="3.0946794">
        <ele>1316</ele>
        <time>2021-03-09T09:52:15Z</time>
        <hdop>3.2</hdop>
      </trkpt>
      <trkpt lat="44.575821" lon="3.0953507">
        <ele>1311.4</ele>
        <time>2021-03-09T09:52:46Z</time>
        <hdop>3.2</hdop>
      </trkpt>
      <trkpt lat="44.5758891" lon="3.0959971">
        <ele>1308.2</ele>
        <time>2021-03-09T09:53:16Z</time>
        <hdop>3.2</hdop>
      </trkpt>
      <trkpt lat="44.5759917" lon="3.0966434">
        <ele>1312.9</ele>
        <time>2021-03-09T09:53:47Z</time>
        <hdop>3.2</hdop>
      </trkpt>
      <trkpt lat="44.5758778" lon="3.0973281">
        <ele>1311.2</ele>
        <time>2021-03-09T09:54:17Z</time>
        <hdop>3.2</hdop>
      </trkpt>
      <trkpt lat="44.5759208" lon="3.0979309">
        <ele>1311.2</ele>
        <time>2021-03-09T09:54:48Z</time>
        <hdop>3.2</hdop>
      </trkpt>
      <trkpt lat="44.575777" lon="3.0985185">
        <ele>1311.5</ele>
        <time>2021-03-09T09:55:19Z</time>
        <hdop>3.2</hdop>
      </trkpt>
      <trkpt lat="44.5756548" lon="3.0990328">
        <ele>1314.5</ele>
        <time>2021-03-09T09:55:50Z</time>
        <hdop>3.2</hdop>
      </trkpt>
      <trkpt lat="44.575542" lon="3.0995144">
        <ele>1312.9</ele>
        <time>2021-03-09T09:56:20Z</time>
        <hdop>3.2</hdop>
      </trkpt>
      <trkpt lat="44.5754621" lon="3.0999836">
        <ele>1316</ele>
        <time>2021-03-09T09:56:51Z</time>
        <hdop>3.2</hdop>
      </trkpt>
      <trkpt lat="44.5754066" lon="3.1004024">
        <ele>1326.9</ele>
        <time>2021-03-09T09:57:21Z</time>
        <hdop>3.2</hdop>
      </trkpt>
      <trkpt lat="44.5753042" lon="3.1008538">
        <ele>1334.1</ele>
        <time>2021-03-09T09:57:52Z</time>
        <hdop>3.2</hdop>
      </trkpt>
      <trkpt lat="44.5752" lon="3.1013358">
        <ele>1336.2</ele>
        <time>2021-03-09T09:58:23Z</time>
        <hdop>3.2</hdop>
      </trkpt>
      <trkpt lat="44.5750922" lon="3.1018109">
        <ele>1338.7</ele>
        <time>2021-03-09T09:58:53Z</time>
        <hdop>3.2</hdop>
      </trkpt>
      <trkpt lat="44.5749554" lon="3.1023468">
        <ele>1342.1</ele>
        <time>2021-03-09T09:59:24Z</time>
        <hdop>3.2</hdop>
      </trkpt>
      <trkpt lat="44.5748139" lon="3.1028284">
        <ele>1346.5</ele>
        <time>2021-03-09T09:59:55Z</time>
        <hdop>3.2</hdop>
      </trkpt>
      <trkpt lat="44.5746586" lon="3.1033255">
        <ele>1349.8</ele>
        <time>2021-03-09T10:00:26Z</time>
        <hdop>3.2</hdop>
      </trkpt>
      <trkpt lat="44.5745262" lon="3.1038738">
        <ele>1352</ele>
        <time>2021-03-09T10:00:57Z</time>
        <hdop>3.2</hdop>
      </trkpt>
      <trkpt lat="44.5743527" lon="3.1044107">
        <ele>1356.6</ele>
        <time>2021-03-09T10:01:27Z</time>
        <hdop>3.2</hdop>
      </trkpt>
      <trkpt lat="44.5742156" lon="3.1049013">
        <ele>1358.9</ele>
        <time>2021-03-09T10:01:57Z</time>
        <hdop>3.2</hdop>
      </trkpt>
      <trkpt lat="44.5740787" lon="3.1054076">
        <ele>1365.1</ele>
        <time>2021-03-09T10:02:27Z</time>
        <hdop>3.2</hdop>
      </trkpt>
      <trkpt lat="44.5739257" lon="3.105913">
        <ele>1371</ele>
        <time>2021-03-09T10:02:58Z</time>
        <hdop>3.2</hdop>
      </trkpt>
      <trkpt lat="44.5738801" lon="3.1064512">
        <ele>1374.1</ele>
        <time>2021-03-09T10:03:28Z</time>
        <hdop>3.2</hdop>
      </trkpt>
      <trkpt lat="44.5740153" lon="3.106989">
        <ele>1374.7</ele>
        <time>2021-03-09T10:03:58Z</time>
        <hdop>3.2</hdop>
      </trkpt>
      <trkpt lat="44.5741158" lon="3.1073418">
        <ele>1377.4</ele>
        <time>2021-03-09T10:04:29Z</time>
        <hdop>3.2</hdop>
      </trkpt>
      <trkpt lat="44.5741343" lon="3.107453">
        <ele>1377.3</ele>
        <time>2021-03-09T10:05:00Z</time>
        <hdop>3.2</hdop>
      </trkpt>
      <trkpt lat="44.5741866" lon="3.1079186">
        <ele>1375.9</ele>
        <time>2021-03-09T10:06:22Z</time>
        <hdop>3.2</hdop>
      </trkpt>
      <trkpt lat="44.5742286" lon="3.108482">
        <ele>1375</ele>
        <time>2021-03-09T10:06:52Z</time>
        <hdop>3.2</hdop>
      </trkpt>
      <trkpt lat="44.5742727" lon="3.1090602">
        <ele>1375</ele>
        <time>2021-03-09T10:07:23Z</time>
        <hdop>3.2</hdop>
      </trkpt>
      <trkpt lat="44.5743034" lon="3.1095882">
        <ele>1370.3</ele>
        <time>2021-03-09T10:07:54Z</time>
        <hdop>3.2</hdop>
      </trkpt>
      <trkpt lat="44.5743945" lon="3.1101125">
        <ele>1365.9</ele>
        <time>2021-03-09T10:08:24Z</time>
        <hdop>3.2</hdop>
      </trkpt>
      <trkpt lat="44.5744852" lon="3.1106678">
        <ele>1361.8</ele>
        <time>2021-03-09T10:08:55Z</time>
        <hdop>3.2</hdop>
      </trkpt>
      <trkpt lat="44.5744379" lon="3.1112201">
        <ele>1355.4</ele>
        <time>2021-03-09T10:09:25Z</time>
        <hdop>3.2</hdop>
      </trkpt>
      <trkpt lat="44.5742978" lon="3.1117523">
        <ele>1356.4</ele>
        <time>2021-03-09T10:09:56Z</time>
        <hdop>3.2</hdop>
      </trkpt>
      <trkpt lat="44.5741465" lon="3.1122896">
        <ele>1351.6</ele>
        <time>2021-03-09T10:10:27Z</time>
        <hdop>3.2</hdop>
      </trkpt>
      <trkpt lat="44.573983" lon="3.1128274">
        <ele>1347.4</ele>
        <time>2021-03-09T10:10:58Z</time>
        <hdop>3.2</hdop>
      </trkpt>
      <trkpt lat="44.5737955" lon="3.1133625">
        <ele>1343.9</ele>
        <time>2021-03-09T10:11:28Z</time>
        <hdop>3.2</hdop>
      </trkpt>
      <trkpt lat="44.5735429" lon="3.1138174">
        <ele>1345.6</ele>
        <time>2021-03-09T10:11:59Z</time>
        <hdop>3.2</hdop>
      </trkpt>
      <trkpt lat="44.5732371" lon="3.1141743">
        <ele>1339.9</ele>
        <time>2021-03-09T10:12:29Z</time>
        <hdop>3.2</hdop>
      </trkpt>
      <trkpt lat="44.5729851" lon="3.114629">
        <ele>1335.8</ele>
        <time>2021-03-09T10:12:59Z</time>
        <hdop>3.2</hdop>
      </trkpt>
      <trkpt lat="44.5727243" lon="3.1150914">
        <ele>1340.1</ele>
        <time>2021-03-09T10:13:29Z</time>
        <hdop>3.2</hdop>
      </trkpt>
      <trkpt lat="44.5724859" lon="3.1155684">
        <ele>1336.8</ele>
        <time>2021-03-09T10:14:00Z</time>
        <hdop>3.2</hdop>
      </trkpt>
      <trkpt lat="44.5722947" lon="3.1160682">
        <ele>1333.1</ele>
        <time>2021-03-09T10:14:30Z</time>
        <hdop>3.2</hdop>
      </trkpt>
      <trkpt lat="44.5721081" lon="3.1165829">
        <ele>1325.3</ele>
        <time>2021-03-09T10:15:01Z</time>
        <hdop>3.2</hdop>
      </trkpt>
      <trkpt lat="44.5719069" lon="3.1170286">
        <ele>1326.3</ele>
        <time>2021-03-09T10:15:32Z</time>
        <hdop>3.2</hdop>
      </trkpt>
      <trkpt lat="44.5715432" lon="3.1173001">
        <ele>1327.8</ele>
        <time>2021-03-09T10:16:03Z</time>
        <hdop>3.2</hdop>
      </trkpt>
      <trkpt lat="44.5713767" lon="3.117656">
        <ele>1328</ele>
        <time>2021-03-09T10:16:33Z</time>
        <hdop>3.2</hdop>
      </trkpt>
      <trkpt lat="44.5715457" lon="3.118134">
        <ele>1328</ele>
        <time>2021-03-09T10:17:04Z</time>
        <hdop>3.2</hdop>
      </trkpt>
      <trkpt lat="44.5717164" lon="3.1186328">
        <ele>1326.1</ele>
        <time>2021-03-09T10:17:35Z</time>
        <hdop>3.2</hdop>
      </trkpt>
      <trkpt lat="44.5717634" lon="3.1189204">
        <ele>1326.2</ele>
        <time>2021-03-09T10:18:08Z</time>
        <hdop>3.2</hdop>
      </trkpt>
      <trkpt lat="44.5718212" lon="3.119406">
        <ele>1331</ele>
        <time>2021-03-09T10:19:51Z</time>
        <hdop>3.2</hdop>
      </trkpt>
      <trkpt lat="44.5718879" lon="3.1199357">
        <ele>1331</ele>
        <time>2021-03-09T10:20:22Z</time>
        <hdop>3.2</hdop>
      </trkpt>
      <trkpt lat="44.5719798" lon="3.1204719">
        <ele>1333.3</ele>
        <time>2021-03-09T10:20:53Z</time>
        <hdop>3.2</hdop>
      </trkpt>
      <trkpt lat="44.5719708" lon="3.1210461">
        <ele>1337.3</ele>
        <time>2021-03-09T10:21:24Z</time>
        <hdop>3.2</hdop>
      </trkpt>
      <trkpt lat="44.5718112" lon="3.1215451">
        <ele>1337.4</ele>
        <time>2021-03-09T10:21:54Z</time>
        <hdop>3.2</hdop>
      </trkpt>
      <trkpt lat="44.5715755" lon="3.1219789">
        <ele>1340.9</ele>
        <time>2021-03-09T10:22:25Z</time>
        <hdop>3.2</hdop>
      </trkpt>
      <trkpt lat="44.5715163" lon="3.1224446">
        <ele>1338.4</ele>
        <time>2021-03-09T10:22:56Z</time>
        <hdop>3.2</hdop>
      </trkpt>
      <trkpt lat="44.5714501" lon="3.1228909">
        <ele>1342.4</ele>
        <time>2021-03-09T10:23:27Z</time>
        <hdop>3.2</hdop>
      </trkpt>
      <trkpt lat="44.5713933" lon="3.1233169">
        <ele>1345.3</ele>
        <time>2021-03-09T10:23:57Z</time>
        <hdop>3.2</hdop>
      </trkpt>
      <trkpt lat="44.5711747" lon="3.1236858">
        <ele>1347</ele>
        <time>2021-03-09T10:24:28Z</time>
        <hdop>3.2</hdop>
      </trkpt>
      <trkpt lat="44.5707533" lon="3.1238056">
        <ele>1347.8</ele>
        <time>2021-03-09T10:25:39Z</time>
        <hdop>3.2</hdop>
      </trkpt>
      <trkpt lat="44.5704385" lon="3.1239876">
        <ele>1348.6</ele>
        <time>2021-03-09T10:26:09Z</time>
        <hdop>3.2</hdop>
      </trkpt>
      <trkpt lat="44.5701846" lon="3.1242949">
        <ele>1351.2</ele>
        <time>2021-03-09T10:26:40Z</time>
        <hdop>3.2</hdop>
      </trkpt>
      <trkpt lat="44.5699566" lon="3.1246538">
        <ele>1357.9</ele>
        <time>2021-03-09T10:27:10Z</time>
        <hdop>3.2</hdop>
      </trkpt>
      <trkpt lat="44.5696759" lon="3.1249835">
        <ele>1360.7</ele>
        <time>2021-03-09T10:27:40Z</time>
        <hdop>3.2</hdop>
      </trkpt>
      <trkpt lat="44.569445" lon="3.1253186">
        <ele>1363.5</ele>
        <time>2021-03-09T10:28:11Z</time>
        <hdop>3.2</hdop>
      </trkpt>
      <trkpt lat="44.5692961" lon="3.1257238">
        <ele>1364.6</ele>
        <time>2021-03-09T10:28:41Z</time>
        <hdop>3.2</hdop>
      </trkpt>
      <trkpt lat="44.5692278" lon="3.1261314">
        <ele>1366.7</ele>
        <time>2021-03-09T10:29:12Z</time>
        <hdop>9.6</hdop>
      </trkpt>
      <trkpt lat="44.5690539" lon="3.1264938">
        <ele>1371.5</ele>
        <time>2021-03-09T10:29:42Z</time>
        <hdop>9.6</hdop>
      </trkpt>
      <trkpt lat="44.5689605" lon="3.1268798">
        <ele>1374.4</ele>
        <time>2021-03-09T10:30:12Z</time>
        <hdop>9.6</hdop>
      </trkpt>
      <trkpt lat="44.5688221" lon="3.1272362">
        <ele>1376.5</ele>
        <time>2021-03-09T10:30:42Z</time>
        <hdop>3.2</hdop>
      </trkpt>
      <trkpt lat="44.5686239" lon="3.1275458">
        <ele>1381.6</ele>
        <time>2021-03-09T10:31:12Z</time>
        <hdop>3.2</hdop>
      </trkpt>
      <trkpt lat="44.5683927" lon="3.127854">
        <ele>1386.1</ele>
        <time>2021-03-09T10:31:43Z</time>
        <hdop>9.6</hdop>
      </trkpt>
      <trkpt lat="44.5681901" lon="3.1283174">
        <ele>1383.3</ele>
        <time>2021-03-09T10:32:14Z</time>
        <hdop>9.6</hdop>
      </trkpt>
      <trkpt lat="44.5679361" lon="3.1287749">
        <ele>1390.6</ele>
        <time>2021-03-09T10:32:45Z</time>
        <hdop>9.6</hdop>
      </trkpt>
      <trkpt lat="44.5677454" lon="3.1292423">
        <ele>1392.5</ele>
        <time>2021-03-09T10:33:16Z</time>
        <hdop>9.6</hdop>
      </trkpt>
      <trkpt lat="44.5675403" lon="3.1297437">
        <ele>1394.5</ele>
        <time>2021-03-09T10:33:46Z</time>
        <hdop>9.6</hdop>
      </trkpt>
      <trkpt lat="44.5673439" lon="3.1302374">
        <ele>1391.2</ele>
        <time>2021-03-09T10:34:16Z</time>
        <hdop>3.2</hdop>
      </trkpt>
      <trkpt lat="44.5671322" lon="3.1307475">
        <ele>1392</ele>
        <time>2021-03-09T10:34:47Z</time>
        <hdop>3.2</hdop>
      </trkpt>
      <trkpt lat="44.5669061" lon="3.1312205">
        <ele>1394.6</ele>
        <time>2021-03-09T10:35:17Z</time>
        <hdop>9.6</hdop>
      </trkpt>
      <trkpt lat="44.566673" lon="3.1316492">
        <ele>1390.2</ele>
        <time>2021-03-09T10:35:48Z</time>
        <hdop>9.6</hdop>
      </trkpt>
      <trkpt lat="44.5664447" lon="3.1321312">
        <ele>1391.4</ele>
        <time>2021-03-09T10:36:18Z</time>
        <hdop>9.6</hdop>
      </trkpt>
      <trkpt lat="44.5661924" lon="3.1325702">
        <ele>1392.7</ele>
        <time>2021-03-09T10:36:49Z</time>
        <hdop>9.6</hdop>
      </trkpt>
      <trkpt lat="44.5659183" lon="3.1329749">
        <ele>1391.4</ele>
        <time>2021-03-09T10:37:20Z</time>
        <hdop>9.6</hdop>
      </trkpt>
      <trkpt lat="44.5656556" lon="3.133385">
        <ele>1390.2</ele>
        <time>2021-03-09T10:37:50Z</time>
        <hdop>9.6</hdop>
      </trkpt>
      <trkpt lat="44.5653277" lon="3.1338111">
        <ele>1394.3</ele>
        <time>2021-03-09T10:38:21Z</time>
        <hdop>9.6</hdop>
      </trkpt>
      <trkpt lat="44.5650117" lon="3.1341136">
        <ele>1393.1</ele>
        <time>2021-03-09T10:38:52Z</time>
        <hdop>9.6</hdop>
      </trkpt>
      <trkpt lat="44.5646519" lon="3.1342472">
        <ele>1390.6</ele>
        <time>2021-03-09T10:39:22Z</time>
        <hdop>9.6</hdop>
      </trkpt>
      <trkpt lat="44.5642231" lon="3.1344229">
        <ele>1382.4</ele>
        <time>2021-03-09T10:39:53Z</time>
        <hdop>3.2</hdop>
      </trkpt>
      <trkpt lat="44.5638309" lon="3.1345121">
        <ele>1386.9</ele>
        <time>2021-03-09T10:40:23Z</time>
        <hdop>3.2</hdop>
      </trkpt>
      <trkpt lat="44.5633477" lon="3.1345969">
        <ele>1387.8</ele>
        <time>2021-03-09T10:40:54Z</time>
        <hdop>9.6</hdop>
      </trkpt>
      <trkpt lat="44.562911" lon="3.1346819">
        <ele>1376.1</ele>
        <time>2021-03-09T10:41:25Z</time>
        <hdop>3.2</hdop>
      </trkpt>
      <trkpt lat="44.5625155" lon="3.1346865">
        <ele>1375.7</ele>
        <time>2021-03-09T10:41:55Z</time>
        <hdop>3.2</hdop>
      </trkpt>
      <trkpt lat="44.5620583" lon="3.1347679">
        <ele>1374.2</ele>
        <time>2021-03-09T10:42:26Z</time>
        <hdop>3.2</hdop>
      </trkpt>
      <trkpt lat="44.5616098" lon="3.1348447">
        <ele>1374.6</ele>
        <time>2021-03-09T10:42:56Z</time>
        <hdop>3.2</hdop>
      </trkpt>
      <trkpt lat="44.561204" lon="3.1347488">
        <ele>1376</ele>
        <time>2021-03-09T10:43:26Z</time>
        <hdop>3.2</hdop>
      </trkpt>
      <trkpt lat="44.5607739" lon="3.1345815">
        <ele>1367.8</ele>
        <time>2021-03-09T10:43:57Z</time>
        <hdop>3.2</hdop>
      </trkpt>
      <trkpt lat="44.5605914" lon="3.1340882">
        <ele>1368.1</ele>
        <time>2021-03-09T10:44:27Z</time>
        <hdop>5.4</hdop>
      </trkpt>
      <trkpt lat="44.5604035" lon="3.1336244">
        <ele>1364.1</ele>
        <time>2021-03-09T10:44:57Z</time>
        <hdop>9.6</hdop>
      </trkpt>
      <trkpt lat="44.5603446" lon="3.133054">
        <ele>1367.3</ele>
        <time>2021-03-09T10:45:28Z</time>
        <hdop>9.6</hdop>
      </trkpt>
      <trkpt lat="44.5604838" lon="3.1326582">
        <ele>1363.3</ele>
        <time>2021-03-09T10:45:58Z</time>
        <hdop>3.2</hdop>
      </trkpt>
      <trkpt lat="44.5602407" lon="3.1322662">
        <ele>1358.2</ele>
        <time>2021-03-09T10:46:29Z</time>
        <hdop>3.2</hdop>
      </trkpt>
      <trkpt lat="44.5598792" lon="3.1319964">
        <ele>1353.7</ele>
        <time>2021-03-09T10:47:00Z</time>
        <hdop>3.2</hdop>
      </trkpt>
      <trkpt lat="44.5598332" lon="3.1314246">
        <ele>1350</ele>
        <time>2021-03-09T10:47:30Z</time>
        <hdop>3.2</hdop>
      </trkpt>
      <trkpt lat="44.5601652" lon="3.1310403">
        <ele>1347.8</ele>
        <time>2021-03-09T10:48:01Z</time>
        <hdop>3.2</hdop>
      </trkpt>
      <trkpt lat="44.5601986" lon="3.1304137">
        <ele>1344.6</ele>
        <time>2021-03-09T10:48:32Z</time>
        <hdop>3.2</hdop>
      </trkpt>
      <trkpt lat="44.5600364" lon="3.1297735">
        <ele>1347.3</ele>
        <time>2021-03-09T10:49:02Z</time>
        <hdop>3.2</hdop>
      </trkpt>
      <trkpt lat="44.5600116" lon="3.1291774">
        <ele>1348.5</ele>
        <time>2021-03-09T10:49:33Z</time>
        <hdop>3.2</hdop>
      </trkpt>
      <trkpt lat="44.5602744" lon="3.1287383">
        <ele>1342.6</ele>
        <time>2021-03-09T10:50:03Z</time>
        <hdop>3.2</hdop>
      </trkpt>
      <trkpt lat="44.5600342" lon="3.1282391">
        <ele>1342.3</ele>
        <time>2021-03-09T10:50:33Z</time>
        <hdop>3.2</hdop>
      </trkpt>
      <trkpt lat="44.5596136" lon="3.1279622">
        <ele>1343.4</ele>
        <time>2021-03-09T10:51:03Z</time>
        <hdop>3.2</hdop>
      </trkpt>
      <trkpt lat="44.5592564" lon="3.127686">
        <ele>1341.5</ele>
        <time>2021-03-09T10:51:34Z</time>
        <hdop>3.2</hdop>
      </trkpt>
      <trkpt lat="44.5593404" lon="3.1271228">
        <ele>1340.9</ele>
        <time>2021-03-09T10:52:04Z</time>
        <hdop>3.2</hdop>
      </trkpt>
      <trkpt lat="44.5594419" lon="3.1265675">
        <ele>1340.4</ele>
        <time>2021-03-09T10:52:35Z</time>
        <hdop>3.2</hdop>
      </trkpt>
    </trkseg>
  </trk>
</gpx>